﻿[  
   {  
      "UserId":null,
      "JobId":41,
      "CreateTime":"\/Date(1427148680000)\/",
      "ProcessBeginTime":null,
      "ProcessEndTime":null,
      "State":0,
      "JobType":null,
      "JobTypeName":"BondedDoubler",
      "CompletionStage":"",
      "ParameterGroups":null,
      "AllParameters":[  

      ]
   },
   {  
      "UserId":null,
      "JobId":42,
      "CreateTime":"\/Date(1427148808000)\/",
      "ProcessBeginTime":null,
      "ProcessEndTime":null,
      "State":0,
      "JobType":null,
      "JobTypeName":"BondedDoubler",
      "CompletionStage":"",
      "ParameterGroups":null,
      "AllParameters":[  

      ]
   },
   {  
      "UserId":null,
      "JobId":43,
      "CreateTime":"\/Date(1427149332000)\/",
      "ProcessBeginTime":null,
      "ProcessEndTime":null,
      "State":0,
      "JobType":null,
      "JobTypeName":"BondedDoubler",
      "CompletionStage":"",
      "ParameterGroups":null,
      "AllParameters":[  

      ]
   },
   {  
      "UserId":null,
      "JobId":44,
      "CreateTime":"\/Date(1427305992000)\/",
      "ProcessBeginTime":null,
      "ProcessEndTime":null,
      "State":0,
      "JobType":null,
      "JobTypeName":"BondedDoubler",
      "CompletionStage":"",
      "ParameterGroups":null,
      "AllParameters":[  

      ]
   },
   {  
      "UserId":null,
      "JobId":45,
      "CreateTime":"\/Date(1427305992000)\/",
      "ProcessBeginTime":null,
      "ProcessEndTime":null,
      "State":0,
      "JobType":null,
      "JobTypeName":"BondedDoubler",
      "CompletionStage":"",
      "ParameterGroups":null,
      "AllParameters":[  

      ]
   },
   {  
      "UserId":null,
      "JobId":46,
      "CreateTime":"\/Date(1427307732000)\/",
      "ProcessBeginTime":null,
      "ProcessEndTime":null,
      "State":0,
      "JobType":null,
      "JobTypeName":"BondedDoubler",
      "CompletionStage":"",
      "ParameterGroups":null,
      "AllParameters":[  

      ]
   },
   {  
      "UserId":null,
      "JobId":47,
      "CreateTime":"\/Date(1427307732000)\/",
      "ProcessBeginTime":null,
      "ProcessEndTime":null,
      "State":0,
      "JobType":null,
      "JobTypeName":"BondedDoubler",
      "CompletionStage":"",
      "ParameterGroups":null,
      "AllParameters":[  

      ]
   },
   {  
      "UserId":null,
      "JobId":48,
      "CreateTime":"\/Date(1427307870000)\/",
      "ProcessBeginTime":null,
      "ProcessEndTime":null,
      "State":0,
      "JobType":null,
      "JobTypeName":"BondedDoubler",
      "CompletionStage":"",
      "ParameterGroups":null,
      "AllParameters":[  

      ]
   },
   {  
      "UserId":null,
      "JobId":49,
      "CreateTime":"\/Date(1427307870000)\/",
      "ProcessBeginTime":null,
      "ProcessEndTime":null,
      "State":0,
      "JobType":null,
      "JobTypeName":"BondedDoubler",
      "CompletionStage":"",
      "ParameterGroups":null,
      "AllParameters":[  

      ]
   },
   {  
      "UserId":null,
      "JobId":50,
      "CreateTime":"\/Date(1427389758000)\/",
      "ProcessBeginTime":null,
      "ProcessEndTime":null,
      "State":0,
      "JobType":null,
      "JobTypeName":"BondedDoubler",
      "CompletionStage":"",
      "ParameterGroups":null,
      "AllParameters":[  

      ]
   },
   {  
      "UserId":null,
      "JobId":51,
      "CreateTime":"\/Date(1427389758000)\/",
      "ProcessBeginTime":null,
      "ProcessEndTime":null,
      "State":0,
      "JobType":null,
      "JobTypeName":"BondedDoubler",
      "CompletionStage":"",
      "ParameterGroups":null,
      "AllParameters":[  

      ]
   },
   {  
      "UserId":null,
      "JobId":52,
      "CreateTime":"\/Date(1427389775000)\/",
      "ProcessBeginTime":null,
      "ProcessEndTime":null,
      "State":0,
      "JobType":null,
      "JobTypeName":"BondedDoubler",
      "CompletionStage":"",
      "ParameterGroups":null,
      "AllParameters":[  

      ]
   },
   {  
      "UserId":null,
      "JobId":53,
      "CreateTime":"\/Date(1427389775000)\/",
      "ProcessBeginTime":null,
      "ProcessEndTime":null,
      "State":0,
      "JobType":null,
      "JobTypeName":"BondedDoubler",
      "CompletionStage":"",
      "ParameterGroups":null,
      "AllParameters":[  

      ]
   },
   {  
      "UserId":null,
      "JobId":54,
      "CreateTime":"\/Date(1427471920000)\/",
      "ProcessBeginTime":null,
      "ProcessEndTime":null,
      "State":0,
      "JobType":null,
      "JobTypeName":"BondedDoubler",
      "CompletionStage":"",
      "ParameterGroups":null,
      "AllParameters":[  

      ]
   },
   {  
      "UserId":null,
      "JobId":55,
      "CreateTime":"\/Date(1427471920000)\/",
      "ProcessBeginTime":null,
      "ProcessEndTime":null,
      "State":0,
      "JobType":null,
      "JobTypeName":"BondedDoubler",
      "CompletionStage":"",
      "ParameterGroups":null,
      "AllParameters":[  

      ]
   }
]