<?xml version="1.0" encoding="utf-8"?>
<!-- Generator: Adobe Illustrator 19.1.1, SVG Export Plug-In . SVG Version: 6.00 Build 0)  -->
<svg version="1.1" id="Layer_1" xmlns="http://www.w3.org/2000/svg" xmlns:xlink="http://www.w3.org/1999/xlink" x="0px" y="0px"
	 viewBox="0 0 512.4 485" style="enable-background:new 0 0 512.4 485;" xml:space="preserve">
<style type="text/css">
	.st0{fill:#FFFFFF;}
	.st1{enable-background:new    ;}
	.st2{clip-path:url(#SVGID_2_);enable-background:new    ;}
	.st3{fill:#07275C;}
	.st4{fill:#07275D;}
	.st5{fill:#07285D;}
	.st6{fill:#07285E;}
	.st7{fill:#07285F;}
	.st8{fill:#072860;}
	.st9{fill:#072960;}
	.st10{fill:#072961;}
	.st11{fill:#082962;}
	.st12{fill:#082A62;}
	.st13{fill:#082A63;}
	.st14{fill:#07275B;}
	.st15{clip-path:url(#SVGID_4_);enable-background:new    ;}
	.st16{clip-path:url(#SVGID_6_);enable-background:new    ;}
	.st17{fill:#0A3781;}
	.st18{fill:none;stroke:#FFFFFF;stroke-width:0.9691;stroke-miterlimit:10;}
</style>
<polygon class="st0" points="149.9,315.8 2.4,365.9 -0.4,369.6 4.6,371.5 157.7,318.7 "/>
<g>
	<g>
		<g class="st1">
			<g class="st1">
				<defs>
					<path id="SVGID_1_" class="st1" d="M408.6,352.5l-82.4,45.6c-3.7,2-7.6,3.5-11.8,4.4c-4.2,0.9-8.6,1.2-13.1,0.9
						c-4.5-0.3-9.3-1.2-14.1-2.8c-4.8-1.5-9.7-3.7-14.7-6.5c-9.7-5.5-18.8-13-26.9-21.8c-8.1-8.8-15.2-18.9-21.1-29.7
						c-5.9-10.8-10.5-22.4-13.5-34.2c-3-11.8-4.5-23.8-4-35.4c0.3-6.8,1.2-13.1,2.7-18.8c1.5-5.8,3.6-11,6.2-15.6
						c2.6-4.6,5.7-8.6,9.3-12c3.6-3.4,7.6-6,12-8l85.8-38.1c-4.5,2-8.5,4.7-12.2,8c-3.6,3.3-6.9,7.3-9.6,11.8
						c-2.7,4.5-4.9,9.6-6.5,15.2c-1.6,5.6-2.7,11.7-3.1,18.3c-0.7,11.3,0.5,22.9,3.3,34.3c2.8,11.4,7.2,22.5,12.8,32.9
						c5.7,10.4,12.6,20.1,20.5,28.4c8,8.4,16.9,15.4,26.6,20.5c4.9,2.6,9.8,4.6,14.6,6c4.8,1.4,9.5,2.2,14.1,2.3
						c4.6,0.2,9-0.2,13.2-1.2C400.8,356.1,404.8,354.6,408.6,352.5z"/>
				</defs>
				<clipPath id="SVGID_2_">
					<use xlink:href="#SVGID_1_"  style="overflow:visible;"/>
				</clipPath>
				<g class="st2">
					<path class="st3" d="M408.6,352.5l-82.4,45.6c-0.1,0.1-0.2,0.1-0.3,0.2c-0.1,0.1-0.2,0.1-0.3,0.2c-0.1,0.1-0.2,0.1-0.3,0.2
						c-0.1,0.1-0.2,0.1-0.3,0.2l82.4-45.6c0.1-0.1,0.2-0.1,0.3-0.2s0.2-0.1,0.3-0.2c0.1-0.1,0.2-0.1,0.3-0.2
						C408.3,352.6,408.4,352.6,408.6,352.5"/>
					<path class="st3" d="M407.2,353.2l-82.4,45.6c-0.2,0.1-0.3,0.2-0.5,0.2c-0.2,0.1-0.3,0.1-0.5,0.2s-0.3,0.1-0.5,0.2
						c-0.2,0.1-0.3,0.1-0.5,0.2l82.3-45.6c0.2-0.1,0.3-0.1,0.5-0.2c0.2-0.1,0.3-0.1,0.5-0.2c0.2-0.1,0.3-0.2,0.5-0.2
						C406.9,353.4,407.1,353.3,407.2,353.2"/>
					<path class="st3" d="M405.3,354.1L323,399.7c-0.2,0.1-0.3,0.1-0.5,0.2c-0.2,0.1-0.3,0.1-0.5,0.2c-0.2,0.1-0.3,0.1-0.5,0.2
						s-0.3,0.1-0.5,0.2l82.3-45.5c0.2-0.1,0.3-0.1,0.5-0.2c0.2-0.1,0.3-0.1,0.5-0.2c0.2-0.1,0.3-0.1,0.5-0.2
						C405,354.3,405.2,354.2,405.3,354.1"/>
					<path class="st3" d="M403.4,354.9l-82.3,45.5c-0.1,0.1-0.3,0.1-0.4,0.2c-0.1,0.1-0.3,0.1-0.4,0.1c-0.1,0-0.3,0.1-0.4,0.1
						c-0.1,0-0.3,0.1-0.4,0.1l82.3-45.5c0.1,0,0.3-0.1,0.4-0.1c0.1,0,0.3-0.1,0.4-0.1c0.1-0.1,0.3-0.1,0.4-0.2
						C403.2,355.1,403.3,355,403.4,354.9"/>
					<path class="st3" d="M401.8,355.6l-82.3,45.5c-0.1,0-0.3,0.1-0.4,0.1s-0.3,0.1-0.4,0.1c-0.1,0-0.3,0.1-0.4,0.1
						c-0.1,0-0.3,0.1-0.4,0.1l82.3-45.5c0.1,0,0.3-0.1,0.4-0.1c0.1,0,0.3-0.1,0.4-0.1c0.1,0,0.3-0.1,0.4-0.1
						C401.6,355.6,401.7,355.6,401.8,355.6"/>
					<path class="st3" d="M400.2,356.1l-82.3,45.5c-0.1,0-0.3,0.1-0.4,0.1c-0.1,0-0.3,0.1-0.4,0.1c-0.1,0-0.3,0.1-0.4,0.1
						s-0.3,0.1-0.4,0.1l82.3-45.5c0.1,0,0.3-0.1,0.4-0.1c0.1,0,0.3-0.1,0.4-0.1c0.1,0,0.3-0.1,0.4-0.1S400.1,356.1,400.2,356.1"/>
					<path class="st3" d="M398.6,356.6L316.3,402c-0.1,0-0.2,0.1-0.4,0.1c-0.1,0-0.2,0.1-0.4,0.1c-0.1,0-0.2,0.1-0.4,0.1
						c-0.1,0-0.2,0.1-0.4,0.1l82.3-45.5c0.1,0,0.2-0.1,0.4-0.1c0.1,0,0.2-0.1,0.4-0.1c0.1,0,0.2-0.1,0.4-0.1
						C398.4,356.6,398.5,356.6,398.6,356.6"/>
					<path class="st4" d="M397.2,356.9l-82.3,45.5c-0.1,0-0.2,0.1-0.4,0.1c-0.1,0-0.2,0.1-0.4,0.1s-0.2,0-0.4,0.1
						c-0.1,0-0.2,0-0.4,0.1l82.3-45.4c0.1,0,0.2-0.1,0.4-0.1s0.2-0.1,0.4-0.1c0.1,0,0.2-0.1,0.4-0.1C396.9,357,397,357,397.2,356.9"
						/>
					<path class="st4" d="M395.7,357.3l-82.3,45.4c-0.1,0-0.2,0-0.4,0.1c-0.1,0-0.2,0-0.4,0.1c-0.1,0-0.2,0-0.4,0.1s-0.2,0-0.4,0.1
						l82.2-45.4c0.1,0,0.2,0,0.4-0.1c0.1,0,0.2,0,0.4-0.1c0.1,0,0.2,0,0.4-0.1C395.5,357.3,395.6,357.3,395.7,357.3"/>
					<path class="st4" d="M394.3,357.5L312,402.9c-0.1,0-0.2,0-0.3,0.1c-0.1,0-0.2,0-0.3,0.1c-0.1,0-0.2,0-0.3,0s-0.2,0-0.3,0
						l82.2-45.4c0.1,0,0.2,0,0.3-0.1s0.2,0,0.3-0.1c0.1,0,0.2,0,0.3-0.1C394,357.6,394.2,357.6,394.3,357.5"/>
					<path class="st4" d="M392.9,357.8l-82.2,45.4c-0.1,0-0.2,0-0.3,0s-0.2,0-0.3,0c-0.1,0-0.2,0-0.3,0c-0.1,0-0.2,0-0.3,0
						l82.2-45.3c0.1,0,0.2,0,0.3,0s0.2,0,0.3,0c0.1,0,0.2,0,0.3,0S392.8,357.8,392.9,357.8"/>
					<path class="st4" d="M391.6,357.9l-82.2,45.3c-0.1,0-0.2,0-0.3,0c-0.1,0-0.2,0-0.3,0c-0.1,0-0.2,0-0.3,0c-0.1,0-0.2,0-0.3,0
						l82.2-45.3c0.1,0,0.2,0,0.3,0s0.2,0,0.3,0c0.1,0,0.2,0,0.3,0S391.4,357.9,391.6,357.9"/>
					<path class="st4" d="M390.2,358.1L308,403.4c-0.1,0-0.2,0-0.3,0s-0.2,0-0.3,0c-0.1,0-0.2,0-0.3,0c-0.1,0-0.2,0-0.3,0l82.2-45.3
						c0.1,0,0.2,0,0.3,0c0.1,0,0.2,0,0.3,0c0.1,0,0.2,0,0.3,0C390,358.1,390.1,358.1,390.2,358.1"/>
					<path class="st4" d="M388.9,358.2l-82.2,45.3c-0.1,0-0.2,0-0.3,0s-0.2,0-0.3,0s-0.2,0-0.3,0c-0.1,0-0.2,0-0.3,0l82.2-45.3
						c0.1,0,0.2,0,0.3,0c0.1,0,0.2,0,0.3,0c0.1,0,0.2,0,0.3,0C388.7,358.2,388.8,358.2,388.9,358.2"/>
					<path class="st5" d="M387.6,358.2l-82.2,45.3c-0.1,0-0.2,0-0.3,0c-0.1,0-0.2,0-0.3,0c-0.1,0-0.2,0-0.3,0c-0.1,0-0.2,0-0.3,0
						l82.2-45.2c0.1,0,0.2,0,0.3,0c0.1,0,0.2,0,0.3,0c0.1,0,0.2,0,0.3,0S387.5,358.2,387.6,358.2"/>
					<path class="st6" d="M386.3,358.3l-82.2,45.2c-0.1,0-0.2,0-0.3,0s-0.2,0-0.3,0c-0.1,0-0.2,0-0.3,0c-0.1,0-0.2,0-0.3,0
						l82.2-45.2c0.1,0,0.2,0,0.3,0c0.1,0,0.2,0,0.3,0c0.1,0,0.2,0,0.3,0C386.1,358.3,386.2,358.3,386.3,358.3"/>
					<path class="st6" d="M385.1,358.3l-82.2,45.2c-0.1,0-0.2,0-0.3,0c-0.1,0-0.2,0-0.3,0s-0.2,0-0.3,0c-0.1,0-0.2,0-0.3,0
						l82.2-45.2c0.1,0,0.2,0,0.3,0c0.1,0,0.2,0,0.3,0s0.2,0,0.3,0C384.9,358.3,385,358.3,385.1,358.3"/>
					<path class="st6" d="M383.8,358.2l-82.2,45.2c-0.1,0-0.2,0-0.3,0c-0.1,0-0.2,0-0.3,0c-0.1,0-0.2,0-0.3,0c-0.1,0-0.2,0-0.3,0
						l82.2-45.1c0.1,0,0.2,0,0.3,0c0.1,0,0.2,0,0.3,0c0.1,0,0.2,0,0.3,0C383.6,358.2,383.7,358.2,383.8,358.2"/>
					<path class="st6" d="M382.6,358.2l-82.2,45.1c-0.1,0-0.2,0-0.3,0c-0.1,0-0.2,0-0.3,0c-0.1,0-0.2,0-0.3,0c-0.1,0-0.2,0-0.3,0
						l82.2-45.1c0.1,0,0.2,0,0.3,0c0.1,0,0.2,0,0.3,0c0.1,0,0.2,0,0.3,0C382.4,358.2,382.5,358.2,382.6,358.2"/>
					<path class="st6" d="M381.3,358.1l-82.2,45.1c-0.1,0-0.2,0-0.3,0c-0.1,0-0.2,0-0.3,0c-0.1,0-0.2,0-0.3,0c-0.1,0-0.2,0-0.3,0
						l82.2-45.1c0.1,0,0.2,0,0.3,0s0.2,0,0.3,0c0.1,0,0.2,0,0.3,0C381.1,358.1,381.2,358.1,381.3,358.1"/>
					<path class="st6" d="M380.1,358l-82.2,45.1c-0.1,0-0.2,0-0.3,0s-0.2,0-0.3,0c-0.1,0-0.2,0-0.3,0c-0.1,0-0.2,0-0.3,0l82.2-45
						c0.1,0,0.2,0,0.3,0c0.1,0,0.2,0,0.3,0c0.1,0,0.2,0,0.3,0C379.9,358,380,358,380.1,358"/>
					<path class="st6" d="M378.9,357.9l-82.2,45c-0.1,0-0.2,0-0.3,0c-0.1,0-0.2,0-0.3,0c-0.1,0-0.2,0-0.3-0.1s-0.2,0-0.3-0.1
						l82.2-45c0.1,0,0.2,0,0.3,0c0.1,0,0.2,0,0.3,0c0.1,0,0.2,0,0.3,0S378.8,357.8,378.9,357.9"/>
					<path class="st7" d="M377.7,357.7l-82.2,45c-0.1,0-0.2,0-0.3-0.1c-0.1,0-0.2,0-0.3-0.1c-0.1,0-0.2,0-0.3-0.1
						c-0.1,0-0.2,0-0.3-0.1l82.2-45c0.1,0,0.2,0,0.3,0c0.1,0,0.2,0,0.3,0c0.1,0,0.2,0,0.3,0C377.5,357.7,377.6,357.7,377.7,357.7"/>
					<path class="st7" d="M376.5,357.5l-82.2,45c-0.1,0-0.2,0-0.3-0.1c-0.1,0-0.2,0-0.3-0.1c-0.1,0-0.2,0-0.3-0.1
						c-0.1,0-0.2,0-0.3-0.1l82.2-44.9c0.1,0,0.2,0,0.3,0.1c0.1,0,0.2,0,0.3,0.1c0.1,0,0.2,0,0.3,0.1
						C376.3,357.5,376.4,357.5,376.5,357.5"/>
					<path class="st7" d="M375.3,357.3l-82.2,44.9c-0.1,0-0.2,0-0.3-0.1c-0.1,0-0.2,0-0.3-0.1c-0.1,0-0.2,0-0.3-0.1
						c-0.1,0-0.2,0-0.3-0.1l82.2-44.9c0.1,0,0.2,0,0.3,0.1c0.1,0,0.2,0,0.3,0.1c0.1,0,0.2,0,0.3,0.1S375.2,357.3,375.3,357.3"/>
					<path class="st7" d="M374,357.1l-82.2,44.9c-0.1,0-0.2,0-0.3-0.1c-0.1,0-0.2,0-0.3-0.1c-0.1,0-0.2-0.1-0.3-0.1
						c-0.1,0-0.2-0.1-0.3-0.1l82.2-44.8c0.1,0,0.2,0,0.3,0.1c0.1,0,0.2,0,0.3,0.1c0.1,0,0.2,0,0.3,0.1S373.9,357,374,357.1"/>
					<path class="st7" d="M372.8,356.8l-82.2,44.8c-0.1,0-0.2-0.1-0.3-0.1c-0.1,0-0.2-0.1-0.3-0.1c-0.1,0-0.2-0.1-0.3-0.1
						c-0.1,0-0.2-0.1-0.3-0.1l82.2-44.8c0.1,0,0.2,0.1,0.3,0.1c0.1,0,0.2,0,0.3,0.1c0.1,0,0.2,0,0.3,0.1S372.7,356.8,372.8,356.8"/>
					<path class="st7" d="M371.6,356.5l-82.2,44.8c-0.1,0-0.2-0.1-0.3-0.1c-0.1,0-0.2-0.1-0.3-0.1c-0.1,0-0.2-0.1-0.3-0.1
						s-0.2-0.1-0.3-0.1l82.2-44.8c0.1,0,0.2,0.1,0.3,0.1s0.2,0.1,0.3,0.1c0.1,0,0.2,0.1,0.3,0.1
						C371.4,356.4,371.5,356.5,371.6,356.5"/>
					<path class="st7" d="M370.4,356.2l-82.2,44.8c-0.1,0-0.2-0.1-0.3-0.1c-0.1,0-0.2-0.1-0.3-0.1c-0.1,0-0.2-0.1-0.3-0.1
						c-0.1,0-0.2-0.1-0.3-0.1l82.2-44.7c0.1,0,0.2,0.1,0.3,0.1c0.1,0,0.2,0.1,0.3,0.1c0.1,0,0.2,0.1,0.3,0.1
						C370.2,356.1,370.3,356.2,370.4,356.2"/>
					<path class="st8" d="M369.2,355.8L287,400.6c-0.1,0-0.2-0.1-0.3-0.1c-0.1,0-0.2-0.1-0.3-0.1c-0.1,0-0.2-0.1-0.3-0.1
						c-0.1,0-0.2-0.1-0.3-0.1l82.2-44.7c0.1,0,0.2,0.1,0.3,0.1s0.2,0.1,0.3,0.1c0.1,0,0.2,0.1,0.3,0.1S369.1,355.8,369.2,355.8"/>
					<path class="st8" d="M367.9,355.5l-82.2,44.7c-0.1,0-0.2-0.1-0.3-0.1s-0.2-0.1-0.3-0.1s-0.2-0.1-0.3-0.1s-0.2-0.1-0.3-0.1
						l82.2-44.6c0.1,0,0.2,0.1,0.3,0.1c0.1,0,0.2,0.1,0.3,0.1c0.1,0,0.2,0.1,0.3,0.1C367.7,355.4,367.8,355.4,367.9,355.5"/>
					<path class="st9" d="M366.7,355.1l-82.2,44.6c-0.1,0-0.2-0.1-0.3-0.1c-0.1,0-0.2-0.1-0.3-0.1c-0.1,0-0.2-0.1-0.3-0.1
						s-0.2-0.1-0.3-0.1l82.2-44.6c0.1,0,0.2,0.1,0.3,0.1c0.1,0,0.2,0.1,0.3,0.1c0.1,0,0.2,0.1,0.3,0.1
						C366.5,355,366.6,355,366.7,355.1"/>
					<path class="st9" d="M365.5,354.7l-82.2,44.6c-0.1,0-0.2-0.1-0.3-0.1c-0.1,0-0.2-0.1-0.3-0.1c-0.1,0-0.2-0.1-0.3-0.1
						c-0.1,0-0.2-0.1-0.3-0.1l82.2-44.5c0.1,0,0.2,0.1,0.3,0.1c0.1,0,0.2,0.1,0.3,0.1c0.1,0,0.2,0.1,0.3,0.1
						S365.4,354.6,365.5,354.7"/>
					<path class="st9" d="M364.2,354.2L282,398.8c-0.1,0-0.2-0.1-0.3-0.1c-0.1,0-0.2-0.1-0.3-0.1c-0.1,0-0.2-0.1-0.3-0.1
						c-0.1,0-0.2-0.1-0.3-0.1l82.2-44.5c0.1,0,0.2,0.1,0.3,0.1c0.1,0,0.2,0.1,0.3,0.1c0.1,0,0.2,0.1,0.3,0.1
						C364,354.1,364.1,354.2,364.2,354.2"/>
					<path class="st9" d="M362.9,353.7l-82.2,44.5c-0.1,0-0.2-0.1-0.3-0.1c-0.1,0-0.2-0.1-0.3-0.1s-0.2-0.1-0.3-0.1
						c-0.1,0-0.2-0.1-0.3-0.1l82.2-44.5c0.1,0,0.2,0.1,0.3,0.1s0.2,0.1,0.3,0.1s0.2,0.1,0.3,0.1
						C362.7,353.6,362.8,353.7,362.9,353.7"/>
					<path class="st9" d="M361.7,353.2l-82.2,44.5c-0.1,0-0.2-0.1-0.3-0.1c-0.1,0-0.2-0.1-0.3-0.1s-0.2-0.1-0.3-0.1
						c-0.1,0-0.2-0.1-0.3-0.2l82.2-44.4c0.1,0,0.2,0.1,0.3,0.1c0.1,0,0.2,0.1,0.3,0.1c0.1,0,0.2,0.1,0.3,0.1
						C361.4,353.1,361.5,353.2,361.7,353.2"/>
					<path class="st9" d="M360.4,352.7l-82.2,44.4c-0.1-0.1-0.2-0.1-0.3-0.2c-0.1-0.1-0.2-0.1-0.3-0.2s-0.2-0.1-0.3-0.2
						c-0.1-0.1-0.2-0.1-0.3-0.2l82.2-44.4c0.1,0.1,0.2,0.1,0.3,0.2s0.2,0.1,0.3,0.2c0.1,0,0.2,0.1,0.3,0.1S360.3,352.6,360.4,352.7"
						/>
					<path class="st10" d="M359,352.1l-82.2,44.4c-0.1-0.1-0.2-0.1-0.3-0.2c-0.1-0.1-0.2-0.1-0.3-0.2c-0.1-0.1-0.2-0.1-0.3-0.2
						c-0.1-0.1-0.2-0.1-0.3-0.2l82.3-44.3c0.1,0.1,0.2,0.1,0.3,0.2c0.1,0.1,0.2,0.1,0.3,0.2c0.1,0.1,0.2,0.1,0.3,0.2
						S358.9,352,359,352.1"/>
					<path class="st10" d="M357.7,351.4l-82.3,44.3c-0.1-0.1-0.2-0.1-0.3-0.2s-0.2-0.1-0.3-0.2s-0.2-0.1-0.3-0.2s-0.2-0.1-0.3-0.2
						l82.3-44.2c0.1,0.1,0.2,0.1,0.3,0.2c0.1,0.1,0.2,0.1,0.3,0.2s0.2,0.1,0.3,0.2C357.4,351.3,357.6,351.4,357.7,351.4"/>
					<path class="st10" d="M356.3,350.8L274.1,395c-0.1-0.1-0.2-0.1-0.3-0.2s-0.2-0.1-0.3-0.2s-0.2-0.1-0.3-0.2
						c-0.1-0.1-0.2-0.1-0.3-0.2l82.3-44.2c0.1,0.1,0.2,0.1,0.3,0.2c0.1,0.1,0.2,0.1,0.3,0.2s0.2,0.1,0.3,0.2
						C356.1,350.7,356.2,350.7,356.3,350.8"/>
					<path class="st10" d="M355,350.1l-82.3,44.2c0,0,0,0-0.1,0c0,0,0,0-0.1,0s0,0-0.1,0c0,0,0,0-0.1,0c-0.1-0.1-0.2-0.1-0.3-0.2
						c-0.1-0.1-0.2-0.1-0.3-0.2c-0.1-0.1-0.2-0.1-0.3-0.2s-0.2-0.1-0.3-0.2l82.3-44.1c0.1,0.1,0.2,0.1,0.3,0.2
						c0.1,0.1,0.2,0.1,0.3,0.2c0.1,0.1,0.2,0.1,0.3,0.2c0.1,0.1,0.2,0.1,0.3,0.2c0,0,0,0,0.1,0c0,0,0,0,0.1,0
						C354.8,350,354.9,350,355,350.1C354.9,350.1,354.9,350.1,355,350.1"/>
					<path class="st10" d="M353.5,349.3l-82.3,44.1c-0.1-0.1-0.2-0.1-0.4-0.2c-0.1-0.1-0.2-0.1-0.4-0.2c-0.1-0.1-0.2-0.1-0.4-0.2
						s-0.2-0.1-0.4-0.2l82.3-44.1c0.1,0.1,0.2,0.1,0.4,0.2c0.1,0.1,0.2,0.1,0.4,0.2c0.1,0.1,0.2,0.1,0.4,0.2
						C353.3,349.2,353.4,349.2,353.5,349.3"/>
					<path class="st10" d="M352,348.5l-82.3,44.1c-0.1-0.1-0.2-0.1-0.4-0.2c-0.1-0.1-0.2-0.2-0.4-0.2s-0.2-0.2-0.4-0.2
						s-0.2-0.2-0.4-0.2l82.3-44c0.1,0.1,0.2,0.1,0.4,0.2c0.1,0.1,0.2,0.1,0.4,0.2c0.1,0.1,0.2,0.1,0.4,0.2
						C351.8,348.3,351.9,348.4,352,348.5"/>
					<path class="st10" d="M350.6,347.6l-82.3,44c-0.1-0.1-0.2-0.2-0.4-0.2s-0.2-0.2-0.4-0.2c-0.1-0.1-0.2-0.2-0.4-0.2
						c-0.1-0.1-0.2-0.2-0.4-0.2l82.3-44c0.1,0.1,0.2,0.1,0.4,0.2s0.2,0.1,0.4,0.2c0.1,0.1,0.2,0.1,0.4,0.2
						C350.3,347.5,350.5,347.6,350.6,347.6"/>
					<path class="st11" d="M349.1,346.8l-82.3,44c-0.1-0.1-0.3-0.2-0.4-0.3c-0.1-0.1-0.3-0.2-0.4-0.3s-0.3-0.2-0.4-0.3
						c-0.1-0.1-0.3-0.2-0.4-0.3l82.3-43.9c0.1,0.1,0.3,0.2,0.4,0.3c0.1,0.1,0.3,0.2,0.4,0.3c0.1,0.1,0.3,0.2,0.4,0.3
						C348.9,346.6,349,346.7,349.1,346.8"/>
					<path class="st11" d="M347.5,345.7l-82.3,43.9c-0.1-0.1-0.3-0.2-0.4-0.3c-0.1-0.1-0.3-0.2-0.4-0.3c-0.1-0.1-0.3-0.2-0.4-0.3
						c-0.1-0.1-0.3-0.2-0.4-0.3l82.3-43.8c0.1,0.1,0.3,0.2,0.4,0.3c0.1,0.1,0.3,0.2,0.4,0.3c0.1,0.1,0.3,0.2,0.4,0.3
						C347.3,345.6,347.4,345.6,347.5,345.7"/>
					<path class="st11" d="M345.9,344.7l-82.3,43.8c-0.1-0.1-0.3-0.2-0.4-0.3s-0.3-0.2-0.4-0.3s-0.3-0.2-0.4-0.3
						c-0.1-0.1-0.3-0.2-0.4-0.3l82.4-43.7c0.1,0.1,0.3,0.2,0.4,0.3c0.1,0.1,0.3,0.2,0.4,0.3c0.1,0.1,0.3,0.2,0.4,0.3
						C345.6,344.5,345.8,344.6,345.9,344.7"/>
					<path class="st11" d="M344.3,343.6l-82.4,43.7c-0.1-0.1-0.3-0.2-0.4-0.3c-0.1-0.1-0.3-0.2-0.4-0.3c-0.1-0.1-0.3-0.2-0.4-0.3
						c-0.1-0.1-0.3-0.2-0.4-0.3l82.4-43.7c0.1,0.1,0.3,0.2,0.4,0.3c0.1,0.1,0.3,0.2,0.4,0.3c0.1,0.1,0.3,0.2,0.4,0.3
						C344,343.4,344.2,343.5,344.3,343.6"/>
					<path class="st12" d="M342.6,342.3L260.2,386c-0.2-0.1-0.3-0.2-0.5-0.4c-0.2-0.1-0.3-0.2-0.5-0.4c-0.2-0.1-0.3-0.3-0.5-0.4
						s-0.3-0.3-0.5-0.4l82.4-43.6c0.2,0.1,0.3,0.2,0.5,0.4c0.2,0.1,0.3,0.2,0.5,0.4c0.2,0.1,0.3,0.2,0.5,0.4
						C342.3,342.1,342.4,342.2,342.6,342.3"/>
					<path class="st12" d="M340.7,340.9l-82.4,43.6c-0.2-0.1-0.3-0.3-0.5-0.4c-0.2-0.1-0.3-0.3-0.5-0.4c-0.2-0.1-0.3-0.3-0.5-0.4
						c-0.2-0.1-0.3-0.3-0.5-0.4l82.4-43.5c0.2,0.1,0.3,0.2,0.5,0.4c0.2,0.1,0.3,0.2,0.5,0.4c0.2,0.1,0.3,0.2,0.5,0.4
						C340.4,340.7,340.6,340.8,340.7,340.9"/>
					<path class="st12" d="M338.9,339.4l-82.4,43.5c-0.2-0.2-0.4-0.3-0.5-0.5c-0.2-0.2-0.4-0.3-0.5-0.5s-0.4-0.3-0.5-0.5
						c-0.2-0.2-0.4-0.3-0.5-0.5l82.5-43.4c0.2,0.1,0.3,0.3,0.5,0.4c0.2,0.1,0.4,0.3,0.5,0.4c0.2,0.1,0.4,0.3,0.5,0.4
						C338.5,339.1,338.7,339.3,338.9,339.4"/>
					<path class="st13" d="M336.7,337.7l-82.5,43.4c-0.2-0.2-0.4-0.4-0.6-0.5c-0.2-0.2-0.4-0.4-0.6-0.5c-0.2-0.2-0.4-0.4-0.6-0.5
						c-0.2-0.2-0.4-0.4-0.6-0.5l82.5-43.3c0.2,0.2,0.4,0.3,0.6,0.5c0.2,0.2,0.4,0.3,0.6,0.5c0.2,0.2,0.4,0.3,0.6,0.5
						C336.4,337.3,336.6,337.5,336.7,337.7"/>
					<path class="st13" d="M334.4,335.7L252,378.9c-0.2-0.2-0.4-0.4-0.7-0.6c-0.2-0.2-0.4-0.4-0.7-0.6c-0.2-0.2-0.4-0.4-0.7-0.6
						c-0.2-0.2-0.4-0.4-0.7-0.6l82.5-43.1c0.2,0.2,0.4,0.4,0.6,0.6c0.2,0.2,0.4,0.4,0.6,0.6c0.2,0.2,0.4,0.4,0.6,0.6
						C334,335.3,334.2,335.5,334.4,335.7"/>
					<path class="st13" d="M331.9,333.3l-82.5,43.1c-0.3-0.3-0.5-0.5-0.8-0.8c-0.3-0.3-0.5-0.5-0.8-0.8c-0.3-0.3-0.5-0.6-0.8-0.8
						c-0.3-0.3-0.5-0.6-0.8-0.8l82.6-43c0.3,0.3,0.5,0.5,0.8,0.8c0.3,0.3,0.5,0.5,0.8,0.8c0.3,0.3,0.5,0.5,0.8,0.8
						C331.3,332.7,331.6,333,331.9,333.3"/>
					<path class="st13" d="M328.7,330.1l-82.6,43c-0.4-0.5-0.9-0.9-1.3-1.4c-0.4-0.5-0.9-1-1.3-1.4c-0.4-0.5-0.8-1-1.3-1.5
						c-0.4-0.5-0.8-1-1.2-1.5l82.7-42.7c0.4,0.5,0.8,0.9,1.2,1.4c0.4,0.5,0.8,0.9,1.2,1.4c0.4,0.5,0.8,0.9,1.3,1.4
						C327.8,329.2,328.3,329.7,328.7,330.1"/>
					<path class="st13" d="M323.7,324.6L241,367.3c-0.5-0.7-1.1-1.3-1.6-2c-0.5-0.7-1.1-1.3-1.6-2c-0.5-0.7-1-1.4-1.6-2.1
						c-0.5-0.7-1-1.4-1.5-2.1l82.8-42.3c0.5,0.7,1,1.3,1.5,2c0.5,0.7,1,1.3,1.5,2c0.5,0.6,1,1.3,1.6,1.9
						C322.6,323.4,323.2,324,323.7,324.6"/>
					<path class="st13" d="M317.5,316.9l-82.8,42.3c-0.4-0.6-0.8-1.2-1.2-1.8c-0.4-0.6-0.8-1.2-1.2-1.8c-0.4-0.6-0.8-1.2-1.2-1.8
						c-0.4-0.6-0.8-1.2-1.2-1.8l82.9-42c0.4,0.6,0.8,1.2,1.1,1.7c0.4,0.6,0.8,1.2,1.2,1.7c0.4,0.6,0.8,1.1,1.2,1.7
						C316.7,315.7,317.1,316.3,317.5,316.9"/>
					<path class="st13" d="M312.8,310l-82.9,42c-0.2-0.4-0.5-0.7-0.7-1.1c-0.2-0.4-0.5-0.7-0.7-1.1s-0.4-0.7-0.7-1.1
						c-0.2-0.4-0.4-0.7-0.7-1.1l83-41.8c0.2,0.4,0.4,0.7,0.6,1.1s0.4,0.7,0.7,1.1c0.2,0.4,0.4,0.7,0.7,1.1
						C312.4,309.3,312.6,309.7,312.8,310"/>
					<path class="st13" d="M310.2,305.8l-83,41.8c-0.2-0.3-0.3-0.6-0.5-0.9c-0.2-0.3-0.3-0.6-0.5-0.9s-0.3-0.6-0.5-0.9
						s-0.3-0.6-0.5-0.9l83.1-41.6c0.2,0.3,0.3,0.6,0.5,0.8s0.3,0.6,0.5,0.8c0.2,0.3,0.3,0.6,0.5,0.8
						C309.9,305.2,310,305.5,310.2,305.8"/>
					<path class="st13" d="M308.3,302.5l-83.1,41.6c-0.1-0.3-0.3-0.5-0.4-0.8c-0.1-0.3-0.3-0.5-0.4-0.8c-0.1-0.3-0.3-0.5-0.4-0.8
						c-0.1-0.3-0.3-0.5-0.4-0.8l83.1-41.5c0.1,0.2,0.3,0.5,0.4,0.7s0.3,0.5,0.4,0.7c0.1,0.2,0.3,0.5,0.4,0.7
						C308,302,308.2,302.2,308.3,302.5"/>
					<path class="st12" d="M306.7,299.6l-83.1,41.5c-0.1-0.2-0.2-0.4-0.4-0.7s-0.2-0.4-0.3-0.7c-0.1-0.2-0.2-0.4-0.3-0.7
						c-0.1-0.2-0.2-0.5-0.3-0.7l83.2-41.4c0.1,0.2,0.2,0.4,0.3,0.6c0.1,0.2,0.2,0.4,0.3,0.6s0.2,0.4,0.3,0.6
						C306.5,299.1,306.6,299.3,306.7,299.6"/>
					<path class="st12" d="M305.4,297l-83.2,41.4c-0.1-0.2-0.2-0.4-0.3-0.7s-0.2-0.4-0.3-0.7c-0.1-0.2-0.2-0.4-0.3-0.7
						s-0.2-0.4-0.3-0.7l83.2-41.3c0.1,0.2,0.2,0.4,0.3,0.6c0.1,0.2,0.2,0.4,0.3,0.6c0.1,0.2,0.2,0.4,0.3,0.6S305.3,296.8,305.4,297"
						/>
					<path class="st12" d="M304.1,294.4l-83.2,41.3c-0.1-0.2-0.2-0.4-0.3-0.6s-0.2-0.4-0.3-0.6c-0.1-0.2-0.2-0.4-0.3-0.6
						s-0.2-0.4-0.3-0.6l83.3-41.2c0.1,0.2,0.2,0.4,0.2,0.5c0.1,0.2,0.2,0.4,0.3,0.5c0.1,0.2,0.2,0.4,0.3,0.5S304,294.2,304.1,294.4"
						/>
					<path class="st11" d="M303.1,292.3l-83.3,41.2c-0.1-0.2-0.2-0.4-0.3-0.6s-0.2-0.4-0.3-0.6c-0.1-0.2-0.2-0.4-0.3-0.6
						c-0.1-0.2-0.2-0.4-0.3-0.6l83.3-41.1c0.1,0.2,0.2,0.4,0.2,0.5s0.2,0.4,0.2,0.5c0.1,0.2,0.2,0.4,0.2,0.5
						C302.9,291.9,303,292.1,303.1,292.3"/>
					<path class="st11" d="M302.1,290.1l-83.3,41.1c-0.1-0.2-0.2-0.4-0.2-0.6c-0.1-0.2-0.2-0.4-0.2-0.6c-0.1-0.2-0.2-0.4-0.2-0.6
						c-0.1-0.2-0.2-0.4-0.2-0.6l83.3-41c0.1,0.2,0.1,0.4,0.2,0.5c0.1,0.2,0.2,0.4,0.2,0.5s0.2,0.4,0.2,0.5S302.1,289.9,302.1,290.1"
						/>
					<path class="st11" d="M301.2,288l-83.3,41c-0.1-0.2-0.1-0.3-0.2-0.5c-0.1-0.2-0.1-0.3-0.2-0.5s-0.1-0.3-0.2-0.5
						c-0.1-0.2-0.1-0.3-0.2-0.5l83.4-41c0.1,0.2,0.1,0.3,0.2,0.5s0.1,0.3,0.2,0.5s0.1,0.3,0.2,0.5
						C301.1,287.6,301.2,287.8,301.2,288"/>
					<path class="st11" d="M300.5,286.1l-83.4,41c-0.1-0.2-0.1-0.3-0.2-0.5c-0.1-0.2-0.1-0.3-0.2-0.5c-0.1-0.2-0.1-0.3-0.2-0.5
						c-0.1-0.2-0.1-0.3-0.2-0.5l83.4-40.9c0.1,0.2,0.1,0.3,0.2,0.5c0.1,0.2,0.1,0.3,0.2,0.5c0.1,0.2,0.1,0.3,0.2,0.5
						S300.4,285.9,300.5,286.1"/>
					<path class="st10" d="M299.7,284.2L216.3,325c-0.1-0.2-0.1-0.3-0.2-0.5c-0.1-0.2-0.1-0.3-0.2-0.5c-0.1-0.2-0.1-0.3-0.2-0.5
						c-0.1-0.2-0.1-0.3-0.2-0.5l83.5-40.8c0.1,0.2,0.1,0.3,0.2,0.5c0.1,0.2,0.1,0.3,0.2,0.5c0.1,0.2,0.1,0.3,0.2,0.5
						C299.6,283.8,299.6,284,299.7,284.2"/>
					<path class="st10" d="M299,282.2l-83.5,40.8c-0.1-0.2-0.1-0.3-0.2-0.5c-0.1-0.2-0.1-0.3-0.2-0.5s-0.1-0.3-0.2-0.5
						c-0.1-0.2-0.1-0.3-0.2-0.5l83.5-40.7c0.1,0.1,0.1,0.3,0.2,0.4s0.1,0.3,0.2,0.4c0.1,0.1,0.1,0.3,0.2,0.4S298.9,282.1,299,282.2"
						/>
					<path class="st10" d="M298.3,280.5l-83.5,40.7c-0.1-0.1-0.1-0.3-0.2-0.4c-0.1-0.1-0.1-0.3-0.2-0.4s-0.1-0.3-0.2-0.4
						c-0.1-0.1-0.1-0.3-0.2-0.4l83.5-40.7c0,0.1,0.1,0.3,0.1,0.4c0,0.1,0.1,0.3,0.1,0.4c0,0.1,0.1,0.3,0.1,0.4
						C298.2,280.2,298.3,280.3,298.3,280.5"/>
					<path class="st10" d="M297.8,278.7l-83.5,40.7c-0.1-0.1-0.1-0.3-0.2-0.4c-0.1-0.1-0.1-0.3-0.2-0.4c-0.1-0.1-0.1-0.3-0.2-0.4
						s-0.1-0.3-0.1-0.4l83.6-40.6c0,0.1,0.1,0.3,0.1,0.4c0,0.1,0.1,0.3,0.1,0.4s0.1,0.3,0.1,0.4
						C297.7,278.5,297.7,278.6,297.8,278.7"/>
					<path class="st10" d="M297.2,277l-83.6,40.6c0-0.1-0.1-0.3-0.1-0.4c0-0.1-0.1-0.3-0.1-0.4c0-0.1-0.1-0.3-0.1-0.4
						c0-0.2-0.1-0.3-0.1-0.5l83.6-40.5c0,0.1,0.1,0.3,0.1,0.4s0.1,0.3,0.1,0.4c0,0.1,0.1,0.3,0.1,0.4
						C297.1,276.7,297.1,276.9,297.2,277"/>
					<path class="st10" d="M296.6,275.3L213,315.8c0-0.1-0.1-0.3-0.1-0.4c0-0.1-0.1-0.3-0.1-0.4c0-0.1-0.1-0.3-0.1-0.4
						s-0.1-0.3-0.1-0.4l83.6-40.5c0,0.1,0.1,0.3,0.1,0.4s0.1,0.3,0.1,0.4c0,0.1,0.1,0.3,0.1,0.4C296.6,275,296.6,275.1,296.6,275.3"
						/>
					<path class="st10" d="M296.2,273.7l-83.6,40.5c0-0.1-0.1-0.3-0.1-0.4s-0.1-0.3-0.1-0.4s-0.1-0.3-0.1-0.4c0-0.1-0.1-0.3-0.1-0.4
						l83.7-40.4c0,0.1,0.1,0.3,0.1,0.4c0,0.1,0.1,0.3,0.1,0.4c0,0.1,0.1,0.3,0.1,0.4C296.1,273.4,296.1,273.5,296.2,273.7"/>
					<path class="st9" d="M295.7,272L212,312.5c0-0.1-0.1-0.3-0.1-0.4c0-0.1-0.1-0.3-0.1-0.4c0-0.1-0.1-0.3-0.1-0.4
						c0-0.1-0.1-0.3-0.1-0.4l83.7-40.4c0,0.1,0.1,0.3,0.1,0.4c0,0.1,0.1,0.3,0.1,0.4s0.1,0.3,0.1,0.4
						C295.6,271.8,295.7,271.9,295.7,272"/>
					<path class="st9" d="M295.3,270.4l-83.7,40.4c0-0.1-0.1-0.3-0.1-0.4s-0.1-0.3-0.1-0.4c0-0.1-0.1-0.3-0.1-0.4
						c0-0.1-0.1-0.3-0.1-0.4l83.7-40.3c0,0.1,0.1,0.3,0.1,0.4s0.1,0.3,0.1,0.4c0,0.1,0.1,0.3,0.1,0.4
						C295.2,270.2,295.2,270.3,295.3,270.4"/>
					<path class="st9" d="M294.8,268.8l-83.7,40.3c0-0.1-0.1-0.3-0.1-0.4c0-0.1-0.1-0.3-0.1-0.4c0-0.1-0.1-0.3-0.1-0.4
						c0-0.1-0.1-0.3-0.1-0.4l83.8-40.2c0,0.1,0.1,0.3,0.1,0.4s0.1,0.3,0.1,0.4c0,0.1,0.1,0.3,0.1,0.4
						C294.8,268.6,294.8,268.7,294.8,268.8"/>
					<path class="st9" d="M294.5,267.3l-83.8,40.2c0-0.1-0.1-0.3-0.1-0.4c0-0.1-0.1-0.3-0.1-0.4c0-0.1-0.1-0.3-0.1-0.4
						c0-0.1-0.1-0.3-0.1-0.4l83.8-40.2c0,0.1,0.1,0.3,0.1,0.4s0.1,0.3,0.1,0.4c0,0.1,0.1,0.3,0.1,0.4
						C294.4,267,294.4,267.1,294.5,267.3"/>
					<path class="st9" d="M294.1,265.7l-83.8,40.2c0-0.1-0.1-0.3-0.1-0.4c0-0.1-0.1-0.3-0.1-0.4c0-0.1-0.1-0.3-0.1-0.4
						s-0.1-0.3-0.1-0.4l83.8-40.1c0,0.1,0.1,0.3,0.1,0.4s0.1,0.3,0.1,0.4c0,0.1,0.1,0.3,0.1,0.4C294,265.5,294.1,265.6,294.1,265.7"
						/>
					<path class="st9" d="M293.8,264.2l-83.8,40.1c0-0.1-0.1-0.3-0.1-0.4c0-0.1-0.1-0.3-0.1-0.4s-0.1-0.3-0.1-0.4
						c0-0.1-0.1-0.3-0.1-0.4l83.9-40.1c0,0.1,0.1,0.3,0.1,0.4c0,0.1,0.1,0.3,0.1,0.4c0,0.1,0.1,0.3,0.1,0.4
						C293.7,264,293.7,264.1,293.8,264.2"/>
					<path class="st8" d="M293.4,262.7l-83.9,40.1c0-0.1-0.1-0.3-0.1-0.4s-0.1-0.3-0.1-0.4c0-0.1-0.1-0.3-0.1-0.4
						c0-0.1-0.1-0.3-0.1-0.4l83.9-40c0,0.1,0,0.3,0.1,0.4c0,0.1,0,0.3,0.1,0.4c0,0.1,0,0.3,0.1,0.4
						C293.4,262.4,293.4,262.5,293.4,262.7"/>
					<path class="st8" d="M293.1,261.1l-83.9,40c0-0.1-0.1-0.3-0.1-0.4c0-0.1-0.1-0.3-0.1-0.4s0-0.3-0.1-0.4c0-0.1,0-0.3-0.1-0.4
						l83.9-40c0,0.1,0,0.2,0.1,0.4c0,0.1,0,0.2,0.1,0.4c0,0.1,0,0.2,0.1,0.4S293.1,261,293.1,261.1"/>
					<path class="st7" d="M292.9,259.7l-83.9,40c0-0.1,0-0.3-0.1-0.4c0-0.1,0-0.3-0.1-0.4c0-0.1,0-0.3-0.1-0.4c0-0.1,0-0.3-0.1-0.4
						l83.9-39.9c0,0.1,0,0.2,0.1,0.4c0,0.1,0,0.2,0.1,0.4c0,0.1,0,0.2,0.1,0.4S292.9,259.5,292.9,259.7"/>
					<path class="st7" d="M292.6,258.2l-83.9,39.9c0-0.1,0-0.3-0.1-0.4c0-0.1,0-0.3-0.1-0.4c0-0.1,0-0.3-0.1-0.4s0-0.3-0.1-0.4
						l84-39.9c0,0.1,0,0.2,0.1,0.4c0,0.1,0,0.2,0.1,0.4s0,0.2,0.1,0.4S292.6,258,292.6,258.2"/>
					<path class="st7" d="M292.4,256.7l-84,39.9c0-0.1,0-0.3-0.1-0.4c0-0.1,0-0.3-0.1-0.4s0-0.3-0.1-0.4c0-0.1,0-0.3-0.1-0.4
						l84-39.8c0,0.1,0,0.2,0.1,0.4c0,0.1,0,0.2,0.1,0.4s0,0.2,0.1,0.4C292.4,256.4,292.4,256.6,292.4,256.7"/>
					<path class="st7" d="M292.2,255.2l-84,39.8c0-0.1,0-0.3-0.1-0.4c0-0.1,0-0.3-0.1-0.4c0-0.1,0-0.3-0.1-0.4c0-0.1,0-0.3-0.1-0.4
						l84-39.8c0,0.1,0,0.2,0,0.4c0,0.1,0,0.2,0,0.4s0,0.2,0,0.4C292.2,254.9,292.2,255.1,292.2,255.2"/>
					<path class="st7" d="M292,253.7l-84,39.8c0-0.1,0-0.3-0.1-0.4c0-0.1,0-0.3-0.1-0.4c0-0.1,0-0.3-0.1-0.4c0-0.1,0-0.3,0-0.4
						l84.1-39.7c0,0.1,0,0.2,0,0.4c0,0.1,0,0.2,0,0.4s0,0.2,0,0.4S292,253.6,292,253.7"/>
					<path class="st7" d="M291.8,252.2l-84.1,39.7c0-0.1,0-0.3,0-0.4c0-0.1,0-0.3,0-0.4c0-0.1,0-0.3,0-0.4c0-0.1,0-0.3,0-0.4
						l84.1-39.7c0,0.1,0,0.2,0,0.4c0,0.1,0,0.2,0,0.4c0,0.1,0,0.2,0,0.4C291.8,252,291.8,252.1,291.8,252.2"/>
					<path class="st7" d="M291.7,250.7l-84.1,39.7c0-0.1,0-0.3,0-0.4s0-0.3,0-0.4s0-0.3,0-0.4c0-0.1,0-0.3,0-0.4l84.1-39.6
						c0,0.1,0,0.2,0,0.4c0,0.1,0,0.2,0,0.4s0,0.2,0,0.4C291.6,250.5,291.7,250.6,291.7,250.7"/>
					<path class="st6" d="M291.5,249.2l-84.1,39.6c0-0.1,0-0.3,0-0.4c0-0.1,0-0.3,0-0.4c0-0.1,0-0.3,0-0.4c0-0.1,0-0.3,0-0.4
						l84.2-39.6c0,0.1,0,0.2,0,0.4c0,0.1,0,0.2,0,0.4c0,0.1,0,0.2,0,0.4C291.5,249,291.5,249.1,291.5,249.2"/>
					<path class="st6" d="M291.4,247.8l-84.2,39.6c0-0.1,0-0.3,0-0.4c0-0.1,0-0.3,0-0.4c0-0.1,0-0.3,0-0.4c0-0.1,0-0.3,0-0.4
						l84.2-39.5c0,0.1,0,0.3,0,0.4c0,0.1,0,0.3,0,0.4c0,0.1,0,0.3,0,0.4S291.4,247.6,291.4,247.8"/>
					<path class="st6" d="M291.3,246.2l-84.2,39.5c0-0.1,0-0.3,0-0.4c0-0.1,0-0.3,0-0.4c0-0.1,0-0.3,0-0.4c0-0.1,0-0.3,0-0.4
						l84.2-39.5c0,0.1,0,0.3,0,0.4c0,0.1,0,0.3,0,0.4c0,0.1,0,0.3,0,0.4C291.3,246,291.3,246.1,291.3,246.2"/>
					<path class="st6" d="M291.3,244.7L207,284.2c0-0.1,0-0.3,0-0.4c0-0.1,0-0.3,0-0.4c0-0.1,0-0.3,0-0.4c0-0.1,0-0.3,0-0.4
						l84.3-39.4c0,0.1,0,0.3,0,0.4c0,0.1,0,0.3,0,0.4c0,0.1,0,0.3,0,0.4S291.2,244.6,291.3,244.7"/>
					<path class="st6" d="M291.2,243.2l-84.3,39.4c0-0.1,0-0.3,0-0.4s0-0.3,0-0.4c0-0.1,0-0.3,0-0.4s0-0.3,0-0.4l84.3-39.4
						c0,0.1,0,0.3,0,0.4c0,0.1,0,0.3,0,0.4s0,0.3,0,0.4C291.2,243,291.2,243.1,291.2,243.2"/>
					<path class="st6" d="M291.2,241.7l-84.3,39.4c0-0.1,0-0.3,0-0.4c0-0.1,0-0.3,0-0.4c0-0.1,0-0.3,0-0.4c0-0.1,0-0.3,0-0.4
						l84.3-39.3c0,0.1,0,0.3,0,0.4c0,0.1,0,0.3,0,0.4c0,0.1,0,0.3,0,0.4C291.2,241.4,291.2,241.6,291.2,241.7"/>
					<path class="st6" d="M291.2,240.2l-84.3,39.3c0-0.1,0-0.3,0-0.4c0-0.1,0-0.3,0-0.4c0-0.1,0-0.3,0-0.4s0-0.3,0-0.4l84.4-39.3
						c0,0.1,0,0.3,0,0.4c0,0.1,0,0.3,0,0.4c0,0.1,0,0.3,0,0.4C291.2,239.9,291.2,240,291.2,240.2"/>
					<path class="st5" d="M291.2,238.6l-84.4,39.3c0-0.1,0-0.3,0-0.4c0-0.1,0-0.3,0-0.4s0-0.3,0-0.4c0-0.1,0-0.3,0-0.4l84.4-39.2
						c0,0.1,0,0.3,0,0.4c0,0.1,0,0.3,0,0.4c0,0.1,0,0.3,0,0.4S291.2,238.4,291.2,238.6"/>
					<path class="st4" d="M291.2,237l-84.4,39.2c0-0.1,0-0.3,0-0.4c0-0.1,0-0.3,0-0.4c0-0.1,0-0.3,0-0.4c0-0.1,0-0.3,0-0.4
						l84.4-39.2c0,0.1,0,0.3,0,0.4c0,0.1,0,0.3,0,0.4c0,0.1,0,0.3,0,0.4C291.2,236.7,291.2,236.8,291.2,237"/>
					<path class="st4" d="M291.3,235.4l-84.4,39.2c0-0.1,0-0.3,0-0.4c0-0.1,0-0.3,0-0.4c0-0.1,0-0.3,0-0.4c0-0.1,0-0.3,0-0.4
						c0,0,0,0,0,0c0,0,0,0,0,0c0,0,0,0,0,0c0,0,0,0,0,0l84.5-39.1c0,0,0,0,0,0c0,0,0,0,0,0c0,0,0,0,0,0s0,0,0,0c0,0.1,0,0.3,0,0.4
						c0,0.1,0,0.3,0,0.4c0,0.1,0,0.3,0,0.4C291.3,235.1,291.3,235.3,291.3,235.4"/>
					<path class="st4" d="M291.4,233.8l-84.5,39.1c0-0.1,0-0.3,0-0.4s0-0.3,0-0.4c0-0.1,0-0.3,0-0.4c0-0.1,0-0.3,0-0.4l84.5-39.1
						c0,0.1,0,0.3,0,0.4c0,0.1,0,0.3,0,0.4s0,0.3,0,0.4S291.4,233.7,291.4,233.8"/>
					<path class="st4" d="M291.5,232.1L207,271.2c0-0.1,0-0.3,0-0.4c0-0.1,0-0.3,0-0.4s0-0.3,0-0.4c0-0.1,0-0.3,0-0.4l84.6-39
						c0,0.1,0,0.3,0,0.4c0,0.1,0,0.3,0,0.4c0,0.1,0,0.3,0,0.4C291.5,231.8,291.5,231.9,291.5,232.1"/>
					<path class="st4" d="M291.6,230.4l-84.6,39c0-0.1,0-0.3,0-0.4c0-0.1,0-0.3,0-0.4c0-0.1,0-0.3,0-0.4c0-0.1,0-0.3,0-0.4l84.6-39
						c0,0.1,0,0.3,0,0.4c0,0.1,0,0.3,0,0.4c0,0.1,0,0.3,0,0.4C291.7,230.1,291.7,230.2,291.6,230.4"/>
					<path class="st4" d="M291.8,228.7l-84.6,39c0-0.1,0-0.3,0-0.4c0-0.1,0-0.3,0-0.4c0-0.1,0-0.3,0-0.4c0-0.1,0-0.3,0-0.4L292,227
						c0,0.1,0,0.3-0.1,0.4c0,0.1,0,0.3-0.1,0.4c0,0.1,0,0.3-0.1,0.4C291.9,228.4,291.8,228.6,291.8,228.7"/>
					<path class="st4" d="M292,227L207.4,266c0-0.2,0-0.3,0.1-0.5c0-0.2,0-0.3,0.1-0.5s0-0.3,0.1-0.5c0-0.2,0-0.3,0.1-0.5l84.7-38.9
						c0,0.2,0,0.3-0.1,0.5c0,0.2,0,0.3-0.1,0.5c0,0.2,0,0.3-0.1,0.5C292.1,226.7,292.1,226.9,292,227"/>
					<path class="st3" d="M292.3,225.2l-84.7,38.9c0-0.2,0-0.3,0.1-0.5c0-0.2,0-0.3,0.1-0.5s0-0.3,0.1-0.5s0-0.3,0.1-0.5l84.7-38.8
						c0,0.2-0.1,0.3-0.1,0.5c0,0.2-0.1,0.3-0.1,0.5c0,0.2-0.1,0.3-0.1,0.5C292.4,224.9,292.3,225,292.3,225.2"/>
					<path class="st3" d="M292.6,223.3l-84.7,38.8c0-0.2,0-0.3,0.1-0.5c0-0.2,0.1-0.3,0.1-0.5c0-0.2,0.1-0.3,0.1-0.5
						c0-0.2,0.1-0.3,0.1-0.5l84.8-38.8c0,0.1-0.1,0.3-0.1,0.4c0,0.1-0.1,0.3-0.1,0.4s-0.1,0.3-0.1,0.5
						C292.7,223,292.7,223.2,292.6,223.3"/>
					<path class="st3" d="M293,221.5l-84.8,38.8c0-0.2,0.1-0.3,0.1-0.5c0-0.2,0.1-0.3,0.1-0.5c0-0.2,0.1-0.3,0.1-0.5
						c0-0.2,0.1-0.3,0.1-0.5l84.8-38.7c0,0.2-0.1,0.3-0.1,0.5c0,0.2-0.1,0.3-0.1,0.5c0,0.2-0.1,0.3-0.1,0.5
						C293.1,221.2,293,221.4,293,221.5"/>
					<path class="st3" d="M293.4,219.5l-84.8,38.7c0-0.2,0.1-0.4,0.1-0.5c0-0.2,0.1-0.4,0.1-0.5c0-0.2,0.1-0.4,0.1-0.5
						c0-0.2,0.1-0.4,0.1-0.5l84.9-38.7c0,0.2-0.1,0.3-0.1,0.5c0,0.2-0.1,0.3-0.1,0.5c0,0.2-0.1,0.3-0.1,0.5
						C293.5,219.2,293.5,219.4,293.4,219.5"/>
					<path class="st3" d="M293.9,217.5l-84.9,38.7c0-0.2,0.1-0.4,0.1-0.5c0-0.2,0.1-0.4,0.1-0.5c0-0.2,0.1-0.3,0.1-0.5
						c0-0.2,0.1-0.3,0.1-0.5l84.9-38.6c0,0.2-0.1,0.3-0.1,0.5c0,0.2-0.1,0.3-0.1,0.5c0,0.2-0.1,0.3-0.1,0.5S294,217.3,293.9,217.5"
						/>
					<path class="st3" d="M294.5,215.4l-84.9,38.6c0.1-0.2,0.1-0.4,0.2-0.6c0.1-0.2,0.1-0.4,0.2-0.6c0.1-0.2,0.1-0.4,0.2-0.6
						c0.1-0.2,0.1-0.4,0.2-0.6l85-38.6c-0.1,0.2-0.1,0.4-0.2,0.6c-0.1,0.2-0.1,0.4-0.2,0.6c-0.1,0.2-0.1,0.4-0.2,0.6
						C294.6,215,294.6,215.2,294.5,215.4"/>
					<path class="st3" d="M295.3,213l-85,38.6c0.1-0.2,0.1-0.4,0.2-0.6c0.1-0.2,0.1-0.4,0.2-0.6c0.1-0.2,0.1-0.4,0.2-0.6
						c0.1-0.2,0.1-0.4,0.2-0.6l85-38.5c-0.1,0.2-0.2,0.4-0.2,0.6c-0.1,0.2-0.1,0.4-0.2,0.6c-0.1,0.2-0.1,0.4-0.2,0.6
						C295.4,212.6,295.3,212.8,295.3,213"/>
					<path class="st14" d="M296.1,210.5l-85,38.5c0.1-0.3,0.2-0.5,0.3-0.8c0.1-0.3,0.2-0.5,0.3-0.8c0.1-0.3,0.2-0.5,0.3-0.8
						c0.1-0.3,0.2-0.5,0.3-0.8l85.1-38.4c-0.1,0.2-0.2,0.5-0.3,0.7c-0.1,0.2-0.2,0.5-0.3,0.7c-0.1,0.2-0.2,0.5-0.3,0.8
						C296.3,210,296.2,210.2,296.1,210.5"/>
					<path class="st14" d="M297.3,207.5l-85.1,38.4c0.1-0.3,0.2-0.6,0.4-0.9c0.1-0.3,0.2-0.6,0.4-0.9c0.1-0.3,0.2-0.6,0.4-0.9
						c0.1-0.3,0.3-0.6,0.4-0.8l85.2-38.4c-0.1,0.3-0.3,0.5-0.4,0.8c-0.1,0.3-0.3,0.6-0.4,0.8c-0.1,0.3-0.3,0.6-0.4,0.8
						C297.6,206.9,297.5,207.2,297.3,207.5"/>
					<path class="st14" d="M298.9,204.1l-85.2,38.4c1.3-2.8,2.8-5.4,4.4-7.8c1.6-2.4,3.4-4.6,5.4-6.6c2-2,4.1-3.8,6.3-5.4
						c2.2-1.6,4.6-2.9,7.1-4l85.8-38.1c-2.5,1.1-4.9,2.5-7.2,4c-2.3,1.6-4.4,3.3-6.4,5.3c-2,2-3.9,4.2-5.6,6.5
						C301.8,198.8,300.3,201.4,298.9,204.1"/>
				</g>
			</g>
			<g class="st1">
				<defs>
					<path id="SVGID_3_" class="st1" d="M375.6,108.4l-87.5,36.7c-23.1-10.5-51-23.2-79.5-36.2c-27.8-12.7-56.3-25.6-81.7-37.2
						c-24.9-11.3-47-21.4-63.3-28.9c-16-7.3-26.5-12.1-28.4-13l88.4-28.5c1.9,0.8,12.4,5.3,28.4,12.1c16.3,6.9,38.4,16.3,63.2,26.9
						c25.4,10.8,53.7,22.8,81.4,34.6C325,86.9,352.7,98.7,375.6,108.4z"/>
				</defs>
				<clipPath id="SVGID_4_">
					<use xlink:href="#SVGID_3_"  style="overflow:visible;"/>
				</clipPath>
				<g class="st15">
					<path class="st10" d="M375.6,108.4l-87.5,36.7c-23.1-10.5-51-23.2-79.5-36.2c-27.8-12.7-56.3-25.6-81.7-37.2
						c-24.9-11.3-47-21.4-63.3-28.9c-16-7.3-26.5-12.1-28.4-13l88.4-28.5c1.9,0.8,12.4,5.3,28.4,12.1c16.3,6.9,38.4,16.3,63.2,26.9
						c25.4,10.8,53.7,22.8,81.4,34.6C325,86.9,352.7,98.7,375.6,108.4"/>
				</g>
			</g>
			<g class="st1">
				<defs>
					<path id="SVGID_5_" class="st1" d="M455.7,424.6c-27,16.3-54,32.7-80.9,49c6.8-4.1,12.9-9.2,18.2-15.2
						c5.4-6,10.1-12.8,14.1-20.1c4-7.4,7.2-15.3,9.7-23.6c2.5-8.3,4.2-16.9,5.1-25.5c2-18.6,0.7-40.3-3.8-63.2
						c-4.6-23.1-12.6-47.2-23.9-70.5c-11.3-23.3-26-45.6-43.9-64.8c-17.7-19-38.5-34.9-62.1-45.6l87.5-36.7
						c23.4,9.9,43.8,24.8,61.1,42.9c17.5,18.2,31.7,39.4,42.5,61.6c10.9,22.3,18.3,45.5,22.5,67.6c4.1,22.1,4.9,43,2.6,61.1
						c-1.1,8.4-2.9,16.7-5.6,24.9c-2.6,8.1-6,15.8-10.1,23.1c-4.1,7.2-8.9,13.9-14.4,19.8C468.8,415.3,462.6,420.5,455.7,424.6z"/>
				</defs>
				<clipPath id="SVGID_6_">
					<use xlink:href="#SVGID_5_"  style="overflow:visible;"/>
				</clipPath>
				<g class="st16">
					<path class="st14" d="M455.7,424.6l-80.9,49c2.8-1.7,5.5-3.6,8.1-5.7c2.6-2.1,5.1-4.3,7.4-6.7c2.4-2.4,4.6-4.9,6.7-7.6
						c2.1-2.7,4.1-5.5,5.9-8.4l81.5-48.9c-1.9,2.9-3.9,5.6-6.1,8.3c-2.2,2.6-4.4,5.1-6.8,7.5c-2.4,2.4-4.9,4.6-7.6,6.7
						C461.3,421,458.6,422.9,455.7,424.6"/>
					<path class="st14" d="M484.5,396.5l-81.5,48.9c0.4-0.6,0.7-1.2,1.1-1.7c0.4-0.6,0.7-1.2,1.1-1.8c0.3-0.6,0.7-1.2,1-1.8
						c0.3-0.6,0.7-1.2,1-1.8l81.6-48.8c-0.3,0.6-0.7,1.2-1,1.8c-0.3,0.6-0.7,1.2-1.1,1.8c-0.4,0.6-0.7,1.2-1.1,1.7
						C485.2,395.3,484.8,395.9,484.5,396.5"/>
					<path class="st14" d="M488.8,389.5l-81.6,48.8c0.2-0.4,0.5-0.9,0.7-1.3c0.2-0.4,0.5-0.9,0.7-1.3c0.2-0.4,0.4-0.9,0.7-1.4
						c0.2-0.5,0.4-0.9,0.7-1.4l81.7-48.7c-0.2,0.4-0.5,0.9-0.7,1.3c-0.2,0.4-0.5,0.9-0.7,1.3c-0.2,0.4-0.5,0.9-0.7,1.3
						C489.2,388.6,489,389.1,488.8,389.5"/>
					<path class="st3" d="M491.6,384.2l-81.7,48.7c0.2-0.4,0.4-0.8,0.6-1.3c0.2-0.4,0.4-0.9,0.6-1.3c0.2-0.4,0.4-0.9,0.6-1.3
						c0.2-0.4,0.4-0.9,0.6-1.3l81.8-48.6c-0.2,0.4-0.4,0.9-0.6,1.3c-0.2,0.4-0.4,0.8-0.6,1.3c-0.2,0.4-0.4,0.8-0.6,1.3
						C492,383.4,491.8,383.8,491.6,384.2"/>
					<path class="st3" d="M494,379.2l-81.8,48.6c0.2-0.4,0.3-0.7,0.5-1.1c0.1-0.4,0.3-0.7,0.4-1.1c0.1-0.4,0.3-0.7,0.4-1.1
						c0.1-0.4,0.3-0.7,0.4-1.1l81.9-48.5c-0.1,0.4-0.3,0.7-0.4,1.1c-0.1,0.4-0.3,0.7-0.5,1.1c-0.2,0.4-0.3,0.7-0.5,1.1
						C494.3,378.4,494.1,378.8,494,379.2"/>
					<path class="st3" d="M495.8,374.8l-81.9,48.5c0.1-0.4,0.3-0.7,0.4-1.1c0.1-0.4,0.3-0.7,0.4-1.1c0.1-0.4,0.3-0.7,0.4-1.1
						c0.1-0.4,0.3-0.7,0.4-1.1l82-48.4c-0.1,0.4-0.3,0.7-0.4,1.1c-0.1,0.4-0.3,0.7-0.4,1.1c-0.1,0.4-0.3,0.7-0.4,1.1
						C496.1,374.1,495.9,374.5,495.8,374.8"/>
					<path class="st3" d="M497.4,370.5l-82,48.4c0.1-0.3,0.2-0.6,0.3-0.9c0.1-0.3,0.2-0.6,0.3-0.9c0.1-0.3,0.2-0.6,0.3-0.9
						c0.1-0.3,0.2-0.6,0.3-1l82.1-48.3c-0.1,0.3-0.2,0.6-0.3,0.9c-0.1,0.3-0.2,0.6-0.3,0.9c-0.1,0.3-0.2,0.6-0.3,0.9
						C497.6,369.9,497.5,370.2,497.4,370.5"/>
					<path class="st3" d="M498.7,366.8l-82.1,48.3c0.1-0.3,0.2-0.6,0.3-1c0.1-0.3,0.2-0.6,0.3-1c0.1-0.3,0.2-0.6,0.3-1
						c0.1-0.3,0.2-0.6,0.3-1l82.2-48.2c-0.1,0.3-0.2,0.6-0.3,0.9c-0.1,0.3-0.2,0.6-0.3,0.9c-0.1,0.3-0.2,0.6-0.3,0.9
						C498.9,366.2,498.8,366.5,498.7,366.8"/>
					<path class="st3" d="M499.9,363.1l-82.2,48.2c0.1-0.3,0.2-0.6,0.2-0.9c0.1-0.3,0.2-0.6,0.2-0.9c0.1-0.3,0.1-0.6,0.2-0.9
						c0.1-0.3,0.1-0.6,0.2-0.9l82.2-48.1c-0.1,0.3-0.2,0.6-0.2,0.9c-0.1,0.3-0.2,0.6-0.2,0.9c-0.1,0.3-0.2,0.6-0.2,0.9
						C500,362.5,499.9,362.8,499.9,363.1"/>
					<path class="st3" d="M500.8,359.6l-82.2,48.1c0.1-0.3,0.1-0.6,0.2-0.8c0.1-0.3,0.1-0.6,0.2-0.8c0.1-0.3,0.1-0.6,0.2-0.8
						c0.1-0.3,0.1-0.6,0.2-0.8l82.3-48c-0.1,0.3-0.1,0.5-0.2,0.8c-0.1,0.3-0.1,0.5-0.2,0.8c-0.1,0.3-0.1,0.5-0.2,0.8
						C501,359.1,500.9,359.4,500.8,359.6"/>
					<path class="st4" d="M501.7,356.4l-82.3,48c0.1-0.3,0.1-0.6,0.2-0.8c0.1-0.3,0.1-0.6,0.2-0.8c0.1-0.3,0.1-0.6,0.2-0.8
						c0.1-0.3,0.1-0.6,0.2-0.8l82.4-47.9c-0.1,0.3-0.1,0.5-0.2,0.8c-0.1,0.3-0.1,0.5-0.2,0.8c-0.1,0.3-0.1,0.5-0.2,0.8
						C501.8,355.9,501.7,356.1,501.7,356.4"/>
					<path class="st4" d="M502.4,353.2L420,401.1c0-0.3,0.1-0.5,0.1-0.8c0-0.3,0.1-0.5,0.1-0.8s0.1-0.5,0.1-0.8
						c0-0.3,0.1-0.5,0.1-0.8l82.4-47.9c0,0.3-0.1,0.5-0.1,0.8c0,0.3-0.1,0.5-0.2,0.8c-0.1,0.3-0.1,0.5-0.2,0.8
						C502.5,352.7,502.4,352.9,502.4,353.2"/>
					<path class="st4" d="M503,350.1L420.6,398c0-0.2,0.1-0.5,0.1-0.7c0-0.2,0.1-0.5,0.1-0.7c0-0.2,0.1-0.5,0.1-0.7
						c0-0.2,0.1-0.5,0.1-0.7l82.5-47.8c0,0.2-0.1,0.5-0.1,0.7c0,0.2-0.1,0.5-0.1,0.7c0,0.2-0.1,0.5-0.1,0.7
						C503.1,349.7,503.1,349.9,503,350.1"/>
					<path class="st4" d="M503.5,347.3l-82.5,47.8c0-0.2,0.1-0.5,0.1-0.7c0-0.2,0.1-0.5,0.1-0.7s0.1-0.5,0.1-0.7
						c0-0.2,0.1-0.5,0.1-0.7l82.5-47.7c0,0.2-0.1,0.5-0.1,0.7c0,0.2-0.1,0.5-0.1,0.7c0,0.2-0.1,0.5-0.1,0.7
						C503.6,346.9,503.6,347.1,503.5,347.3"/>
					<path class="st4" d="M504,344.5l-82.5,47.7c0-0.2,0.1-0.5,0.1-0.7c0-0.2,0.1-0.5,0.1-0.7c0-0.2,0.1-0.5,0.1-0.7
						c0-0.2,0.1-0.5,0.1-0.7l82.6-47.6c0,0.2-0.1,0.5-0.1,0.7c0,0.2-0.1,0.5-0.1,0.7c0,0.2-0.1,0.5-0.1,0.7
						C504,344.1,504,344.3,504,344.5"/>
					<path class="st4" d="M504.4,341.7l-82.6,47.6c0,0,0,0,0,0c0,0,0,0,0,0c0,0,0,0,0,0c0,0,0,0,0,0c0-0.2,0-0.5,0.1-0.7
						s0-0.5,0.1-0.7s0-0.5,0.1-0.7c0-0.2,0-0.5,0.1-0.7l82.6-47.5c0,0.2,0,0.4-0.1,0.7c0,0.2-0.1,0.4-0.1,0.7c0,0.2-0.1,0.4-0.1,0.7
						C504.4,341.2,504.4,341.4,504.4,341.7C504.4,341.7,504.4,341.7,504.4,341.7C504.4,341.7,504.4,341.7,504.4,341.7
						C504.4,341.7,504.4,341.7,504.4,341.7C504.4,341.7,504.4,341.7,504.4,341.7"/>
					<path class="st4" d="M504.7,339l-82.6,47.5c0-0.2,0-0.5,0.1-0.7s0-0.5,0.1-0.7c0-0.2,0-0.5,0.1-0.7c0-0.2,0-0.5,0.1-0.7
						l82.7-47.4c0,0.2,0,0.5-0.1,0.7c0,0.2,0,0.5-0.1,0.7c0,0.2,0,0.5-0.1,0.7C504.7,338.5,504.7,338.8,504.7,339"/>
					<path class="st5" d="M505,336.3l-82.7,47.4c0-0.2,0-0.5,0-0.7c0-0.2,0-0.5,0-0.7c0-0.2,0-0.5,0-0.7c0-0.2,0-0.5,0-0.7
						l82.7-47.4c0,0.2,0,0.5-0.1,0.7c0,0.2,0,0.5-0.1,0.7s0,0.5-0.1,0.7C505,335.8,505,336,505,336.3"/>
					<path class="st6" d="M505.2,333.5l-82.7,47.4c0-0.2,0-0.5,0-0.7c0-0.2,0-0.5,0-0.7c0-0.2,0-0.5,0-0.7c0-0.2,0-0.5,0-0.7
						l82.8-47.3c0,0.2,0,0.5,0,0.7c0,0.2,0,0.5,0,0.7c0,0.2,0,0.5,0,0.7C505.2,333,505.2,333.2,505.2,333.5"/>
					<path class="st6" d="M505.4,330.6l-82.8,47.3c0-0.2,0-0.5,0-0.7s0-0.5,0-0.7c0-0.2,0-0.5,0-0.7c0-0.2,0-0.5,0-0.7l82.9-47.2
						c0,0.2,0,0.5,0,0.7c0,0.2,0,0.5,0,0.7s0,0.5,0,0.7C505.4,330.2,505.4,330.4,505.4,330.6"/>
					<path class="st6" d="M505.5,327.8L422.7,375c0-0.2,0-0.5,0-0.7c0-0.2,0-0.5,0-0.7c0-0.2,0-0.5,0-0.7c0-0.2,0-0.5,0-0.7
						l82.9-47.1c0,0.2,0,0.5,0,0.7s0,0.5,0,0.7c0,0.2,0,0.5,0,0.7C505.5,327.3,505.5,327.6,505.5,327.8"/>
					<path class="st6" d="M505.6,325L422.7,372c0-0.2,0-0.5,0-0.7s0-0.5,0-0.7c0-0.3,0-0.5,0-0.8c0-0.3,0-0.5,0-0.8l83-47
						c0,0.2,0,0.5,0,0.7c0,0.2,0,0.5,0,0.7c0,0.2,0,0.5,0,0.7C505.6,324.5,505.6,324.7,505.6,325"/>
					<path class="st6" d="M505.7,322.1l-83,47c0-0.3,0-0.5,0-0.8c0-0.3,0-0.5,0-0.8c0-0.3,0-0.5,0-0.8c0-0.3,0-0.5,0-0.8l83-46.9
						c0,0.2,0,0.5,0,0.7c0,0.2,0,0.5,0,0.7c0,0.2,0,0.5,0,0.7C505.7,321.6,505.7,321.8,505.7,322.1"/>
					<path class="st6" d="M505.6,319.1l-83,46.9c0-0.3,0-0.5,0-0.8c0-0.3,0-0.5,0-0.8c0-0.3,0-0.5,0-0.8c0-0.3,0-0.5,0-0.8
						l83.1-46.8c0,0.2,0,0.5,0,0.7c0,0.2,0,0.5,0,0.7c0,0.2,0,0.5,0,0.7C505.6,318.6,505.6,318.9,505.6,319.1"/>
					<path class="st6" d="M505.6,316.1l-83.1,46.8c0-0.3,0-0.5,0-0.8c0-0.3,0-0.5,0-0.8c0-0.3,0-0.5,0-0.8c0-0.3,0-0.5,0-0.8
						l83.1-46.7c0,0.3,0,0.5,0,0.8s0,0.5,0,0.8s0,0.5,0,0.8S505.6,315.9,505.6,316.1"/>
					<path class="st7" d="M505.5,313.1l-83.1,46.7c0-0.3,0-0.5,0-0.8s0-0.5,0-0.8c0-0.3,0-0.5-0.1-0.8c0-0.3,0-0.5-0.1-0.8
						l83.2-46.6c0,0.3,0,0.5,0,0.8s0,0.5,0,0.8c0,0.3,0,0.5,0,0.8C505.5,312.6,505.5,312.9,505.5,313.1"/>
					<path class="st7" d="M505.4,310.1l-83.2,46.6c0-0.3,0-0.5-0.1-0.8c0-0.3,0-0.5-0.1-0.8c0-0.3,0-0.5-0.1-0.8
						c0-0.3,0-0.5-0.1-0.8l83.3-46.5c0,0.3,0,0.5,0.1,0.8c0,0.3,0,0.5,0,0.8c0,0.3,0,0.5,0,0.8C505.3,309.6,505.3,309.8,505.4,310.1
						"/>
					<path class="st7" d="M505.2,307l-83.3,46.5c0-0.3,0-0.5-0.1-0.8c0-0.3,0-0.5-0.1-0.8c0-0.3-0.1-0.5-0.1-0.8
						c0-0.3-0.1-0.5-0.1-0.8l83.3-46.3c0,0.3,0,0.5,0.1,0.8c0,0.3,0,0.5,0.1,0.8c0,0.3,0,0.5,0.1,0.8
						C505.1,306.5,505.2,306.8,505.2,307"/>
					<path class="st7" d="M504.9,303.9l-83.3,46.3c0-0.3-0.1-0.5-0.1-0.8c0-0.3-0.1-0.5-0.1-0.8c0-0.3-0.1-0.5-0.1-0.8
						c0-0.3-0.1-0.5-0.1-0.8l83.4-46.2c0,0.3,0.1,0.5,0.1,0.8c0,0.3,0,0.5,0.1,0.8c0,0.3,0,0.5,0.1,0.8
						C504.9,303.4,504.9,303.7,504.9,303.9"/>
					<path class="st7" d="M504.6,300.8L421.3,347c0-0.3-0.1-0.5-0.1-0.8c0-0.3-0.1-0.5-0.1-0.8s-0.1-0.5-0.1-0.8
						c0-0.3-0.1-0.6-0.1-0.8l83.5-46.1c0,0.3,0.1,0.5,0.1,0.8c0,0.3,0.1,0.5,0.1,0.8c0,0.3,0.1,0.5,0.1,0.8
						C504.6,300.2,504.6,300.5,504.6,300.8"/>
					<path class="st7" d="M504.3,297.6l-83.5,46.1c0-0.3-0.1-0.6-0.1-0.8c0-0.3-0.1-0.6-0.1-0.8c0-0.3-0.1-0.6-0.1-0.8
						c0-0.3-0.1-0.6-0.1-0.8l83.5-46c0,0.3,0.1,0.5,0.1,0.8c0,0.3,0.1,0.5,0.1,0.8c0,0.3,0.1,0.5,0.1,0.8S504.3,297.3,504.3,297.6"
						/>
					<path class="st7" d="M503.9,294.4l-83.5,46c0-0.3-0.1-0.6-0.1-0.8c0-0.3-0.1-0.6-0.1-0.8c0-0.3-0.1-0.6-0.1-0.8
						c0-0.3-0.1-0.6-0.1-0.9l83.6-45.9c0,0.3,0.1,0.5,0.1,0.8c0,0.3,0.1,0.5,0.1,0.8c0,0.3,0.1,0.5,0.1,0.8
						C503.9,293.9,503.9,294.1,503.9,294.4"/>
					<path class="st8" d="M503.5,291.1L419.9,337c0-0.3-0.1-0.6-0.1-0.9c0-0.3-0.1-0.6-0.1-0.9c0-0.3-0.1-0.6-0.1-0.9
						c0-0.3-0.1-0.6-0.1-0.9l83.7-45.7c0,0.3,0.1,0.6,0.1,0.8c0,0.3,0.1,0.6,0.1,0.8c0,0.3,0.1,0.6,0.1,0.8
						C503.4,290.6,503.5,290.9,503.5,291.1"/>
					<path class="st8" d="M503,287.8l-83.7,45.7c0-0.3-0.1-0.6-0.1-0.9c0-0.3-0.1-0.6-0.2-0.9c-0.1-0.3-0.1-0.6-0.2-0.9
						c-0.1-0.3-0.1-0.6-0.2-0.9l83.7-45.6c0,0.3,0.1,0.6,0.1,0.8c0,0.3,0.1,0.6,0.1,0.8c0,0.3,0.1,0.6,0.1,0.8
						C502.9,287.3,503,287.5,503,287.8"/>
					<path class="st9" d="M502.5,284.5l-83.7,45.6c-0.1-0.3-0.1-0.6-0.2-0.9c-0.1-0.3-0.1-0.6-0.2-0.9c-0.1-0.3-0.1-0.6-0.2-0.9
						c-0.1-0.3-0.1-0.6-0.2-0.9l83.8-45.5c0.1,0.3,0.1,0.6,0.2,0.8s0.1,0.6,0.1,0.8c0,0.3,0.1,0.6,0.1,0.8
						C502.4,283.9,502.4,284.2,502.5,284.5"/>
					<path class="st9" d="M501.9,281.2l-83.8,45.5c-0.1-0.3-0.1-0.6-0.2-0.9c-0.1-0.3-0.1-0.6-0.2-0.9c-0.1-0.3-0.1-0.6-0.2-0.9
						s-0.1-0.6-0.2-0.9l83.9-45.3c0.1,0.3,0.1,0.6,0.2,0.9c0.1,0.3,0.1,0.6,0.2,0.9s0.1,0.6,0.2,0.9S501.8,280.9,501.9,281.2"/>
					<path class="st9" d="M501.2,277.7L417.3,323c-0.1-0.3-0.1-0.6-0.2-0.9c-0.1-0.3-0.1-0.6-0.2-0.9c-0.1-0.3-0.1-0.6-0.2-0.9
						c-0.1-0.3-0.1-0.6-0.2-0.9l83.9-45.2c0.1,0.3,0.1,0.6,0.2,0.9c0.1,0.3,0.1,0.6,0.2,0.9c0.1,0.3,0.1,0.6,0.2,0.9
						C501.1,277.1,501.1,277.4,501.2,277.7"/>
					<path class="st9" d="M500.5,274.2l-83.9,45.2c-0.1-0.3-0.1-0.6-0.2-0.9c-0.1-0.3-0.1-0.6-0.2-0.9c-0.1-0.3-0.1-0.6-0.2-0.9
						c-0.1-0.3-0.1-0.6-0.2-0.9l84-45.1c0.1,0.3,0.1,0.6,0.2,0.9c0.1,0.3,0.1,0.6,0.2,0.9c0.1,0.3,0.1,0.6,0.2,0.9
						C500.4,273.7,500.4,274,500.5,274.2"/>
					<path class="st9" d="M499.7,270.8l-84,45.1c-0.1-0.3-0.1-0.6-0.2-0.9c-0.1-0.3-0.1-0.6-0.2-0.9s-0.2-0.6-0.2-0.9
						c-0.1-0.3-0.2-0.6-0.2-0.9l84.1-44.9c0.1,0.3,0.1,0.6,0.2,0.9s0.1,0.6,0.2,0.9c0.1,0.3,0.1,0.6,0.2,0.9
						C499.6,270.2,499.6,270.5,499.7,270.8"/>
					<path class="st9" d="M498.9,267.3l-84.1,44.9c-0.1-0.3-0.2-0.6-0.2-0.9c-0.1-0.3-0.2-0.6-0.2-0.9c-0.1-0.3-0.2-0.6-0.2-0.9
						c-0.1-0.3-0.2-0.6-0.3-1l84.2-44.8c0.1,0.3,0.2,0.6,0.2,0.9c0.1,0.3,0.2,0.6,0.2,0.9c0.1,0.3,0.2,0.6,0.2,0.9
						C498.7,266.6,498.8,267,498.9,267.3"/>
					<path class="st10" d="M498,263.6l-84.2,44.8c-0.1-0.3-0.2-0.6-0.3-1c-0.1-0.3-0.2-0.6-0.3-1c-0.1-0.3-0.2-0.6-0.3-1
						s-0.2-0.6-0.3-1l84.2-44.6c0.1,0.3,0.2,0.6,0.2,0.9c0.1,0.3,0.2,0.6,0.2,0.9s0.2,0.6,0.2,0.9C497.8,263,497.9,263.3,498,263.6"
						/>
					<path class="st10" d="M497,259.9l-84.2,44.6c-0.1-0.3-0.2-0.6-0.3-1c-0.1-0.3-0.2-0.6-0.3-1c-0.1-0.3-0.2-0.6-0.3-1
						s-0.2-0.6-0.3-1l84.3-44.5c0.1,0.3,0.2,0.6,0.3,0.9c0.1,0.3,0.2,0.6,0.3,0.9c0.1,0.3,0.2,0.6,0.3,0.9
						C496.8,259.3,496.9,259.6,497,259.9"/>
					<path class="st10" d="M496,256.3l-84.3,44.5c-0.1-0.3-0.2-0.6-0.3-1c-0.1-0.3-0.2-0.6-0.3-1c-0.1-0.3-0.2-0.6-0.3-1
						c-0.1-0.3-0.2-0.6-0.3-1l84.4-44.3c0.1,0.3,0.2,0.6,0.3,0.9c0.1,0.3,0.2,0.6,0.3,0.9c0.1,0.3,0.2,0.6,0.3,0.9
						C495.8,255.7,495.9,256,496,256.3"/>
					<path class="st10" d="M494.9,252.5l-84.4,44.3c-0.1-0.3-0.2-0.7-0.3-1c-0.1-0.3-0.2-0.7-0.3-1s-0.2-0.7-0.3-1
						c-0.1-0.3-0.2-0.7-0.3-1l84.5-44.1c0.1,0.3,0.2,0.6,0.3,1c0.1,0.3,0.2,0.6,0.3,1c0.1,0.3,0.2,0.6,0.3,1
						C494.7,251.9,494.8,252.2,494.9,252.5"/>
					<path class="st10" d="M493.6,248.7l-84.5,44.1c-0.1-0.3-0.2-0.7-0.3-1c-0.1-0.3-0.2-0.7-0.3-1c-0.1-0.3-0.2-0.7-0.3-1
						c-0.1-0.3-0.2-0.7-0.3-1l84.6-44c0.1,0.3,0.2,0.6,0.3,1c0.1,0.3,0.2,0.6,0.3,1c0.1,0.3,0.2,0.6,0.3,1
						C493.4,248,493.5,248.3,493.6,248.7"/>
					<path class="st10" d="M492.4,244.8l-84.6,44c-0.1-0.3-0.2-0.7-0.4-1c-0.1-0.3-0.2-0.7-0.4-1c-0.1-0.3-0.2-0.7-0.4-1
						c-0.1-0.3-0.2-0.7-0.4-1l84.6-43.8c0.1,0.3,0.2,0.6,0.3,1c0.1,0.3,0.2,0.6,0.3,1c0.1,0.3,0.2,0.6,0.3,1
						C492.1,244.1,492.2,244.4,492.4,244.8"/>
					<path class="st10" d="M491,240.9l-84.6,43.8c-0.1-0.4-0.3-0.7-0.4-1.1c-0.1-0.4-0.3-0.7-0.4-1.1c-0.1-0.4-0.3-0.7-0.4-1.1
						c-0.1-0.4-0.3-0.7-0.4-1.1l84.7-43.6c0.1,0.3,0.3,0.7,0.4,1c0.1,0.3,0.3,0.7,0.4,1c0.1,0.3,0.3,0.7,0.4,1
						C490.8,240.2,490.9,240.5,491,240.9"/>
					<path class="st11" d="M489.5,236.7l-84.7,43.6c-0.1-0.4-0.3-0.7-0.4-1.1c-0.1-0.4-0.3-0.7-0.4-1.1c-0.1-0.4-0.3-0.7-0.4-1.1
						c-0.1-0.4-0.3-0.7-0.4-1.1l84.8-43.4c0.1,0.3,0.3,0.7,0.4,1.1s0.3,0.7,0.4,1.1c0.1,0.4,0.3,0.7,0.4,1.1
						C489.2,236,489.4,236.4,489.5,236.7"/>
					<path class="st11" d="M487.9,232.5L403.1,276c-0.1-0.4-0.3-0.7-0.4-1.1c-0.1-0.4-0.3-0.7-0.4-1.1c-0.1-0.4-0.3-0.7-0.4-1.1
						s-0.3-0.7-0.5-1.1l84.9-43.3c0.1,0.3,0.3,0.7,0.4,1c0.1,0.3,0.3,0.7,0.4,1c0.1,0.3,0.3,0.7,0.4,1
						C487.6,231.8,487.8,232.2,487.9,232.5"/>
					<path class="st11" d="M486.2,228.3l-84.9,43.3c-0.2-0.4-0.3-0.8-0.5-1.2c-0.2-0.4-0.3-0.8-0.5-1.2c-0.2-0.4-0.3-0.8-0.5-1.2
						s-0.3-0.8-0.5-1.2l85-43c0.2,0.4,0.3,0.7,0.5,1.1s0.3,0.7,0.5,1.1c0.2,0.4,0.3,0.7,0.5,1.1C485.9,227.6,486,228,486.2,228.3"/>
					<path class="st11" d="M484.3,223.9l-85,43c-0.2-0.4-0.4-0.8-0.5-1.2s-0.4-0.8-0.5-1.2s-0.4-0.8-0.5-1.2
						c-0.2-0.4-0.4-0.8-0.6-1.2l85.1-42.8c0.2,0.4,0.4,0.8,0.5,1.2c0.2,0.4,0.3,0.8,0.5,1.2s0.3,0.8,0.5,1.2
						C484,223.1,484.1,223.5,484.3,223.9"/>
					<path class="st12" d="M482.2,219.2L397.1,262c-0.2-0.4-0.4-0.8-0.6-1.2c-0.2-0.4-0.4-0.8-0.6-1.2c-0.2-0.4-0.4-0.8-0.6-1.2
						c-0.2-0.4-0.4-0.8-0.6-1.2l85.2-42.6c0.2,0.4,0.4,0.8,0.6,1.2s0.4,0.8,0.5,1.2c0.2,0.4,0.4,0.8,0.5,1.2
						C481.9,218.4,482.1,218.8,482.2,219.2"/>
					<path class="st12" d="M480.1,214.6l-85.2,42.6c-0.2-0.5-0.4-0.9-0.7-1.4s-0.4-0.9-0.7-1.4c-0.2-0.5-0.4-0.9-0.7-1.4
						c-0.2-0.5-0.5-0.9-0.7-1.4l85.3-42.4c0.2,0.4,0.4,0.9,0.7,1.3c0.2,0.4,0.4,0.9,0.6,1.3c0.2,0.4,0.4,0.9,0.6,1.3
						C479.6,213.7,479.8,214.1,480.1,214.6"/>
					<path class="st12" d="M477.5,209.4l-85.3,42.4c-0.2-0.5-0.5-1-0.7-1.4c-0.2-0.5-0.5-1-0.7-1.4c-0.2-0.5-0.5-0.9-0.7-1.4
						c-0.2-0.5-0.5-0.9-0.8-1.4l85.4-42.1c0.2,0.5,0.5,0.9,0.7,1.4c0.2,0.5,0.5,0.9,0.7,1.4s0.5,0.9,0.7,1.4
						C477,208.5,477.3,208.9,477.5,209.4"/>
					<path class="st13" d="M474.7,203.9L389.2,246c-0.3-0.5-0.5-1-0.8-1.5s-0.5-1-0.8-1.5c-0.3-0.5-0.6-1-0.8-1.5
						c-0.3-0.5-0.6-1-0.8-1.5l85.6-41.8c0.3,0.5,0.5,1,0.8,1.4c0.3,0.5,0.5,1,0.8,1.4c0.3,0.5,0.5,1,0.8,1.4
						C474.1,203,474.4,203.4,474.7,203.9"/>
					<path class="st13" d="M471.5,198.2L385.9,240c-0.3-0.6-0.7-1.2-1-1.8c-0.3-0.6-0.7-1.2-1.1-1.8c-0.4-0.6-0.7-1.2-1.1-1.8
						c-0.4-0.6-0.7-1.2-1.1-1.8l85.7-41.5c0.4,0.6,0.7,1.1,1,1.7c0.3,0.6,0.7,1.2,1,1.7c0.3,0.6,0.7,1.2,1,1.7
						C470.8,197,471.2,197.6,471.5,198.2"/>
					<path class="st13" d="M467.4,191.3l-85.7,41.5c-0.4-0.7-0.9-1.4-1.3-2.2c-0.4-0.7-0.9-1.4-1.3-2.2c-0.5-0.7-0.9-1.4-1.4-2.1
						c-0.5-0.7-0.9-1.4-1.4-2.1l85.9-41.1c0.4,0.7,0.9,1.4,1.3,2c0.4,0.7,0.9,1.4,1.3,2c0.4,0.7,0.9,1.4,1.3,2.1
						C466.5,189.9,467,190.6,467.4,191.3"/>
					<path class="st13" d="M462.2,183.1l-85.9,41.1c-0.8-1.2-1.6-2.5-2.5-3.7c-0.8-1.2-1.7-2.5-2.5-3.7c-0.9-1.2-1.7-2.4-2.6-3.6
						c-0.9-1.2-1.8-2.4-2.7-3.6l86.2-40.4c0.9,1.1,1.7,2.3,2.6,3.4c0.9,1.1,1.7,2.3,2.5,3.4c0.8,1.2,1.7,2.3,2.5,3.5
						C460.6,180.7,461.4,181.9,462.2,183.1"/>
					<path class="st13" d="M452.2,169.2L366,209.6c-0.8-1.1-1.7-2.2-2.5-3.2c-0.8-1.1-1.7-2.1-2.5-3.2c-0.9-1.1-1.7-2.1-2.6-3.1
						c-0.9-1-1.8-2.1-2.6-3.1l86.5-39.8c0.9,1,1.7,2,2.6,2.9c0.9,1,1.7,2,2.5,3c0.8,1,1.7,2,2.5,3
						C450.6,167.1,451.4,168.2,452.2,169.2"/>
					<path class="st13" d="M442.2,157.2l-86.5,39.8c-0.9-1.1-1.8-2.1-2.8-3.2c-0.9-1-1.9-2.1-2.8-3.1c-1-1-1.9-2-2.9-3
						c-1-1-2-2-2.9-3l86.7-39.1c1,0.9,1.9,1.9,2.9,2.8c1,1,1.9,1.9,2.8,2.9c0.9,1,1.9,1.9,2.8,2.9
						C440.4,155.2,441.3,156.2,442.2,157.2"/>
					<path class="st13" d="M430.9,145.5l-86.7,39.1c-0.6-0.6-1.1-1.1-1.7-1.7c-0.6-0.6-1.2-1.1-1.7-1.7c-0.6-0.6-1.2-1.1-1.8-1.7
						c-0.6-0.6-1.2-1.1-1.8-1.6l86.8-38.7c0.6,0.5,1.2,1,1.7,1.5c0.6,0.5,1.2,1,1.7,1.6c0.6,0.5,1.1,1.1,1.7,1.6
						C429.8,144.4,430.4,145,430.9,145.5"/>
					<path class="st13" d="M424.1,139.2l-86.8,38.7c-0.4-0.4-0.9-0.8-1.3-1.2c-0.4-0.4-0.9-0.8-1.3-1.1c-0.4-0.4-0.9-0.8-1.3-1.1
						c-0.4-0.4-0.9-0.8-1.3-1.1l86.9-38.5c0.4,0.4,0.9,0.7,1.3,1.1c0.4,0.4,0.9,0.7,1.3,1.1c0.4,0.4,0.8,0.7,1.3,1.1
						C423.2,138.5,423.7,138.8,424.1,139.2"/>
					<path class="st13" d="M419,134.9L332,173.4c-0.4-0.4-0.8-0.7-1.3-1.1c-0.4-0.4-0.9-0.7-1.3-1.1c-0.4-0.4-0.9-0.7-1.3-1.1
						c-0.4-0.4-0.9-0.7-1.3-1l87-38.2c0.4,0.3,0.9,0.7,1.3,1c0.4,0.3,0.8,0.7,1.3,1c0.4,0.3,0.8,0.7,1.3,1
						C418.2,134.2,418.6,134.6,419,134.9"/>
					<path class="st12" d="M413.9,130.9l-87,38.2c-0.3-0.3-0.7-0.5-1-0.8c-0.3-0.3-0.7-0.5-1-0.8c-0.3-0.3-0.7-0.5-1-0.8
						c-0.3-0.3-0.7-0.5-1-0.8l87.1-38c0.3,0.2,0.7,0.5,1,0.7c0.3,0.2,0.7,0.5,1,0.7c0.3,0.2,0.7,0.5,1,0.7
						C413.3,130.4,413.6,130.6,413.9,130.9"/>
					<path class="st12" d="M410,128l-87.1,38c-0.3-0.3-0.7-0.5-1-0.8c-0.3-0.3-0.7-0.5-1-0.8c-0.3-0.3-0.7-0.5-1-0.8
						c-0.3-0.2-0.7-0.5-1-0.7l87.2-37.9c0.3,0.2,0.7,0.5,1,0.7c0.3,0.2,0.7,0.5,1,0.7c0.3,0.2,0.7,0.5,1,0.7
						C409.3,127.5,409.6,127.7,410,128"/>
					<path class="st12" d="M405.9,125.1L318.8,163c-0.3-0.2-0.7-0.5-1-0.7c-0.3-0.2-0.7-0.5-1-0.7c-0.3-0.2-0.7-0.5-1-0.7
						c-0.3-0.2-0.7-0.5-1-0.7l87.2-37.7c0.3,0.2,0.7,0.4,1,0.7c0.3,0.2,0.7,0.4,1,0.7c0.3,0.2,0.7,0.5,1,0.7
						C405.3,124.7,405.6,124.9,405.9,125.1"/>
					<path class="st11" d="M401.9,122.4l-87.2,37.7c-0.3-0.2-0.6-0.4-0.9-0.6c-0.3-0.2-0.6-0.4-0.9-0.6c-0.3-0.2-0.6-0.4-0.9-0.6
						c-0.3-0.2-0.6-0.4-0.9-0.6l87.3-37.5c0.3,0.2,0.6,0.4,0.9,0.5c0.3,0.2,0.6,0.4,0.9,0.5c0.3,0.2,0.6,0.4,0.9,0.5
						C401.3,122.1,401.6,122.2,401.9,122.4"/>
					<path class="st11" d="M398.5,120.3l-87.3,37.5c-0.3-0.2-0.6-0.4-0.9-0.6c-0.3-0.2-0.6-0.4-0.9-0.6c-0.3-0.2-0.6-0.4-0.9-0.6
						c-0.3-0.2-0.6-0.4-0.9-0.5l87.3-37.4c0.3,0.2,0.6,0.3,0.9,0.5c0.3,0.2,0.6,0.3,0.9,0.5c0.3,0.2,0.6,0.3,0.9,0.5
						C397.9,119.9,398.2,120.1,398.5,120.3"/>
					<path class="st11" d="M395,118.2l-87.3,37.4c-0.3-0.2-0.6-0.4-0.9-0.5c-0.3-0.2-0.6-0.4-0.9-0.5c-0.3-0.2-0.6-0.4-0.9-0.5
						c-0.3-0.2-0.6-0.4-0.9-0.5l87.3-37.3c0.3,0.2,0.6,0.3,0.9,0.5c0.3,0.2,0.6,0.3,0.9,0.5c0.3,0.2,0.6,0.3,0.9,0.5
						C394.4,117.8,394.7,118,395,118.2"/>
					<path class="st11" d="M391.4,116.2l-87.3,37.3c-0.3-0.2-0.6-0.3-0.9-0.5c-0.3-0.2-0.6-0.3-0.9-0.5c-0.3-0.2-0.6-0.3-0.9-0.5
						c-0.3-0.2-0.6-0.3-0.9-0.5l87.4-37.1c0.3,0.2,0.6,0.3,0.9,0.5c0.3,0.2,0.6,0.3,0.9,0.5c0.3,0.2,0.6,0.3,0.9,0.5
						C390.9,115.9,391.2,116,391.4,116.2"/>
					<path class="st10" d="M388,114.3l-87.4,37.1c-0.3-0.1-0.5-0.3-0.8-0.4c-0.3-0.1-0.5-0.3-0.8-0.4c-0.3-0.1-0.5-0.3-0.8-0.4
						c-0.3-0.1-0.5-0.3-0.8-0.4l87.4-37c0.3,0.1,0.5,0.3,0.8,0.4c0.3,0.1,0.5,0.3,0.8,0.4c0.3,0.1,0.5,0.3,0.8,0.4
						C387.5,114,387.7,114.2,388,114.3"/>
					<path class="st10" d="M384.8,112.7l-87.4,37c-0.3-0.1-0.5-0.3-0.8-0.4c-0.3-0.1-0.5-0.3-0.8-0.4c-0.3-0.1-0.5-0.3-0.8-0.4
						c-0.3-0.1-0.5-0.3-0.8-0.4l87.4-36.9c0.3,0.1,0.5,0.3,0.8,0.4c0.3,0.1,0.5,0.3,0.8,0.4c0.3,0.1,0.5,0.3,0.8,0.4
						C384.2,112.4,384.5,112.5,384.8,112.7"/>
					<path class="st10" d="M381.5,111.1L294.1,148c-0.3-0.1-0.6-0.3-0.8-0.4c-0.3-0.1-0.6-0.3-0.8-0.4c-0.3-0.1-0.6-0.3-0.8-0.4
						c-0.3-0.1-0.6-0.3-0.8-0.4l87.5-36.8c0.3,0.1,0.6,0.2,0.8,0.4c0.3,0.1,0.6,0.2,0.8,0.4c0.3,0.1,0.5,0.3,0.8,0.4
						C381,110.8,381.3,111,381.5,111.1"/>
					<path class="st10" d="M378.2,109.6l-87.5,36.8c-0.2-0.1-0.4-0.2-0.7-0.3c-0.2-0.1-0.4-0.2-0.7-0.3c-0.2-0.1-0.4-0.2-0.7-0.3
						c-0.2-0.1-0.4-0.2-0.7-0.3l87.5-36.7c0.2,0.1,0.4,0.2,0.7,0.3c0.2,0.1,0.4,0.2,0.7,0.3c0.2,0.1,0.4,0.2,0.7,0.3
						C377.8,109.4,378,109.5,378.2,109.6"/>
				</g>
			</g>
			<g>
				<path class="st17" d="M265.6,462.5c-22.8-13.5-48.7-28.9-74.6-44.3c-25.3-15-50.6-30-73.1-43.3c-22-13-41.3-24.5-55.5-32.9
					c-14-8.3-23-13.7-24.7-14.6L35.2,29.8c1.9,0.9,12.4,5.6,28.4,13c16.3,7.4,38.4,17.5,63.3,28.9c25.4,11.6,53.9,24.6,81.7,37.2
					c28.5,13,56.4,25.7,79.5,36.2c23.6,10.7,44.3,26.6,62.1,45.6c17.9,19.2,32.5,41.5,43.9,64.8c11.3,23.3,19.3,47.5,23.9,70.5
					c4.6,22.9,5.8,44.6,3.8,63.2c-1.8,17.1-6.7,34.1-14.6,48.8c-7.8,14.5-18.4,26.9-31.9,35.2c-13.2,8.2-29.1,12.4-47.6,11.1
					C309.5,483,288.9,476.3,265.6,462.5z M283,222c-10.3-5-20.2-7.3-29.2-7c-8.9,0.2-17,2.9-23.8,7.6c-6.8,4.7-12.3,11.5-16.3,20
					c-3.9,8.5-6.3,18.7-6.8,30.4c-0.5,11.6,1,23.6,4,35.4c3,11.8,7.6,23.4,13.5,34.2c5.9,10.8,13,21,21.1,29.7
					c8.1,8.8,17.2,16.3,26.9,21.8c9.8,5.5,19.4,8.5,28.4,9.2c9,0.7,17.4-1,24.7-4.9c7.4-3.9,13.6-10,18.3-18.2
					c4.7-8.2,7.8-18.5,8.9-30.5c1-12.2-0.2-24.9-3.2-37.6c-3.1-12.7-8-25.3-14.4-37c-6.4-11.7-14.2-22.5-23.1-31.6
					C303.1,234.5,293.3,227,283,222"/>
			</g>
		</g>
	</g>
</g>
<polygon class="st0" points="149.7,13.4 2.1,63.6 -0.4,67.2 4.3,69.2 157.2,16.4 154.4,11.7 "/>
<polygon class="st0" points="13.8,62.9 8.5,75.5 11,76.4 11,353.6 8.5,354.6 14.1,364.4 19.3,354.6 17,353.6 17,76.4 18.8,75.5 "/>
<polygon class="st0" points="340.9,287.3 234.7,323.3 232.2,327 236.9,328.9 343,292.2 342,289.6 "/>
<polygon class="st0" points="522.8,344.9 366.5,398 364,401.6 368.7,403.5 530.3,347.8 527.6,343.2 "/>
<path class="st18" d="M536.6,434"/>
<path class="st18" d="M-25,160.3"/>
<polygon class="st0" points="249.7,323 256.7,332.6 259.2,331.6 372.1,390.6 372.4,393.4 384.5,393.5 376.9,383.7 374.2,385 
	261.6,326.3 260.9,323.4 "/>
<g>
	<path class="st0" d="M32.9,228.6l-3.6-15h3.1l2.3,10.3l2.7-10.3H41l2.6,10.4l2.3-10.4h3l-3.6,15h-3.2l-3-11.2l-3,11.2H32.9z"/>
</g>
<g>
	<path class="st0" d="M274,367.1h3.7v2.2c0.5-0.8,1.1-1.4,2-1.8c0.8-0.5,1.7-0.7,2.7-0.7c1.8,0,3.2,0.7,4.5,2.1
		c1.2,1.4,1.8,3.3,1.8,5.7c0,2.5-0.6,4.5-1.8,5.9s-2.7,2.1-4.5,2.1c-0.8,0-1.6-0.2-2.3-0.5c-0.7-0.3-1.4-0.9-2.1-1.7v7.6h-4V367.1z
		 M278,374.4c0,1.7,0.3,2.9,1,3.8c0.7,0.8,1.5,1.2,2.5,1.2c0.9,0,1.7-0.4,2.3-1.1c0.6-0.7,0.9-2,0.9-3.7c0-1.6-0.3-2.8-1-3.5
		s-1.4-1.1-2.4-1.1c-1,0-1.8,0.4-2.4,1.1C278.3,371.8,278,372.9,278,374.4z"/>
	<path class="st0" d="M305.7,382.2H302V380c-0.6,0.9-1.3,1.5-2.2,1.9c-0.8,0.4-1.7,0.6-2.5,0.6c-1.7,0-3.2-0.7-4.5-2.1
		c-1.2-1.4-1.9-3.3-1.9-5.8c0-2.6,0.6-4.5,1.8-5.8c1.2-1.3,2.7-2,4.6-2c1.7,0,3.1,0.7,4.4,2.1v-7.5h4V382.2z M295.1,374.3
		c0,1.6,0.2,2.8,0.7,3.5c0.6,1,1.5,1.6,2.7,1.6c0.9,0,1.7-0.4,2.3-1.2c0.6-0.8,1-1.9,1-3.5c0-1.7-0.3-3-0.9-3.7
		c-0.6-0.8-1.4-1.1-2.4-1.1c-0.9,0-1.7,0.4-2.4,1.1C295.4,371.7,295.1,372.8,295.1,374.3z"/>
</g>
</svg>
