<?xml version="1.0" encoding="utf-8"?>
<!-- Generator: Adobe Illustrator 19.1.1, SVG Export Plug-In . SVG Version: 6.00 Build 0)  -->
<svg version="1.1" id="Layer_1" xmlns="http://www.w3.org/2000/svg" xmlns:xlink="http://www.w3.org/1999/xlink" x="0px" y="0px"
	 viewBox="0 0 489.7 512" style="enable-background:new 0 0 489.7 512;" xml:space="preserve">
<style type="text/css">
	.st0{fill:#FFFFFF;}
	.st1{fill:#6B7071;}
	.st2{fill:#6B7071;stroke:#6B7071;stroke-width:32;stroke-linejoin:round;stroke-miterlimit:10;}
	.st3{fill:#9DAFB3;stroke:#9DAFB3;stroke-width:32.4519;stroke-linejoin:round;stroke-miterlimit:10;}
	.st4{fill:none;}
	.st5{fill:#0A3782;}
	.st6{font-family:'Calibri-Bold';}
	.st7{font-size:156.357px;}
	.st8{letter-spacing:15;}
</style>
<g>
	<path class="st0" d="M83.7,498c-8.6,0-15.7-7.5-15.7-16.1V31.6C68,22.9,75.1,16,83.7,16h270.5c4.1,0,8.1,1.6,11.1,4.5l105,104.7
		c2.9,2.9,4.8,6.9,4.8,11v345.5c0,8.6-7.4,16.1-16,16.1H83.7z"/>
	<path class="st1" d="M354.2,32L459,136.3V482H84V32h270 M354.2,0H83.7C66.4,0,52,14.3,52,31.6v450.3c0,17.3,14.4,31.1,31.7,31.1
		H459c17.3,0,31-13.9,31-31.1V136.3c0-8.3-3.2-16.2-9-22.1L376.3,9.3C370.4,3.4,362.5,0,354.2,0L354.2,0z"/>
</g>
<polygon class="st2" points="354,136 354,18.5 472,136 "/>
<rect x="16.5" y="267.7" class="st3" width="281.4" height="131.3"/>
<rect x="37.8" y="277" class="st4" width="253.3" height="112.6"/>
<text transform="matrix(1 0 0 1 37.8486 383.0449)" class="st5 st6 st7 st8">CLI</text>
</svg>
