<?xml version="1.0" encoding="utf-8"?>
<!-- Generator: Adobe Illustrator 19.1.1, SVG Export Plug-In . SVG Version: 6.00 Build 0)  -->
<svg version="1.1" id="Layer_1" xmlns="http://www.w3.org/2000/svg" xmlns:xlink="http://www.w3.org/1999/xlink" x="0px" y="0px"
	 viewBox="0 0 489.7 512" style="enable-background:new 0 0 489.7 512;" xml:space="preserve">
<style type="text/css">
	.st0{fill:#FFFFFF;}
	.st1{fill:#6B7071;}
	.st2{fill:#6B7071;stroke:#6B7071;stroke-width:30;stroke-linejoin:round;stroke-miterlimit:10;}
	.st3{fill:#9DAFB3;stroke:#9DAFB3;stroke-width:32.3681;stroke-linejoin:round;stroke-miterlimit:10;}
	.st4{fill:#C1272D;}
</style>
<g>
	<path class="st0" d="M84.7,496c-8.6,0-15.7-6.7-15.7-15.3V31.5C69,22.9,76.1,16,84.7,16h269.8c4.1,0,8.1,1.6,11,4.5L470.2,125
		c2.9,2.9,4.8,6.9,4.8,11v344.7c0,8.6-7.4,15.3-16,15.3H84.7z"/>
	<path class="st1" d="M354.5,32L459,136v345H85V32h270 M354.5,0H84.7C67.5,0,54,14.3,54,31.5v449.1c0,17.2,13.5,31.3,30.7,31.3H459
		c17.2,0,31-14.1,31-31.3V136c0-8.3-3.2-16.2-9-22.1L376.5,9.3C370.7,3.5,362.8,0,354.5,0L354.5,0z"/>
</g>
<polygon class="st2" points="354,136 354,18.5 472,136 "/>
<rect x="17.7" y="267" class="st3" width="280.7" height="131"/>
<path class="st4" d="M262,271H149.9c-37.9,0-68.1,32.3-64.3,70c3.7,37.1,39.2,64.7,78.9,55.4c23.6-5.5,41.9-24.5,47-48.1
	c4.8-22.5-2.2-43.3-16-58.3h0.2H262c0,0,0,0.3,0,0.2v-19.7C262,270.4,262,271,262,271z M149.1,378.1c-24.2,0-43.9-19.6-43.9-43.9
	c0-24.2,19.6-43.9,43.9-43.9S193,310,193,334.2C193,358.5,173.3,378.1,149.1,378.1z"/>
</svg>
