<?xml version="1.0" encoding="utf-8"?>
<!-- Generator: Adobe Illustrator 19.1.1, SVG Export Plug-In . SVG Version: 6.00 Build 0)  -->
<svg version="1.1" id="Layer_1" xmlns="http://www.w3.org/2000/svg" xmlns:xlink="http://www.w3.org/1999/xlink" x="0px" y="0px"
	 viewBox="0 0 520 520.3" style="enable-background:new 0 0 520 520.3;" xml:space="preserve">
<style type="text/css">
	.st0{fill:#0A3782;stroke:#FFFFFF;stroke-width:7;stroke-miterlimit:10;}
	.st1{fill:none;stroke:#FFFFFF;stroke-width:9.0026;stroke-miterlimit:10;}
	.st2{fill:#FFFFFF;}
	.st3{fill:none;stroke:#FFFFFF;stroke-width:9.2175;stroke-miterlimit:10;}
</style>
<path class="st0" d="M4,4v512h512V4H4z M260.1,295.3c-19.2,0-34.8-15.6-34.8-34.9s15.6-34.9,34.8-34.9c19.2,0,34.8,15.6,34.8,34.9
	C294.9,279.6,279.3,295.3,260.1,295.3z"/>
<g>
	<g>
		<line class="st1" x1="36.7" y1="484.4" x2="36.6" y2="373.1"/>
		<g>
			<polygon class="st2" points="58.7,379.4 36.6,341.4 14.6,379.6 			"/>
		</g>
	</g>
</g>
<g>
	<g>
		<line class="st3" x1="32.3" y1="482.2" x2="148.6" y2="482.2"/>
		<g>
			<polygon class="st2" points="142.1,504.8 181.1,482.1 142.1,459.7 			"/>
		</g>
	</g>
</g>
<g>
	<path class="st2" d="M55.8,312.9h7.3l6.2,18.5l6.1-18.5h7.2L73.3,338l-1.7,4.6c-0.6,1.5-1.2,2.6-1.8,3.5c-0.6,0.8-1.2,1.5-1.9,1.9
		c-0.7,0.4-1.5,0.8-2.6,1.1c-1.1,0.3-2.2,0.4-3.5,0.4c-1.4,0-2.6-0.1-3.9-0.4l-0.6-5.4c1.1,0.3,2.1,0.3,2.9,0.3
		c1.7,0,2.8-0.4,3.6-1.4c0.8-1,1.4-2.1,1.8-3.6L55.8,312.9z"/>
</g>
<g>
	<path class="st2" d="M166.4,447.5l9.4-13.4l-9-12.7h8.4l4.6,7.2l4.8-7.2h8.1l-8.8,12.3l9.7,13.7h-8.4l-5.2-8l-5.4,8h-8.1V447.5z"/>
</g>
</svg>
