<?xml version="1.0" encoding="utf-8"?>
<!-- Generator: Adobe Illustrator 19.1.1, SVG Export Plug-In . SVG Version: 6.00 Build 0)  -->
<svg version="1.1" xmlns="http://www.w3.org/2000/svg" xmlns:xlink="http://www.w3.org/1999/xlink" x="0px" y="0px"
	 viewBox="-219 541 1024 1024" style="enable-background:new -219 541 1024 1024;" xml:space="preserve">
<style type="text/css">
	.st0{display:none;}
	.st1{display:inline;fill:#9DAFB3;}
	.st2{display:inline;}
	.st3{fill:none;stroke:#AE1B21;stroke-width:9.6293;stroke-miterlimit:10;}
	.st4{fill:#AE1B21;}
	.st5{fill:none;stroke:#AE1B21;stroke-width:9.629;stroke-miterlimit:10;}
	.st6{fill:#0A3782;stroke:#FFFFFF;stroke-width:9.6293;stroke-miterlimit:10;}
	.st7{fill:none;stroke:#FFFFFF;stroke-width:8.9574;stroke-miterlimit:10;}
	.st8{fill:#FFFFFF;}
	.st9{fill:none;stroke:#FFFFFF;stroke-width:9.1712;stroke-miterlimit:10;}
	.st10{fill:none;}
	.st11{font-family:'Calibri-Bold';}
	.st12{font-size:49.5223px;}
	.st13{fill:none;stroke:#AE1B21;stroke-width:9;stroke-miterlimit:10;}
</style>
<g id="background" class="st0">
	<rect x="-219" y="541" class="st1" width="1024" height="1024"/>
</g>
<g id="guides" class="st0">
</g>
<g id="axis_arrows" class="st0">
	<g class="st2">
		<g>
			<line class="st3" x1="698.9" y1="1053.3" x2="573.3" y2="1053.3"/>
			<g>
				<polygon class="st4" points="692.6,1031.7 730,1053.3 692.6,1075 				"/>
			</g>
		</g>
	</g>
	<g class="st2">
		<g>
			<line class="st3" x1="-186.9" y1="1053.3" x2="-61.3" y2="1053.3"/>
			<g>
				<polygon class="st4" points="-180.6,1075 -218,1053.3 -180.6,1031.7 				"/>
			</g>
		</g>
	</g>
</g>
<g id="shear_arrows">
	<g>
		<polyline class="st5" points="650.4,669.3 -51.1,669.8 -24.7,643.3 -24.6,669.8 		"/>
		<polygon class="st4" points="-49.1,668.8 -24.9,668.8 -24.9,645.8 		"/>
	</g>
	<g>
		<polyline class="st5" points="-63.1,1437.9 638.4,1437.4 612,1463.8 612.1,1437.4 		"/>
		<polygon class="st4" points="637,1438.4 612.7,1438.4 612.7,1461.4 		"/>
	</g>
	<g>
		<polyline class="st5" points="677.6,696.9 677.1,1399.5 703.5,1373.1 677.1,1373 		"/>
		<polygon class="st4" points="702.4,1374.1 678.1,1374.1 678.1,1397.1 		"/>
	</g>
</g>
<g id="plate">
	<g>
		<path class="st6" d="M-59.6,700.6V1405h704.3V700.6H-59.6z M292.7,1101.4c-26.4,0-47.9-21.5-47.9-48s21.5-48,47.9-48
			c26.4,0,47.9,21.5,47.9,48C340.6,1079.8,319.1,1101.4,292.7,1101.4z"/>
		<g>
			<g>
				<g>
					<line class="st7" x1="-23" y1="1369.3" x2="-23.1" y2="1258.5"/>
					<g>
						<polygon class="st8" points="-1.1,1264.8 -23.1,1227 -45,1265 						"/>
					</g>
				</g>
			</g>
			<g>
				<g>
					<line class="st9" x1="-27.4" y1="1367.1" x2="88.3" y2="1367.1"/>
					<g>
						<polygon class="st8" points="81.9,1389.6 120.7,1367 81.9,1344.7 						"/>
					</g>
				</g>
			</g>
			<g>
				<path class="st8" d="M-4,1198.6h7.3l6.2,18.4l6.1-18.4h7.2l-9.3,25l-1.7,4.6c-0.6,1.5-1.2,2.6-1.8,3.5c-0.6,0.8-1.2,1.5-1.9,1.9
					c-0.7,0.4-1.5,0.8-2.6,1.1c-1.1,0.3-2.2,0.4-3.5,0.4c-1.4,0-2.6-0.1-3.9-0.4l-0.6-5.4c1.1,0.3,2.1,0.3,2.9,0.3
					c1.7,0,2.8-0.4,3.6-1.4c0.8-1,1.4-2.1,1.8-3.6L-4,1198.6z"/>
			</g>
			<g>
				<path class="st8" d="M106.1,1332.5l9.4-13.3l-9-12.6h8.4l4.6,7.2l4.8-7.2h8.1l-8.8,12.2l9.7,13.6h-8.4l-5.2-8l-5.4,8
					L106.1,1332.5L106.1,1332.5L106.1,1332.5z"/>
			</g>
		</g>
	</g>
	<rect x="-39.5" y="721.6" class="st10" width="231.1" height="94.9"/>
	<text transform="matrix(1 0 0 1 -39.4906 755.2137)" class="st8 st11 st12">SB4</text>
</g>
<g id="bearing_axis_arrows">
	<g>
		<g>
			<line class="st3" x1="293" y1="906.2" x2="293" y2="1095.9"/>
			<g>
				<polygon class="st4" points="271.4,912.5 293,875.1 314.6,912.5 				"/>
			</g>
		</g>
	</g>
</g>
<g id="bearing_load_arrows" class="st0">
	<g class="st2">
		<g>
			<path class="st13" d="M36.7,669.3c38.3-23.1,130.2-71.6,257-72c104-0.3,184.8,31.8,231.6,55.9"/>
			<g>
				<polygon class="st4" points="510.3,668.4 550.7,667.3 529.5,632.9 				"/>
			</g>
		</g>
	</g>
</g>
</svg>
