<?xml version="1.0" encoding="utf-8"?>
<!-- Generator: Adobe Illustrator 19.1.1, SVG Export Plug-In . SVG Version: 6.00 Build 0)  -->
<svg version="1.1" xmlns="http://www.w3.org/2000/svg" xmlns:xlink="http://www.w3.org/1999/xlink" x="0px" y="0px"
	 viewBox="-219 541 1024 1024" style="enable-background:new -219 541 1024 1024;" xml:space="preserve">
<style type="text/css">
	.st0{display:none;}
	.st1{display:inline;fill:#9DAFB3;}
	.st2{fill:none;stroke:#AE1B21;stroke-width:9.6293;stroke-miterlimit:10;}
	.st3{fill:#AE1B21;}
	.st4{fill:#0A3782;stroke:#FFFFFF;stroke-width:9.6293;stroke-miterlimit:10;}
	.st5{fill:none;stroke:#FFFFFF;stroke-width:8.9574;stroke-miterlimit:10;}
	.st6{fill:#FFFFFF;}
	.st7{fill:none;stroke:#FFFFFF;stroke-width:9.1712;stroke-miterlimit:10;}
	.st8{fill:none;}
	.st9{font-family:'Calibri-Bold';}
	.st10{font-size:49.5223px;}
</style>
<g id="background" class="st0">
	<rect x="-219" y="541" class="st1" width="1024" height="1024"/>
</g>
<g id="guides">
</g>
<g id="arrows">
	<g>
		<g>
			<line class="st2" x1="-187.9" y1="1053.3" x2="-62.3" y2="1053.3"/>
			<g>
				<polygon class="st3" points="-181.6,1075 -219,1053.3 -181.6,1031.7 				"/>
			</g>
		</g>
	</g>
	<g>
		<g>
			<line class="st2" x1="773.9" y1="1053.3" x2="648.3" y2="1053.3"/>
			<g>
				<polygon class="st3" points="767.6,1031.7 805,1053.3 767.6,1075 				"/>
			</g>
		</g>
	</g>
</g>
<g id="plate">
	<g>
		<path class="st4" d="M-59.6,700.6V1405h704.3V700.6H-59.6z M292.7,1101.4c-26.4,0-47.9-21.5-47.9-48s21.5-48,47.9-48
			c26.4,0,47.9,21.5,47.9,48C340.6,1079.8,319.1,1101.4,292.7,1101.4z"/>
		<g>
			<g>
				<g>
					<line class="st5" x1="-23" y1="1369.3" x2="-23.1" y2="1258.5"/>
					<g>
						<polygon class="st6" points="-1.1,1264.8 -23.1,1227 -45,1265 						"/>
					</g>
				</g>
			</g>
			<g>
				<g>
					<line class="st7" x1="-27.4" y1="1367.1" x2="88.3" y2="1367.1"/>
					<g>
						<polygon class="st6" points="81.9,1389.6 120.7,1367 81.9,1344.7 						"/>
					</g>
				</g>
			</g>
			<g>
				<path class="st6" d="M-4,1198.6h7.3l6.2,18.4l6.1-18.4h7.2l-9.3,25l-1.7,4.6c-0.6,1.5-1.2,2.6-1.8,3.5c-0.6,0.8-1.2,1.5-1.9,1.9
					c-0.7,0.4-1.5,0.8-2.6,1.1c-1.1,0.3-2.2,0.4-3.5,0.4c-1.4,0-2.6-0.1-3.9-0.4l-0.6-5.4c1.1,0.3,2.1,0.3,2.9,0.3
					c1.7,0,2.8-0.4,3.6-1.4c0.8-1,1.4-2.1,1.8-3.6L-4,1198.6z"/>
			</g>
			<g>
				<path class="st6" d="M106.1,1332.5l9.4-13.3l-9-12.6h8.4l4.6,7.2l4.8-7.2h8.1l-8.8,12.2l9.7,13.6h-8.4l-5.2-8l-5.4,8
					L106.1,1332.5L106.1,1332.5L106.1,1332.5z"/>
			</g>
		</g>
	</g>
	<rect x="-39.5" y="721.6" class="st8" width="231.1" height="94.9"/>
	<text transform="matrix(1 0 0 1 -39.4906 755.2137)" class="st6 st9 st10">BYP2</text>
</g>
</svg>
