<?xml version="1.0" encoding="utf-8"?>
<!-- Generator: Adobe Illustrator 19.1.1, SVG Export Plug-In . SVG Version: 6.00 Build 0)  -->
<svg version="1.1" xmlns="http://www.w3.org/2000/svg" xmlns:xlink="http://www.w3.org/1999/xlink" x="0px" y="0px"
	 viewBox="-415 -277.8 1024 1024" style="enable-background:new -415 -277.8 1024 1024;" xml:space="preserve">
<style type="text/css">
	.st0{display:none;}
	.st1{display:inline;fill:#8596A0;}
	.st2{fill:#0A3782;stroke:#FFFFFF;stroke-width:10.2865;stroke-miterlimit:10;}
	.st3{fill:none;stroke:#FFFFFF;stroke-width:5;stroke-miterlimit:10;}
	.st4{fill:#FFFFFF;}
	.st5{fill:none;stroke:#FFFFFF;stroke-width:4.4085;stroke-miterlimit:10;}
	.st6{fill:none;stroke:#FFFFFF;stroke-width:5.878;stroke-miterlimit:10;}
</style>
<g id="Layer_2" class="st0">
	<rect x="-415" y="-277.8" class="st1" width="1024" height="1024"/>
</g>
<g id="Layer_1">
	<path class="st2" d="M-148.6-272.5v752.4h752.4v-752.4H-148.6z M227.7,155.6c-28.2,0-51.1-22.9-51.1-51.3S199.5,53,227.7,53
		c28.2,0,51.1,22.9,51.1,51.3C278.8,132.5,255.9,155.6,227.7,155.6z"/>
	<line class="st3" x1="226.6" y1="602.5" x2="226.6" y2="155.4"/>
	<line class="st3" x1="-151.2" y1="704.8" x2="-151.2" y2="485.1"/>
	<g>
		<g>
			<line class="st3" x1="-134.6" y1="582.9" x2="-33" y2="582.9"/>
			<g>
				<polygon class="st4" points="-131.7,592.9 -148.9,582.9 -131.7,572.9 				"/>
			</g>
		</g>
	</g>
	<g>
		<g>
			<line class="st3" x1="210" y1="582.9" x2="108.4" y2="582.9"/>
			<g>
				<polygon class="st4" points="207,572.9 224.3,582.9 207,592.9 				"/>
			</g>
		</g>
	</g>
	<g>
		<path class="st4" d="M-16.5,592.4l-3.4-5l-3.5,5c-0.5,0.7-0.9,1.2-1.3,1.5c-0.4,0.3-0.8,0.4-1.3,0.4c-0.6,0-1.1-0.2-1.5-0.6
			c-0.4-0.4-0.6-0.8-0.6-1.3c0-0.5,0.3-1.2,1-2.1l4.3-6.1l-3.8-5.1c-0.7-0.8-1-1.6-1-2.2c0-0.5,0.2-0.9,0.6-1.3
			c0.4-0.4,0.9-0.5,1.5-0.5c0.6,0,1,0.2,1.4,0.5c0.4,0.3,0.8,0.8,1.3,1.5l3,4.2l3-4.2c0.5-0.7,0.9-1.2,1.3-1.5
			c0.4-0.3,0.8-0.4,1.4-0.4c0.6,0,1.1,0.2,1.5,0.5s0.6,0.8,0.6,1.3c0,0.4-0.1,0.7-0.2,1c-0.2,0.3-0.4,0.7-0.8,1.2l-3.8,5.1l4.3,6.1
			c0.7,1,1,1.7,1,2.2c0,0.5-0.2,0.9-0.6,1.3s-0.9,0.5-1.5,0.5c-0.5,0-1-0.2-1.4-0.5C-15.6,593.5-16.1,593-16.5,592.4z"/>
		<path class="st4" d="M-2.2,586.8h-5.4c-0.8,0-1.5-0.2-1.9-0.6c-0.4-0.4-0.6-0.9-0.6-1.5c0-0.6,0.2-1.1,0.6-1.5
			c0.4-0.4,1.1-0.6,1.9-0.6h5.4c0.8,0,1.5,0.2,1.9,0.6c0.4,0.4,0.6,0.9,0.6,1.5c0,0.6-0.2,1.1-0.6,1.5S-1.3,586.8-2.2,586.8z"/>
		<path class="st4" d="M21,584.8c0,1.4-0.2,2.7-0.7,3.9c-0.4,1.2-1.1,2.2-1.9,3c-0.8,0.8-1.8,1.5-3,2c-1.1,0.5-2.4,0.7-3.9,0.7
			c-1.4,0-2.7-0.2-3.8-0.7c-1.1-0.5-2.1-1.1-3-2s-1.5-1.9-1.9-3s-0.6-2.5-0.6-3.9c0-1.4,0.2-2.7,0.7-3.9s1.1-2.2,1.9-3
			s1.8-1.5,3-1.9c1.2-0.5,2.4-0.7,3.8-0.7c1.4,0,2.7,0.2,3.9,0.7c1.2,0.5,2.2,1.1,3,2c0.8,0.8,1.5,1.9,1.9,3
			C20.8,582.1,21,583.3,21,584.8z M16.3,584.8c0-1.9-0.4-3.4-1.3-4.5c-0.8-1.1-2-1.6-3.4-1.6c-0.9,0-1.7,0.2-2.4,0.7
			c-0.7,0.5-1.2,1.2-1.6,2.1s-0.6,2-0.6,3.3c0,1.2,0.2,2.3,0.6,3.2c0.4,0.9,0.9,1.6,1.6,2.1c0.7,0.5,1.5,0.7,2.5,0.7
			c1.4,0,2.6-0.5,3.4-1.6C15.8,588.1,16.3,586.6,16.3,584.8z"/>
		<path class="st4" d="M24.3,575.6h1.1v-1.4c0-1.5,0.2-2.6,0.6-3.5c0.4-0.9,1-1.5,1.9-1.9s2.1-0.6,3.7-0.6c2.7,0,4.1,0.7,4.1,2
			c0,0.4-0.1,0.8-0.4,1.1c-0.3,0.3-0.6,0.5-1,0.5c-0.2,0-0.5,0-0.9-0.1c-0.4-0.1-0.8-0.1-1.1-0.1c-0.8,0-1.4,0.2-1.6,0.7
			s-0.4,1.2-0.4,2.1v1.1h1.2c1.8,0,2.7,0.5,2.7,1.6c0,0.8-0.2,1.3-0.7,1.5s-1.1,0.3-2,0.3h-1.2v12.5c0,0.9-0.2,1.6-0.7,2.1
			s-1,0.7-1.7,0.7c-0.7,0-1.2-0.2-1.7-0.7s-0.7-1.2-0.7-2.1V579h-1.3c-0.7,0-1.2-0.2-1.6-0.5c-0.4-0.3-0.6-0.7-0.6-1.2
			C22,576.2,22.7,575.6,24.3,575.6z"/>
		<path class="st4" d="M37.4,575.6h1.1v-1.4c0-1.5,0.2-2.6,0.6-3.5c0.4-0.9,1-1.5,1.9-1.9s2.1-0.6,3.7-0.6c2.7,0,4.1,0.7,4.1,2
			c0,0.4-0.1,0.8-0.4,1.1c-0.3,0.3-0.6,0.5-1,0.5c-0.2,0-0.5,0-0.9-0.1c-0.4-0.1-0.8-0.1-1.1-0.1c-0.8,0-1.4,0.2-1.6,0.7
			s-0.4,1.2-0.4,2.1v1.1h1.2c1.8,0,2.7,0.5,2.7,1.6c0,0.8-0.2,1.3-0.7,1.5s-1.1,0.3-2,0.3h-1.2v12.5c0,0.9-0.2,1.6-0.7,2.1
			c-0.4,0.5-1,0.7-1.7,0.7c-0.7,0-1.2-0.2-1.7-0.7c-0.4-0.5-0.7-1.2-0.7-2.1V579h-1.3c-0.7,0-1.2-0.2-1.6-0.5
			c-0.4-0.3-0.6-0.7-0.6-1.2C35,576.2,35.8,575.6,37.4,575.6z"/>
		<path class="st4" d="M64.6,588.2c0,1.3-0.3,2.4-0.9,3.3c-0.6,0.9-1.6,1.6-2.8,2.1c-1.2,0.5-2.7,0.7-4.5,0.7
			c-1.7,0-3.1-0.3-4.3-0.8s-2.1-1.2-2.7-1.9c-0.6-0.8-0.9-1.6-0.9-2.3c0-0.5,0.2-1,0.6-1.3c0.4-0.4,0.8-0.6,1.4-0.6
			c0.5,0,0.9,0.1,1.1,0.4s0.5,0.6,0.8,1c0.5,0.8,1.1,1.5,1.7,1.9c0.7,0.4,1.6,0.6,2.7,0.6c0.9,0,1.7-0.2,2.3-0.6
			c0.6-0.4,0.9-0.9,0.9-1.4c0-0.8-0.3-1.4-0.9-1.8s-1.7-0.7-3.1-1.1c-1.6-0.4-2.9-0.8-4-1.3c-1-0.4-1.8-1-2.4-1.7
			c-0.6-0.7-0.9-1.6-0.9-2.7c0-0.9,0.3-1.8,0.8-2.7c0.6-0.8,1.4-1.5,2.5-2c1.1-0.5,2.4-0.7,4-0.7c1.2,0,2.3,0.1,3.3,0.4
			c1,0.3,1.8,0.6,2.4,1c0.6,0.4,1.1,0.9,1.5,1.4s0.5,1,0.5,1.5c0,0.5-0.2,1-0.5,1.3s-0.9,0.5-1.5,0.5c-0.5,0-0.9-0.1-1.2-0.4
			c-0.3-0.3-0.7-0.7-1.2-1.2c-0.4-0.5-0.8-0.8-1.3-1.1s-1.1-0.4-2-0.4c-0.8,0-1.6,0.2-2.1,0.5c-0.6,0.4-0.8,0.8-0.8,1.4
			c0,0.5,0.2,0.9,0.6,1.2c0.4,0.3,1,0.6,1.7,0.8c0.7,0.2,1.7,0.5,2.9,0.8c1.5,0.4,2.6,0.8,3.6,1.3c0.9,0.5,1.6,1.1,2.1,1.7
			C64.4,586.5,64.6,587.3,64.6,588.2z"/>
		<path class="st4" d="M81.7,585.9h-9.2c0,1.1,0.2,2,0.6,2.8s1,1.4,1.7,1.8c0.7,0.4,1.5,0.6,2.3,0.6c0.6,0,1.1-0.1,1.5-0.2
			c0.5-0.1,0.9-0.3,1.4-0.6c0.4-0.3,0.8-0.6,1.2-0.9c0.4-0.3,0.8-0.8,1.4-1.3c0.2-0.2,0.6-0.3,1-0.3c0.5,0,0.9,0.1,1.2,0.4
			s0.4,0.6,0.4,1.1c0,0.4-0.2,0.9-0.5,1.5c-0.3,0.6-0.8,1.1-1.5,1.6c-0.7,0.5-1.5,1-2.5,1.3c-1,0.3-2.2,0.5-3.5,0.5
			c-3,0-5.4-0.9-7-2.6s-2.5-4.1-2.5-7c0-1.4,0.2-2.7,0.6-3.9c0.4-1.2,1-2.2,1.8-3.1c0.8-0.8,1.8-1.5,2.9-2s2.4-0.7,3.9-0.7
			c1.8,0,3.4,0.4,4.7,1.2c1.3,0.8,2.3,1.8,3,3c0.7,1.2,1,2.5,1,3.8c0,1.2-0.3,1.9-1,2.3C83.9,585.7,83,585.9,81.7,585.9z
			 M72.5,583.2h8.5c-0.1-1.6-0.5-2.8-1.3-3.6c-0.8-0.8-1.7-1.2-3-1.2c-1.2,0-2.1,0.4-2.9,1.2C73.1,580.5,72.7,581.7,72.5,583.2z"/>
		<path class="st4" d="M89.8,575.6h0.5v-2.8c0-0.8,0-1.4,0.1-1.8c0-0.4,0.2-0.8,0.3-1.1c0.2-0.3,0.4-0.6,0.8-0.8
			c0.3-0.2,0.7-0.3,1.2-0.3c0.6,0,1.1,0.2,1.6,0.7c0.3,0.3,0.5,0.7,0.6,1.1c0.1,0.4,0.1,1,0.1,1.8v3.2h1.7c0.7,0,1.2,0.2,1.5,0.5
			c0.4,0.3,0.5,0.7,0.5,1.2c0,0.6-0.2,1.1-0.7,1.3s-1.2,0.4-2.1,0.4H95v8.6c0,0.7,0,1.3,0.1,1.7c0.1,0.4,0.2,0.7,0.4,1
			s0.6,0.4,1.1,0.4c0.3,0,0.6,0,1.1-0.1s0.8-0.1,1.1-0.1c0.4,0,0.7,0.2,1,0.5c0.3,0.3,0.5,0.7,0.5,1.1c0,0.8-0.4,1.3-1.2,1.7
			c-0.8,0.4-2,0.6-3.6,0.6c-1.5,0-2.6-0.2-3.3-0.7s-1.3-1.2-1.5-2c-0.2-0.9-0.4-2-0.4-3.5v-9h-0.6c-0.7,0-1.2-0.2-1.5-0.5
			c-0.4-0.3-0.5-0.7-0.5-1.2s0.2-0.9,0.6-1.2C88.6,575.8,89.1,575.6,89.8,575.6z"/>
	</g>
	<line class="st3" x1="-153.7" y1="-275.1" x2="-374" y2="-275.1"/>
	<line class="st3" x1="175.5" y1="104.4" x2="-260.2" y2="104.4"/>
	<g>
		<g>
			<line class="st3" x1="-227.7" y1="87.8" x2="-227.7" y2="-57.1"/>
			<g>
				<polygon class="st4" points="-217.7,84.9 -227.7,102.1 -237.7,84.9 				"/>
			</g>
		</g>
	</g>
	<g>
		<g>
			<line class="st3" x1="-227.7" y1="-258.1" x2="-227.7" y2="-105.5"/>
			<g>
				<polygon class="st4" points="-237.7,-255.2 -227.7,-272.5 -217.7,-255.2 				"/>
			</g>
		</g>
	</g>
	<g>
		<path class="st4" d="M-285.7-66.4l0.4-1.1L-291-82c-0.4-0.8-0.5-1.4-0.5-1.8c0-0.4,0.1-0.8,0.3-1.1c0.2-0.3,0.5-0.6,0.9-0.8
			s0.7-0.3,1.1-0.3c0.7,0,1.2,0.2,1.5,0.6c0.3,0.4,0.6,1,0.9,1.9l4,11.6l3.8-10.8c0.3-0.9,0.6-1.6,0.8-2c0.2-0.5,0.5-0.8,0.8-1
			c0.3-0.2,0.7-0.3,1.1-0.3c0.4,0,0.7,0.1,1,0.3c0.3,0.2,0.6,0.4,0.8,0.8s0.3,0.7,0.3,1c0,0.2-0.1,0.5-0.2,0.9s-0.2,0.8-0.4,1.2
			l-6.1,16c-0.5,1.4-1,2.5-1.5,3.3c-0.5,0.8-1.2,1.4-2,1.9c-0.8,0.4-2,0.6-3.4,0.6c-1.4,0-2.4-0.1-3.1-0.4c-0.7-0.3-1-0.8-1-1.6
			c0-0.5,0.2-1,0.5-1.2s0.8-0.4,1.5-0.4c0.3,0,0.5,0,0.7,0.1c0.3,0.1,0.6,0.1,0.8,0.1c0.5,0,1-0.1,1.3-0.2c0.3-0.2,0.6-0.4,0.8-0.8
			C-286.3-65-286-65.6-285.7-66.4z"/>
		<path class="st4" d="M-264.7-74.5h-5.4c-0.8,0-1.5-0.2-1.9-0.6c-0.4-0.4-0.6-0.9-0.6-1.5c0-0.6,0.2-1.1,0.6-1.5
			c0.4-0.4,1.1-0.6,1.9-0.6h5.4c0.8,0,1.5,0.2,1.9,0.6c0.4,0.4,0.6,0.9,0.6,1.5c0,0.6-0.2,1.1-0.6,1.5
			C-263.2-74.7-263.9-74.5-264.7-74.5z"/>
		<path class="st4" d="M-241.6-76.5c0,1.4-0.2,2.7-0.7,3.9c-0.4,1.2-1.1,2.2-1.9,3c-0.8,0.8-1.8,1.5-3,2c-1.1,0.5-2.4,0.7-3.9,0.7
			c-1.4,0-2.7-0.2-3.8-0.7c-1.1-0.5-2.1-1.1-3-2c-0.8-0.9-1.5-1.9-1.9-3c-0.4-1.2-0.6-2.5-0.6-3.9c0-1.4,0.2-2.7,0.7-3.9
			c0.4-1.2,1.1-2.2,1.9-3c0.8-0.8,1.8-1.5,3-1.9c1.2-0.5,2.4-0.7,3.8-0.7c1.4,0,2.7,0.2,3.9,0.7c1.2,0.5,2.2,1.1,3,2
			c0.8,0.8,1.5,1.9,1.9,3S-241.6-77.9-241.6-76.5z M-246.3-76.5c0-1.9-0.4-3.4-1.3-4.5s-2-1.6-3.4-1.6c-0.9,0-1.7,0.2-2.4,0.7
			c-0.7,0.5-1.2,1.2-1.6,2.1c-0.4,0.9-0.6,2-0.6,3.3c0,1.2,0.2,2.3,0.6,3.2c0.4,0.9,0.9,1.6,1.6,2.1c0.7,0.5,1.5,0.7,2.5,0.7
			c1.4,0,2.6-0.5,3.4-1.6S-246.3-74.6-246.3-76.5z"/>
		<path class="st4" d="M-238.2-85.7h1.1v-1.4c0-1.5,0.2-2.6,0.6-3.5c0.4-0.9,1-1.5,1.9-1.9c0.9-0.4,2.1-0.6,3.7-0.6
			c2.7,0,4.1,0.7,4.1,2c0,0.4-0.1,0.8-0.4,1.1c-0.3,0.3-0.6,0.5-1,0.5c-0.2,0-0.5,0-0.9-0.1c-0.4-0.1-0.8-0.1-1.1-0.1
			c-0.8,0-1.4,0.2-1.6,0.7s-0.4,1.2-0.4,2.1v1.1h1.2c1.8,0,2.7,0.5,2.7,1.6c0,0.8-0.2,1.3-0.7,1.5s-1.1,0.3-2,0.3h-1.2v12.5
			c0,0.9-0.2,1.6-0.7,2.1c-0.4,0.5-1,0.7-1.7,0.7c-0.7,0-1.2-0.2-1.7-0.7c-0.4-0.5-0.7-1.2-0.7-2.1v-12.5h-1.3
			c-0.7,0-1.2-0.2-1.6-0.5c-0.4-0.3-0.6-0.7-0.6-1.2C-240.6-85.1-239.8-85.7-238.2-85.7z"/>
		<path class="st4" d="M-225.2-85.7h1.1v-1.4c0-1.5,0.2-2.6,0.6-3.5c0.4-0.9,1-1.5,1.9-1.9c0.9-0.4,2.1-0.6,3.7-0.6
			c2.7,0,4.1,0.7,4.1,2c0,0.4-0.1,0.8-0.4,1.1c-0.3,0.3-0.6,0.5-1,0.5c-0.2,0-0.5,0-0.9-0.1c-0.4-0.1-0.8-0.1-1.1-0.1
			c-0.8,0-1.4,0.2-1.6,0.7s-0.4,1.2-0.4,2.1v1.1h1.2c1.8,0,2.7,0.5,2.7,1.6c0,0.8-0.2,1.3-0.7,1.5s-1.1,0.3-2,0.3h-1.2v12.5
			c0,0.9-0.2,1.6-0.7,2.1s-1,0.7-1.7,0.7c-0.7,0-1.2-0.2-1.7-0.7c-0.4-0.5-0.7-1.2-0.7-2.1v-12.5h-1.3c-0.7,0-1.2-0.2-1.6-0.5
			c-0.4-0.3-0.6-0.7-0.6-1.2C-227.5-85.1-226.8-85.7-225.2-85.7z"/>
		<path class="st4" d="M-197.9-73.1c0,1.3-0.3,2.4-0.9,3.3c-0.6,0.9-1.6,1.6-2.8,2.1c-1.2,0.5-2.7,0.7-4.5,0.7
			c-1.7,0-3.1-0.3-4.3-0.8c-1.2-0.5-2.1-1.2-2.7-1.9c-0.6-0.8-0.9-1.6-0.9-2.3c0-0.5,0.2-1,0.6-1.3c0.4-0.4,0.8-0.6,1.4-0.6
			c0.5,0,0.9,0.1,1.1,0.4c0.3,0.2,0.5,0.6,0.8,1c0.5,0.8,1.1,1.5,1.7,1.9c0.7,0.4,1.6,0.6,2.7,0.6c0.9,0,1.7-0.2,2.3-0.6
			s0.9-0.9,0.9-1.4c0-0.8-0.3-1.4-0.9-1.8s-1.7-0.7-3.1-1.1c-1.6-0.4-2.9-0.8-4-1.3c-1-0.4-1.8-1-2.4-1.7c-0.6-0.7-0.9-1.6-0.9-2.7
			c0-0.9,0.3-1.8,0.8-2.7c0.6-0.8,1.4-1.5,2.5-2c1.1-0.5,2.4-0.7,4-0.7c1.2,0,2.3,0.1,3.3,0.4c1,0.3,1.8,0.6,2.4,1
			c0.6,0.4,1.1,0.9,1.5,1.4c0.3,0.5,0.5,1,0.5,1.5c0,0.5-0.2,1-0.5,1.3s-0.9,0.5-1.5,0.5c-0.5,0-0.9-0.1-1.2-0.4
			c-0.3-0.3-0.7-0.7-1.2-1.2c-0.4-0.5-0.8-0.8-1.3-1.1c-0.5-0.3-1.1-0.4-2-0.4c-0.8,0-1.6,0.2-2.1,0.5c-0.6,0.4-0.8,0.8-0.8,1.4
			c0,0.5,0.2,0.9,0.6,1.2c0.4,0.3,1,0.6,1.7,0.8s1.7,0.5,2.9,0.8c1.5,0.4,2.6,0.8,3.6,1.3c0.9,0.5,1.6,1.1,2.1,1.7
			C-198.2-74.7-197.9-74-197.9-73.1z"/>
		<path class="st4" d="M-180.8-75.4h-9.2c0,1.1,0.2,2,0.6,2.8s1,1.4,1.7,1.8c0.7,0.4,1.5,0.6,2.3,0.6c0.6,0,1.1-0.1,1.5-0.2
			s0.9-0.3,1.4-0.6c0.4-0.3,0.8-0.6,1.2-0.9c0.4-0.3,0.8-0.8,1.4-1.3c0.2-0.2,0.6-0.3,1-0.3c0.5,0,0.9,0.1,1.2,0.4
			c0.3,0.3,0.4,0.6,0.4,1.1c0,0.4-0.2,0.9-0.5,1.5c-0.3,0.6-0.8,1.1-1.5,1.6c-0.7,0.5-1.5,1-2.5,1.3c-1,0.3-2.2,0.5-3.5,0.5
			c-3,0-5.4-0.9-7-2.6c-1.7-1.7-2.5-4.1-2.5-7c0-1.4,0.2-2.7,0.6-3.9c0.4-1.2,1-2.2,1.8-3.1c0.8-0.8,1.8-1.5,2.9-2
			c1.2-0.5,2.4-0.7,3.9-0.7c1.8,0,3.4,0.4,4.7,1.2c1.3,0.8,2.3,1.8,3,3c0.7,1.2,1,2.5,1,3.8c0,1.2-0.3,1.9-1,2.3
			C-178.6-75.5-179.6-75.4-180.8-75.4z M-190-78h8.5c-0.1-1.6-0.5-2.8-1.3-3.6s-1.7-1.2-3-1.2c-1.2,0-2.1,0.4-2.9,1.2
			C-189.4-80.8-189.9-79.6-190-78z"/>
		<path class="st4" d="M-172.7-85.7h0.5v-2.8c0-0.8,0-1.4,0.1-1.8c0-0.4,0.2-0.8,0.3-1.1c0.2-0.3,0.4-0.6,0.8-0.8
			c0.3-0.2,0.7-0.3,1.2-0.3c0.6,0,1.1,0.2,1.6,0.7c0.3,0.3,0.5,0.7,0.6,1.1c0.1,0.4,0.1,1,0.1,1.8v3.2h1.7c0.7,0,1.2,0.2,1.5,0.5
			c0.4,0.3,0.5,0.7,0.5,1.2c0,0.6-0.2,1.1-0.7,1.3c-0.5,0.3-1.2,0.4-2.1,0.4h-0.9v8.6c0,0.7,0,1.3,0.1,1.7c0.1,0.4,0.2,0.7,0.4,1
			c0.2,0.2,0.6,0.4,1.1,0.4c0.3,0,0.6,0,1.1-0.1c0.5-0.1,0.8-0.1,1.1-0.1c0.4,0,0.7,0.2,1,0.5c0.3,0.3,0.5,0.7,0.5,1.1
			c0,0.8-0.4,1.3-1.2,1.7c-0.8,0.4-2,0.6-3.6,0.6c-1.5,0-2.6-0.2-3.3-0.7c-0.8-0.5-1.3-1.2-1.5-2s-0.4-2-0.4-3.5v-9h-0.6
			c-0.7,0-1.2-0.2-1.5-0.5c-0.4-0.3-0.5-0.7-0.5-1.2c0-0.5,0.2-0.9,0.6-1.2S-173.4-85.7-172.7-85.7z"/>
	</g>
	<line class="st3" x1="-153.6" y1="482.7" x2="-373.9" y2="482.7"/>
	<line class="st5" x1="606.7" y1="704.4" x2="606.7" y2="484.7"/>
	<g>
		<g>
			<line class="st3" x1="-134.6" y1="679.4" x2="164.4" y2="679.4"/>
			<g>
				<polygon class="st4" points="-131.7,689.4 -148.9,679.4 -131.7,669.4 				"/>
			</g>
		</g>
	</g>
	<g>
		<g>
			<line class="st3" x1="590.2" y1="679.4" x2="287.8" y2="679.4"/>
			<g>
				<polygon class="st4" points="587.2,669.4 604.5,679.4 587.2,689.4 				"/>
			</g>
		</g>
	</g>
	<g>
		<path class="st4" d="M190.1,655.2v0.6c0.9-1.1,1.8-1.9,2.8-2.4c1-0.5,2-0.8,3.2-0.8c1.4,0,2.8,0.4,4,1.1c1.2,0.7,2.2,1.8,2.9,3.3
			c0.7,1.4,1.1,3.1,1.1,5.1c0,1.4-0.2,2.8-0.6,4c-0.4,1.2-1,2.2-1.7,3s-1.6,1.5-2.5,1.9c-1,0.4-2,0.7-3.1,0.7
			c-1.3,0-2.5-0.3-3.4-0.8c-0.9-0.5-1.8-1.3-2.6-2.4v7.1c0,2.1-0.8,3.1-2.3,3.1c-0.9,0-1.5-0.3-1.8-0.8c-0.3-0.5-0.4-1.3-0.4-2.3
			v-20.3c0-0.9,0.2-1.6,0.6-2c0.4-0.4,0.9-0.7,1.6-0.7c0.7,0,1.2,0.2,1.6,0.7C189.9,653.7,190.1,654.4,190.1,655.2z M199.3,662.1
			c0-1.2-0.2-2.3-0.6-3.2c-0.4-0.9-0.9-1.6-1.6-2c-0.7-0.5-1.4-0.7-2.2-0.7c-1.3,0-2.4,0.5-3.3,1.5c-0.9,1-1.3,2.5-1.3,4.5
			c0,1.9,0.4,3.3,1.3,4.4c0.9,1,2,1.6,3.3,1.6c0.8,0,1.5-0.2,2.2-0.7c0.7-0.5,1.2-1.1,1.6-2C199.1,664.4,199.3,663.3,199.3,662.1z"
			/>
		<path class="st4" d="M207.8,668.8v-20.4c0-0.9,0.2-1.7,0.6-2.1s1-0.7,1.7-0.7s1.3,0.2,1.7,0.7c0.4,0.5,0.7,1.2,0.7,2.1v20.4
			c0,1-0.2,1.7-0.7,2.1c-0.4,0.5-1,0.7-1.7,0.7c-0.7,0-1.2-0.2-1.7-0.7C208,670.5,207.8,669.8,207.8,668.8z"/>
		<path class="st4" d="M229.3,669.1c-1.1,0.9-2.2,1.5-3.3,2c-1.1,0.4-2.3,0.7-3.6,0.7c-1.2,0-2.3-0.2-3.2-0.7
			c-0.9-0.5-1.6-1.1-2.1-1.9c-0.5-0.8-0.7-1.7-0.7-2.7c0-1.3,0.4-2.4,1.2-3.3s1.9-1.5,3.4-1.8c0.3-0.1,1-0.2,2.2-0.5
			c1.2-0.2,2.2-0.5,3-0.7c0.8-0.2,1.8-0.4,2.7-0.7c-0.1-1.2-0.3-2.1-0.7-2.7c-0.4-0.6-1.4-0.9-2.7-0.9c-1.2,0-2.1,0.2-2.7,0.5
			s-1.1,0.8-1.5,1.5c-0.4,0.7-0.7,1.1-0.9,1.3c-0.2,0.2-0.6,0.3-1.1,0.3c-0.5,0-1-0.2-1.4-0.5c-0.4-0.3-0.6-0.8-0.6-1.3
			c0-0.8,0.3-1.6,0.9-2.4c0.6-0.8,1.5-1.4,2.7-1.9s2.8-0.8,4.6-0.8c2.1,0,3.7,0.2,4.9,0.7s2,1.3,2.5,2.3s0.7,2.5,0.7,4.2
			c0,1.1,0,2,0,2.8s0,1.6,0,2.6c0,0.9,0.1,1.8,0.4,2.8s0.4,1.6,0.4,1.9c0,0.5-0.2,0.9-0.7,1.3c-0.5,0.4-1,0.6-1.5,0.6
			c-0.5,0-1-0.2-1.4-0.7C230.3,670.6,229.8,669.9,229.3,669.1z M229,662.3c-0.7,0.3-1.7,0.5-3,0.8c-1.3,0.3-2.2,0.5-2.7,0.6
			c-0.5,0.1-1,0.4-1.4,0.8c-0.5,0.4-0.7,0.9-0.7,1.6c0,0.7,0.3,1.3,0.8,1.8c0.5,0.5,1.2,0.7,2.1,0.7c0.9,0,1.8-0.2,2.6-0.6
			c0.8-0.4,1.4-0.9,1.7-1.6c0.4-0.7,0.6-1.9,0.6-3.5V662.3z"/>
		<path class="st4" d="M237.7,653h0.5v-2.8c0-0.8,0-1.4,0.1-1.8s0.2-0.8,0.3-1.1c0.2-0.3,0.4-0.6,0.8-0.8c0.3-0.2,0.7-0.3,1.2-0.3
			c0.6,0,1.1,0.2,1.6,0.7c0.3,0.3,0.5,0.7,0.6,1.1c0.1,0.4,0.1,1,0.1,1.8v3.2h1.7c0.7,0,1.2,0.2,1.5,0.5c0.4,0.3,0.5,0.7,0.5,1.2
			c0,0.6-0.2,1.1-0.7,1.3c-0.5,0.3-1.2,0.4-2.1,0.4h-0.9v8.6c0,0.7,0,1.3,0.1,1.7c0.1,0.4,0.2,0.7,0.4,1c0.2,0.2,0.6,0.4,1.1,0.4
			c0.3,0,0.6,0,1.1-0.1c0.5-0.1,0.8-0.1,1.1-0.1c0.4,0,0.7,0.2,1,0.5c0.3,0.3,0.5,0.7,0.5,1.1c0,0.8-0.4,1.3-1.2,1.7
			c-0.8,0.4-2,0.6-3.6,0.6c-1.5,0-2.6-0.2-3.3-0.7s-1.3-1.2-1.5-2s-0.4-2-0.4-3.5v-9h-0.6c-0.7,0-1.2-0.2-1.5-0.5
			c-0.4-0.3-0.5-0.7-0.5-1.2s0.2-0.9,0.6-1.2C236.5,653.2,237,653,237.7,653z"/>
		<path class="st4" d="M263.1,663.3h-9.2c0,1.1,0.2,2,0.6,2.8s1,1.4,1.7,1.8c0.7,0.4,1.5,0.6,2.3,0.6c0.6,0,1.1-0.1,1.5-0.2
			c0.5-0.1,0.9-0.3,1.4-0.6c0.4-0.3,0.8-0.6,1.2-0.9s0.8-0.8,1.4-1.3c0.2-0.2,0.6-0.3,1-0.3c0.5,0,0.9,0.1,1.2,0.4s0.4,0.6,0.4,1.1
			c0,0.4-0.2,0.9-0.5,1.5c-0.3,0.6-0.8,1.1-1.5,1.6c-0.7,0.5-1.5,1-2.5,1.3s-2.2,0.5-3.5,0.5c-3,0-5.4-0.9-7-2.6
			c-1.7-1.7-2.5-4.1-2.5-7c0-1.4,0.2-2.7,0.6-3.9c0.4-1.2,1-2.2,1.8-3.1c0.8-0.8,1.8-1.5,2.9-2c1.2-0.5,2.4-0.7,3.9-0.7
			c1.8,0,3.4,0.4,4.7,1.2c1.3,0.8,2.3,1.8,3,3c0.7,1.2,1,2.5,1,3.8c0,1.2-0.3,1.9-1,2.3S264.3,663.3,263.1,663.3z M253.9,660.6h8.5
			c-0.1-1.6-0.5-2.8-1.3-3.6c-0.8-0.8-1.7-1.2-3-1.2c-1.2,0-2.1,0.4-2.9,1.2C254.5,657.9,254,659,253.9,660.6z"/>
		<path class="st4" d="M184.2,690.8l3.1,10.5l2.8-9.8c0.3-1,0.5-1.7,0.7-2.1s0.4-0.7,0.8-1.1c0.4-0.3,0.9-0.5,1.6-0.5
			c0.7,0,1.2,0.2,1.6,0.5c0.4,0.3,0.7,0.7,0.8,1.1c0.2,0.4,0.4,1.1,0.7,2.1l2.8,9.8l3.1-10.5c0.2-0.8,0.4-1.3,0.5-1.6
			s0.3-0.6,0.6-0.9c0.3-0.3,0.7-0.4,1.3-0.4c0.6,0,1.1,0.2,1.5,0.6c0.4,0.4,0.6,0.8,0.6,1.4c0,0.5-0.2,1.2-0.5,2.2l-3.8,11.3
			c-0.3,1-0.6,1.6-0.8,2.1c-0.2,0.4-0.5,0.8-0.9,1.1c-0.4,0.3-0.9,0.5-1.6,0.5c-0.7,0-1.3-0.2-1.7-0.5c-0.4-0.4-0.7-0.8-0.9-1.3
			c-0.2-0.5-0.4-1.2-0.6-2l-2.7-9.2l-2.6,9.2c-0.3,1.3-0.7,2.2-1.1,2.9c-0.4,0.6-1.1,1-2.1,1c-0.5,0-1-0.1-1.3-0.3s-0.7-0.5-0.9-0.9
			s-0.5-0.8-0.6-1.3s-0.3-0.9-0.4-1.2l-3.8-11.3c-0.4-1.1-0.6-1.8-0.6-2.2c0-0.5,0.2-1,0.6-1.4c0.4-0.4,0.9-0.6,1.5-0.6
			c0.8,0,1.3,0.2,1.6,0.7C183.6,689,183.9,689.7,184.2,690.8z"/>
		<path class="st4" d="M212.4,685.7c-0.7,0-1.2-0.2-1.7-0.6c-0.5-0.4-0.7-1-0.7-1.7c0-0.7,0.2-1.2,0.7-1.6c0.5-0.4,1-0.6,1.7-0.6
			c0.6,0,1.1,0.2,1.6,0.6c0.5,0.4,0.7,1,0.7,1.7c0,0.7-0.2,1.3-0.7,1.7C213.5,685.5,213,685.7,212.4,685.7z M214.7,690.5v13.6
			c0,0.9-0.2,1.7-0.7,2.1s-1,0.7-1.7,0.7s-1.2-0.2-1.7-0.7s-0.6-1.2-0.6-2.1v-13.4c0-0.9,0.2-1.6,0.6-2.1s1-0.7,1.7-0.7
			s1.3,0.2,1.7,0.7S214.7,689.7,214.7,690.5z"/>
		<path class="st4" d="M232.4,704.3v-0.5c-0.6,0.7-1.3,1.3-1.9,1.8c-0.6,0.5-1.3,0.8-2,1c-0.7,0.2-1.5,0.4-2.4,0.4
			c-1.1,0-2.2-0.2-3.1-0.7s-1.8-1.2-2.5-2c-0.7-0.9-1.2-1.9-1.6-3.1s-0.5-2.5-0.5-3.9c0-2.9,0.7-5.2,2.2-6.9
			c1.4-1.6,3.3-2.5,5.7-2.5c1.4,0,2.5,0.2,3.4,0.7s1.8,1.2,2.7,2.1v-6.9c0-1,0.2-1.7,0.6-2.2c0.4-0.5,0.9-0.7,1.6-0.7
			c0.7,0,1.3,0.2,1.6,0.7c0.4,0.5,0.6,1.1,0.6,2v20.7c0,0.9-0.2,1.6-0.6,2c-0.4,0.4-0.9,0.7-1.6,0.7c-0.6,0-1.2-0.2-1.6-0.7
			S232.4,705.1,232.4,704.3z M223.2,697.4c0,1.3,0.2,2.4,0.6,3.3c0.4,0.9,0.9,1.6,1.6,2c0.7,0.5,1.4,0.7,2.3,0.7
			c0.8,0,1.6-0.2,2.3-0.6c0.7-0.4,1.2-1.1,1.6-2c0.4-0.9,0.6-2,0.6-3.3c0-1.3-0.2-2.3-0.6-3.2c-0.4-0.9-1-1.6-1.7-2.1
			s-1.5-0.7-2.3-0.7c-0.9,0-1.6,0.2-2.3,0.7c-0.7,0.5-1.2,1.2-1.6,2.1C223.4,695.1,223.2,696.2,223.2,697.4z"/>
		<path class="st4" d="M241.9,688.3h0.5v-2.8c0-0.8,0-1.4,0.1-1.8c0-0.4,0.2-0.8,0.3-1.1c0.2-0.3,0.4-0.6,0.8-0.8
			c0.3-0.2,0.7-0.3,1.2-0.3c0.6,0,1.1,0.2,1.6,0.7c0.3,0.3,0.5,0.7,0.6,1.1c0.1,0.4,0.1,1,0.1,1.8v3.2h1.7c0.7,0,1.2,0.2,1.5,0.5
			c0.4,0.3,0.5,0.7,0.5,1.2c0,0.6-0.2,1.1-0.7,1.3c-0.5,0.3-1.2,0.4-2.1,0.4h-0.9v8.6c0,0.7,0,1.3,0.1,1.7c0.1,0.4,0.2,0.7,0.4,1
			s0.6,0.4,1.1,0.4c0.3,0,0.6,0,1.1-0.1c0.5-0.1,0.8-0.1,1.1-0.1c0.4,0,0.7,0.2,1,0.5c0.3,0.3,0.5,0.7,0.5,1.1
			c0,0.8-0.4,1.3-1.2,1.7c-0.8,0.4-2,0.6-3.6,0.6c-1.5,0-2.6-0.2-3.3-0.7s-1.3-1.2-1.5-2c-0.2-0.9-0.4-2-0.4-3.5v-9h-0.6
			c-0.7,0-1.2-0.2-1.5-0.5c-0.4-0.3-0.5-0.7-0.5-1.2c0-0.5,0.2-0.9,0.6-1.2C240.6,688.4,241.1,688.3,241.9,688.3z"/>
		<path class="st4" d="M258.7,683.7v7c0.6-0.7,1.2-1.2,1.7-1.6c0.6-0.4,1.2-0.7,1.9-0.9c0.7-0.2,1.4-0.3,2.2-0.3
			c1.2,0,2.3,0.3,3.2,0.8c0.9,0.5,1.7,1.2,2.2,2.2c0.3,0.6,0.6,1.2,0.7,1.9c0.1,0.7,0.2,1.5,0.2,2.4v9c0,0.9-0.2,1.7-0.6,2.1
			s-1,0.7-1.7,0.7c-1.5,0-2.3-1-2.3-2.9v-7.9c0-1.5-0.2-2.7-0.7-3.5c-0.4-0.8-1.3-1.2-2.5-1.2c-0.8,0-1.6,0.2-2.3,0.7
			s-1.2,1.1-1.5,2c-0.3,0.7-0.4,1.9-0.4,3.7v6.2c0,0.9-0.2,1.6-0.6,2.1c-0.4,0.5-1,0.7-1.7,0.7c-1.5,0-2.3-1-2.3-2.9v-20.4
			c0-1,0.2-1.7,0.6-2.1c0.4-0.5,1-0.7,1.7-0.7c0.7,0,1.3,0.2,1.7,0.7S258.7,682.8,258.7,683.7z"/>
	</g>
	<g>
		<g>
			<line class="st3" x1="-341.9" y1="465.7" x2="-341.9" y2="154.5"/>
			<g>
				<polygon class="st4" points="-331.9,462.8 -341.9,480.1 -351.9,462.8 				"/>
			</g>
		</g>
	</g>
	<g>
		<g>
			<line class="st3" x1="-341.9" y1="-258.2" x2="-341.9" y2="66.1"/>
			<g>
				<polygon class="st4" points="-351.9,-255.3 -341.9,-272.6 -331.9,-255.3 				"/>
			</g>
		</g>
	</g>
	<g>
		<path class="st4" d="M-377.7,86.8v0.6c0.9-1.1,1.8-1.9,2.8-2.4s2-0.8,3.2-0.8c1.4,0,2.8,0.4,4,1.1c1.2,0.7,2.2,1.8,2.9,3.3
			s1.1,3.1,1.1,5.1c0,1.4-0.2,2.8-0.6,4c-0.4,1.2-1,2.2-1.7,3c-0.7,0.8-1.6,1.5-2.5,1.9c-1,0.4-2,0.7-3.1,0.7
			c-1.3,0-2.5-0.3-3.4-0.8c-0.9-0.5-1.8-1.3-2.6-2.4v7.1c0,2.1-0.8,3.1-2.3,3.1c-0.9,0-1.5-0.3-1.8-0.8c-0.3-0.5-0.4-1.3-0.4-2.3
			V86.9c0-0.9,0.2-1.6,0.6-2c0.4-0.4,0.9-0.7,1.6-0.7c0.7,0,1.2,0.2,1.6,0.7S-377.7,86-377.7,86.8z M-368.5,93.7
			c0-1.2-0.2-2.3-0.6-3.2s-0.9-1.6-1.6-2c-0.7-0.5-1.4-0.7-2.2-0.7c-1.3,0-2.4,0.5-3.3,1.5c-0.9,1-1.3,2.5-1.3,4.5
			c0,1.9,0.4,3.3,1.3,4.4c0.9,1,2,1.6,3.3,1.6c0.8,0,1.5-0.2,2.2-0.7s1.2-1.1,1.6-2C-368.7,96.1-368.5,95-368.5,93.7z"/>
		<path class="st4" d="M-360,100.5V80.1c0-0.9,0.2-1.7,0.6-2.1s1-0.7,1.7-0.7c0.7,0,1.3,0.2,1.7,0.7c0.4,0.5,0.7,1.2,0.7,2.1v20.4
			c0,1-0.2,1.7-0.7,2.1c-0.4,0.5-1,0.7-1.7,0.7c-0.7,0-1.2-0.2-1.7-0.7S-360,101.4-360,100.5z"/>
		<path class="st4" d="M-338.6,100.7c-1.1,0.9-2.2,1.5-3.3,2c-1.1,0.4-2.3,0.7-3.6,0.7c-1.2,0-2.3-0.2-3.2-0.7
			c-0.9-0.5-1.6-1.1-2.1-1.9s-0.7-1.7-0.7-2.7c0-1.3,0.4-2.4,1.2-3.3c0.8-0.9,1.9-1.5,3.4-1.8c0.3-0.1,1-0.2,2.2-0.5
			c1.2-0.2,2.2-0.5,3-0.7c0.8-0.2,1.8-0.4,2.7-0.7c-0.1-1.2-0.3-2.1-0.7-2.7c-0.4-0.6-1.4-0.9-2.7-0.9c-1.2,0-2.1,0.2-2.7,0.5
			s-1.1,0.8-1.5,1.5s-0.7,1.1-0.9,1.3s-0.6,0.3-1.1,0.3c-0.5,0-1-0.2-1.4-0.5c-0.4-0.3-0.6-0.8-0.6-1.3c0-0.8,0.3-1.6,0.9-2.4
			c0.6-0.8,1.5-1.4,2.7-1.9c1.2-0.5,2.8-0.8,4.6-0.8c2.1,0,3.7,0.2,4.9,0.7s2,1.3,2.5,2.3s0.7,2.5,0.7,4.2c0,1.1,0,2,0,2.8
			c0,0.8,0,1.6,0,2.6c0,0.9,0.1,1.8,0.4,2.8c0.3,1,0.4,1.6,0.4,1.9c0,0.5-0.2,0.9-0.7,1.3c-0.5,0.4-1,0.6-1.5,0.6
			c-0.5,0-1-0.2-1.4-0.7S-338,101.5-338.6,100.7z M-338.9,93.9c-0.7,0.3-1.7,0.5-3,0.8c-1.3,0.3-2.2,0.5-2.7,0.6
			c-0.5,0.1-1,0.4-1.4,0.8c-0.5,0.4-0.7,0.9-0.7,1.6c0,0.7,0.3,1.3,0.8,1.8s1.2,0.7,2.1,0.7c0.9,0,1.8-0.2,2.6-0.6s1.4-0.9,1.7-1.6
			c0.4-0.7,0.6-1.9,0.6-3.5V93.9z"/>
		<path class="st4" d="M-330.1,84.6h0.5v-2.8c0-0.8,0-1.4,0.1-1.8c0-0.4,0.2-0.8,0.3-1.1c0.2-0.3,0.4-0.6,0.8-0.8
			c0.3-0.2,0.7-0.3,1.2-0.3c0.6,0,1.1,0.2,1.6,0.7c0.3,0.3,0.5,0.7,0.6,1.1c0.1,0.4,0.1,1,0.1,1.8v3.2h1.7c0.7,0,1.2,0.2,1.5,0.5
			s0.5,0.7,0.5,1.2c0,0.6-0.2,1.1-0.7,1.3s-1.2,0.4-2.1,0.4h-0.9v8.6c0,0.7,0,1.3,0.1,1.7s0.2,0.7,0.4,1c0.2,0.2,0.6,0.4,1.1,0.4
			c0.3,0,0.6,0,1.1-0.1c0.5-0.1,0.8-0.1,1.1-0.1c0.4,0,0.7,0.2,1,0.5s0.5,0.7,0.5,1.1c0,0.8-0.4,1.3-1.2,1.7c-0.8,0.4-2,0.6-3.6,0.6
			c-1.5,0-2.6-0.2-3.3-0.7c-0.8-0.5-1.3-1.2-1.5-2s-0.4-2-0.4-3.5v-9h-0.6c-0.7,0-1.2-0.2-1.5-0.5s-0.5-0.7-0.5-1.2s0.2-0.9,0.6-1.2
			C-331.4,84.8-330.8,84.6-330.1,84.6z"/>
		<path class="st4" d="M-304.7,94.9h-9.2c0,1.1,0.2,2,0.6,2.8s1,1.4,1.7,1.8c0.7,0.4,1.5,0.6,2.3,0.6c0.6,0,1.1-0.1,1.5-0.2
			c0.5-0.1,0.9-0.3,1.4-0.6c0.4-0.3,0.8-0.6,1.2-0.9c0.4-0.3,0.8-0.8,1.4-1.3c0.2-0.2,0.6-0.3,1-0.3c0.5,0,0.9,0.1,1.2,0.4
			c0.3,0.3,0.4,0.6,0.4,1.1c0,0.4-0.2,0.9-0.5,1.5c-0.3,0.6-0.8,1.1-1.5,1.6c-0.7,0.5-1.5,1-2.5,1.3s-2.2,0.5-3.5,0.5
			c-3,0-5.4-0.9-7-2.6c-1.7-1.7-2.5-4.1-2.5-7c0-1.4,0.2-2.7,0.6-3.9s1-2.2,1.8-3.1c0.8-0.8,1.8-1.5,2.9-2c1.2-0.5,2.4-0.7,3.9-0.7
			c1.8,0,3.4,0.4,4.7,1.2c1.3,0.8,2.3,1.8,3,3c0.7,1.2,1,2.5,1,3.8c0,1.2-0.3,1.9-1,2.3S-303.5,94.9-304.7,94.9z M-313.9,92.2h8.5
			c-0.1-1.6-0.5-2.8-1.3-3.6s-1.7-1.2-3-1.2c-1.2,0-2.1,0.4-2.9,1.2C-313.3,89.5-313.8,90.7-313.9,92.2z"/>
		<path class="st4" d="M-388.7,115.3v7c0.6-0.7,1.2-1.2,1.7-1.6c0.6-0.4,1.2-0.7,1.9-0.9c0.7-0.2,1.4-0.3,2.2-0.3
			c1.2,0,2.3,0.3,3.2,0.8c0.9,0.5,1.7,1.2,2.2,2.2c0.3,0.6,0.6,1.2,0.7,1.9s0.2,1.5,0.2,2.4v9c0,0.9-0.2,1.7-0.6,2.1s-1,0.7-1.7,0.7
			c-1.5,0-2.3-1-2.3-2.9v-7.9c0-1.5-0.2-2.7-0.7-3.5c-0.4-0.8-1.3-1.2-2.5-1.2c-0.8,0-1.6,0.2-2.3,0.7c-0.7,0.5-1.2,1.1-1.5,2
			c-0.3,0.7-0.4,1.9-0.4,3.7v6.2c0,0.9-0.2,1.6-0.6,2.1s-1,0.7-1.7,0.7c-1.5,0-2.3-1-2.3-2.9v-20.4c0-1,0.2-1.7,0.6-2.1
			c0.4-0.5,1-0.7,1.7-0.7c0.7,0,1.3,0.2,1.7,0.7S-388.7,114.4-388.7,115.3z"/>
		<path class="st4" d="M-358.9,130.2h-9.2c0,1.1,0.2,2,0.6,2.8s1,1.4,1.7,1.8c0.7,0.4,1.5,0.6,2.3,0.6c0.6,0,1.1-0.1,1.5-0.2
			c0.5-0.1,0.9-0.3,1.4-0.6c0.4-0.3,0.8-0.6,1.2-0.9c0.4-0.3,0.8-0.8,1.4-1.3c0.2-0.2,0.6-0.3,1-0.3c0.5,0,0.9,0.1,1.2,0.4
			c0.3,0.3,0.4,0.6,0.4,1.1c0,0.4-0.2,0.9-0.5,1.5c-0.3,0.6-0.8,1.1-1.5,1.6s-1.5,1-2.5,1.3c-1,0.3-2.2,0.5-3.5,0.5
			c-3,0-5.4-0.9-7-2.6s-2.5-4.1-2.5-7c0-1.4,0.2-2.7,0.6-3.9s1-2.2,1.8-3.1c0.8-0.8,1.8-1.5,2.9-2s2.4-0.7,3.9-0.7
			c1.8,0,3.4,0.4,4.7,1.2c1.3,0.8,2.3,1.8,3,3c0.7,1.2,1,2.5,1,3.8c0,1.2-0.3,1.9-1,2.3C-356.7,130-357.6,130.2-358.9,130.2z
			 M-368.1,127.5h8.5c-0.1-1.6-0.5-2.8-1.3-3.6c-0.8-0.8-1.7-1.2-3-1.2c-1.2,0-2.1,0.4-2.9,1.2
			C-367.5,124.7-367.9,125.9-368.1,127.5z"/>
		<path class="st4" d="M-348.7,117.3c-0.7,0-1.2-0.2-1.7-0.6c-0.5-0.4-0.7-1-0.7-1.7c0-0.7,0.2-1.2,0.7-1.6c0.5-0.4,1-0.6,1.7-0.6
			c0.6,0,1.1,0.2,1.6,0.6c0.5,0.4,0.7,1,0.7,1.7c0,0.7-0.2,1.3-0.7,1.7S-348,117.3-348.7,117.3z M-346.3,122.1v13.6
			c0,0.9-0.2,1.7-0.7,2.1c-0.4,0.5-1,0.7-1.7,0.7s-1.2-0.2-1.7-0.7c-0.4-0.5-0.6-1.2-0.6-2.1v-13.4c0-0.9,0.2-1.6,0.6-2.1
			s1-0.7,1.7-0.7s1.3,0.2,1.7,0.7C-346.6,120.6-346.3,121.3-346.3,122.1z"/>
		<path class="st4" d="M-324.2,122.9v13.7c0,1.6-0.2,2.9-0.5,4c-0.3,1.1-0.9,2.1-1.6,2.8c-0.7,0.7-1.7,1.3-2.9,1.6
			c-1.2,0.4-2.7,0.5-4.4,0.5c-1.6,0-3.1-0.2-4.3-0.7s-2.3-1-2.9-1.8c-0.7-0.7-1-1.5-1-2.2c0-0.6,0.2-1,0.6-1.4
			c0.4-0.4,0.9-0.5,1.4-0.5c0.7,0,1.3,0.3,1.8,0.9c0.3,0.3,0.5,0.6,0.8,0.9c0.3,0.3,0.6,0.6,0.9,0.8c0.3,0.2,0.7,0.4,1.2,0.5
			c0.5,0.1,1,0.2,1.6,0.2c1.2,0,2.2-0.2,2.8-0.5s1.1-0.8,1.4-1.4c0.3-0.6,0.4-1.3,0.5-2c0-0.7,0.1-1.8,0.1-3.3
			c-0.7,1-1.6,1.8-2.5,2.3c-0.9,0.5-2.1,0.8-3.4,0.8c-1.6,0-2.9-0.4-4.1-1.2c-1.2-0.8-2.1-1.9-2.7-3.4c-0.6-1.4-0.9-3.1-0.9-5
			c0-1.4,0.2-2.7,0.6-3.8c0.4-1.1,0.9-2.1,1.6-2.9s1.5-1.4,2.5-1.8s2-0.6,3.1-0.6c1.3,0,2.5,0.3,3.5,0.8s1.9,1.3,2.7,2.4V122
			c0-0.8,0.2-1.4,0.6-1.9c0.4-0.4,0.9-0.7,1.5-0.7c0.9,0,1.5,0.3,1.8,0.9S-324.2,121.8-324.2,122.9z M-337.8,128.9
			c0,1.9,0.4,3.3,1.2,4.3c0.8,1,1.9,1.5,3.2,1.5c0.8,0,1.5-0.2,2.2-0.6c0.7-0.4,1.3-1.1,1.7-1.9c0.4-0.8,0.7-1.9,0.7-3.1
			c0-1.9-0.4-3.4-1.3-4.5s-2-1.6-3.3-1.6c-1.3,0-2.4,0.5-3.2,1.5C-337.4,125.5-337.8,127-337.8,128.9z"/>
		<path class="st4" d="M-314.8,115.3v7c0.6-0.7,1.2-1.2,1.7-1.6c0.6-0.4,1.2-0.7,1.9-0.9c0.7-0.2,1.4-0.3,2.2-0.3
			c1.2,0,2.3,0.3,3.2,0.8c0.9,0.5,1.7,1.2,2.2,2.2c0.3,0.6,0.6,1.2,0.7,1.9s0.2,1.5,0.2,2.4v9c0,0.9-0.2,1.7-0.6,2.1
			c-0.4,0.5-1,0.7-1.7,0.7c-1.5,0-2.3-1-2.3-2.9v-7.9c0-1.5-0.2-2.7-0.7-3.5c-0.4-0.8-1.3-1.2-2.5-1.2c-0.8,0-1.6,0.2-2.3,0.7
			c-0.7,0.5-1.2,1.1-1.5,2c-0.3,0.7-0.4,1.9-0.4,3.7v6.2c0,0.9-0.2,1.6-0.6,2.1s-1,0.7-1.7,0.7c-1.5,0-2.3-1-2.3-2.9v-20.4
			c0-1,0.2-1.7,0.6-2.1c0.4-0.5,1-0.7,1.7-0.7c0.7,0,1.3,0.2,1.7,0.7S-314.8,114.4-314.8,115.3z"/>
		<path class="st4" d="M-297.9,119.9h0.5v-2.8c0-0.8,0-1.4,0.1-1.8c0-0.4,0.2-0.8,0.3-1.1c0.2-0.3,0.4-0.6,0.8-0.8
			c0.3-0.2,0.7-0.3,1.2-0.3c0.6,0,1.1,0.2,1.6,0.7c0.3,0.3,0.5,0.7,0.6,1.1c0.1,0.4,0.1,1,0.1,1.8v3.2h1.7c0.7,0,1.2,0.2,1.5,0.5
			s0.5,0.7,0.5,1.2c0,0.6-0.2,1.1-0.7,1.3c-0.5,0.3-1.2,0.4-2.1,0.4h-0.9v8.6c0,0.7,0,1.3,0.1,1.7c0.1,0.4,0.2,0.7,0.4,1
			c0.2,0.2,0.6,0.4,1.1,0.4c0.3,0,0.6,0,1.1-0.1s0.8-0.1,1.1-0.1c0.4,0,0.7,0.2,1,0.5s0.5,0.7,0.5,1.1c0,0.8-0.4,1.3-1.2,1.7
			c-0.8,0.4-2,0.6-3.6,0.6c-1.5,0-2.6-0.2-3.3-0.7c-0.8-0.5-1.3-1.2-1.5-2s-0.4-2-0.4-3.5v-9h-0.6c-0.7,0-1.2-0.2-1.5-0.5
			c-0.4-0.3-0.5-0.7-0.5-1.2c0-0.5,0.2-0.9,0.6-1.2C-299.1,120-298.6,119.9-297.9,119.9z"/>
	</g>
	<g>
		<g>
			<path class="st3" d="M274.5,157.6l53.7,53.7c12.6,0,25.1,0,37.7,0"/>
			<g>
				<polygon class="st4" points="269.5,166.8 264.3,147.5 283.6,152.6 				"/>
			</g>
		</g>
	</g>
	<g>
		<path class="st4" d="M374.8,179.4v7c0.6-0.7,1.2-1.2,1.7-1.6c0.6-0.4,1.2-0.7,1.9-0.9c0.7-0.2,1.4-0.3,2.2-0.3
			c1.2,0,2.3,0.3,3.2,0.8c0.9,0.5,1.7,1.2,2.2,2.2c0.3,0.6,0.6,1.2,0.7,1.9c0.1,0.7,0.2,1.5,0.2,2.4v9c0,0.9-0.2,1.7-0.6,2.1
			s-1,0.7-1.7,0.7c-1.5,0-2.3-1-2.3-2.9v-7.9c0-1.5-0.2-2.7-0.7-3.5c-0.4-0.8-1.3-1.2-2.5-1.2c-0.8,0-1.6,0.2-2.3,0.7
			s-1.2,1.1-1.5,2c-0.3,0.7-0.4,1.9-0.4,3.7v6.2c0,0.9-0.2,1.6-0.6,2.1s-1,0.7-1.7,0.7c-1.5,0-2.3-1-2.3-2.9v-20.4
			c0-1,0.2-1.7,0.6-2.1s1-0.7,1.7-0.7c0.7,0,1.3,0.2,1.7,0.7S374.8,178.5,374.8,179.4z"/>
		<path class="st4" d="M409.1,193.1c0,1.4-0.2,2.7-0.7,3.9c-0.4,1.2-1.1,2.2-1.9,3s-1.8,1.5-3,2s-2.4,0.7-3.9,0.7
			c-1.4,0-2.7-0.2-3.8-0.7s-2.1-1.1-3-2c-0.8-0.9-1.5-1.9-1.9-3s-0.6-2.5-0.6-3.9c0-1.4,0.2-2.7,0.7-3.9s1.1-2.2,1.9-3
			c0.8-0.8,1.8-1.5,3-1.9s2.4-0.7,3.8-0.7c1.4,0,2.7,0.2,3.9,0.7s2.2,1.1,3,2c0.8,0.8,1.5,1.9,1.9,3
			C408.9,190.4,409.1,191.7,409.1,193.1z M404.4,193.1c0-1.9-0.4-3.4-1.3-4.5c-0.8-1.1-2-1.6-3.4-1.6c-0.9,0-1.7,0.2-2.4,0.7
			c-0.7,0.5-1.2,1.2-1.6,2.1c-0.4,0.9-0.6,2-0.6,3.3c0,1.2,0.2,2.3,0.6,3.2c0.4,0.9,0.9,1.6,1.6,2.1c0.7,0.5,1.5,0.7,2.5,0.7
			c1.4,0,2.6-0.5,3.4-1.6C404,196.5,404.4,195,404.4,193.1z"/>
		<path class="st4" d="M412.8,199.8v-20.4c0-0.9,0.2-1.7,0.6-2.1s1-0.7,1.7-0.7s1.3,0.2,1.7,0.7c0.4,0.5,0.7,1.2,0.7,2.1v20.4
			c0,1-0.2,1.7-0.7,2.1c-0.4,0.5-1,0.7-1.7,0.7c-0.7,0-1.2-0.2-1.7-0.7S412.8,200.8,412.8,199.8z"/>
		<path class="st4" d="M435.5,194.3h-9.2c0,1.1,0.2,2,0.6,2.8s1,1.4,1.7,1.8c0.7,0.4,1.5,0.6,2.3,0.6c0.6,0,1.1-0.1,1.5-0.2
			c0.5-0.1,0.9-0.3,1.4-0.6c0.4-0.3,0.8-0.6,1.2-0.9c0.4-0.3,0.8-0.8,1.4-1.3c0.2-0.2,0.6-0.3,1-0.3c0.5,0,0.9,0.1,1.2,0.4
			c0.3,0.3,0.4,0.6,0.4,1.1c0,0.4-0.2,0.9-0.5,1.5c-0.3,0.6-0.8,1.1-1.5,1.6c-0.7,0.5-1.5,1-2.5,1.3c-1,0.3-2.2,0.5-3.5,0.5
			c-3,0-5.4-0.9-7-2.6s-2.5-4.1-2.5-7c0-1.4,0.2-2.7,0.6-3.9c0.4-1.2,1-2.2,1.8-3.1s1.8-1.5,2.9-2c1.2-0.5,2.4-0.7,3.9-0.7
			c1.8,0,3.4,0.4,4.7,1.2c1.3,0.8,2.3,1.8,3,3c0.7,1.2,1,2.5,1,3.8c0,1.2-0.3,1.9-1,2.3C437.7,194.1,436.7,194.3,435.5,194.3z
			 M426.3,191.6h8.5c-0.1-1.6-0.5-2.8-1.3-3.6c-0.8-0.8-1.7-1.2-3-1.2c-1.2,0-2.1,0.4-2.9,1.2C426.9,188.8,426.5,190,426.3,191.6z"
			/>
		<path class="st4" d="M383.1,233.8v-0.5c-0.6,0.7-1.3,1.3-1.9,1.8s-1.3,0.8-2,1c-0.7,0.2-1.5,0.4-2.4,0.4c-1.1,0-2.2-0.2-3.1-0.7
			c-1-0.5-1.8-1.2-2.5-2c-0.7-0.9-1.2-1.9-1.6-3.1c-0.4-1.2-0.5-2.5-0.5-3.9c0-2.9,0.7-5.2,2.2-6.9c1.4-1.6,3.3-2.5,5.7-2.5
			c1.4,0,2.5,0.2,3.4,0.7c0.9,0.5,1.8,1.2,2.7,2.1v-6.9c0-1,0.2-1.7,0.6-2.2c0.4-0.5,0.9-0.7,1.6-0.7s1.3,0.2,1.6,0.7s0.6,1.1,0.6,2
			v20.7c0,0.9-0.2,1.6-0.6,2s-0.9,0.7-1.6,0.7c-0.6,0-1.2-0.2-1.6-0.7C383.3,235.3,383.1,234.7,383.1,233.8z M373.8,226.9
			c0,1.3,0.2,2.4,0.6,3.3c0.4,0.9,0.9,1.6,1.6,2c0.7,0.5,1.4,0.7,2.3,0.7c0.8,0,1.6-0.2,2.3-0.6c0.7-0.4,1.2-1.1,1.6-2
			c0.4-0.9,0.6-2,0.6-3.3c0-1.3-0.2-2.3-0.6-3.2c-0.4-0.9-1-1.6-1.7-2.1c-0.7-0.5-1.5-0.7-2.3-0.7c-0.9,0-1.6,0.2-2.3,0.7
			s-1.2,1.2-1.6,2.1C374,224.6,373.8,225.7,373.8,226.9z"/>
		<path class="st4" d="M394.6,215.2c-0.7,0-1.2-0.2-1.7-0.6c-0.5-0.4-0.7-1-0.7-1.7c0-0.7,0.2-1.2,0.7-1.6s1-0.6,1.7-0.6
			c0.6,0,1.1,0.2,1.6,0.6s0.7,1,0.7,1.7c0,0.7-0.2,1.3-0.7,1.7C395.8,215,395.3,215.2,394.6,215.2z M396.9,220v13.6
			c0,0.9-0.2,1.7-0.7,2.1c-0.4,0.5-1,0.7-1.7,0.7c-0.7,0-1.2-0.2-1.7-0.7c-0.4-0.5-0.6-1.2-0.6-2.1v-13.4c0-0.9,0.2-1.6,0.6-2.1
			c0.4-0.5,1-0.7,1.7-0.7c0.7,0,1.3,0.2,1.7,0.7C396.7,218.6,396.9,219.2,396.9,220z"/>
		<path class="st4" d="M413.7,233.8c-1.1,0.9-2.2,1.5-3.3,2c-1.1,0.4-2.3,0.7-3.6,0.7c-1.2,0-2.3-0.2-3.2-0.7
			c-0.9-0.5-1.6-1.1-2.1-1.9c-0.5-0.8-0.7-1.7-0.7-2.7c0-1.3,0.4-2.4,1.2-3.3c0.8-0.9,1.9-1.5,3.4-1.8c0.3-0.1,1-0.2,2.2-0.5
			c1.2-0.2,2.2-0.5,3-0.7c0.8-0.2,1.8-0.4,2.7-0.7c-0.1-1.2-0.3-2.1-0.7-2.7c-0.4-0.6-1.4-0.9-2.7-0.9c-1.2,0-2.1,0.2-2.7,0.5
			s-1.1,0.8-1.5,1.5s-0.7,1.1-0.9,1.3s-0.6,0.3-1.1,0.3c-0.5,0-1-0.2-1.4-0.5c-0.4-0.3-0.6-0.8-0.6-1.3c0-0.8,0.3-1.6,0.9-2.4
			s1.5-1.4,2.7-1.9c1.2-0.5,2.8-0.8,4.6-0.8c2.1,0,3.7,0.2,4.9,0.7c1.2,0.5,2,1.3,2.5,2.3s0.7,2.5,0.7,4.2c0,1.1,0,2,0,2.8
			c0,0.8,0,1.6,0,2.6c0,0.9,0.1,1.8,0.4,2.8c0.3,1,0.4,1.6,0.4,1.9c0,0.5-0.2,0.9-0.7,1.3c-0.5,0.4-1,0.6-1.5,0.6
			c-0.5,0-1-0.2-1.4-0.7C414.7,235.4,414.2,234.7,413.7,233.8z M413.4,227c-0.7,0.3-1.7,0.5-3,0.8s-2.2,0.5-2.7,0.6
			c-0.5,0.1-1,0.4-1.4,0.8c-0.5,0.4-0.7,0.9-0.7,1.6c0,0.7,0.3,1.3,0.8,1.8s1.2,0.7,2.1,0.7c0.9,0,1.8-0.2,2.6-0.6
			c0.8-0.4,1.4-0.9,1.7-1.6c0.4-0.7,0.6-1.9,0.6-3.5V227z"/>
		<path class="st4" d="M438.4,227.3v6.3c0,1-0.2,1.7-0.7,2.2c-0.4,0.5-1,0.7-1.8,0.7c-0.7,0-1.3-0.2-1.7-0.7
			c-0.4-0.5-0.7-1.2-0.7-2.2V226c0-1.2,0-2.1-0.1-2.8c-0.1-0.7-0.3-1.2-0.7-1.6s-0.9-0.6-1.7-0.6c-1.5,0-2.6,0.5-3,1.6
			s-0.7,2.6-0.7,4.5v6.4c0,1-0.2,1.7-0.7,2.2c-0.4,0.5-1,0.7-1.7,0.7c-0.7,0-1.3-0.2-1.7-0.7c-0.5-0.5-0.7-1.2-0.7-2.2v-13.4
			c0-0.9,0.2-1.6,0.6-2s0.9-0.7,1.6-0.7c0.6,0,1.2,0.2,1.6,0.6c0.4,0.4,0.6,1,0.6,1.8v0.4c0.8-1,1.7-1.7,2.6-2.2
			c0.9-0.5,2-0.7,3.1-0.7c1.2,0,2.2,0.2,3,0.7c0.8,0.5,1.5,1.2,2.1,2.1c0.8-1,1.6-1.7,2.5-2.1c0.9-0.5,1.9-0.7,3-0.7
			c1.3,0,2.4,0.3,3.3,0.8c0.9,0.5,1.6,1.2,2.1,2.2c0.4,0.8,0.6,2.2,0.6,4v9.2c0,1-0.2,1.7-0.7,2.2c-0.4,0.5-1,0.7-1.8,0.7
			c-0.7,0-1.3-0.2-1.7-0.7c-0.5-0.5-0.7-1.2-0.7-2.2v-7.9c0-1,0-1.8-0.1-2.4c-0.1-0.6-0.3-1.1-0.7-1.5c-0.4-0.4-1-0.6-1.7-0.6
			c-0.6,0-1.2,0.2-1.8,0.6s-1,0.9-1.3,1.5C438.6,223.9,438.4,225.3,438.4,227.3z"/>
		<path class="st4" d="M467.1,228.1h-9.2c0,1.1,0.2,2,0.6,2.8s1,1.4,1.7,1.8c0.7,0.4,1.5,0.6,2.3,0.6c0.6,0,1.1-0.1,1.5-0.2
			c0.5-0.1,0.9-0.3,1.4-0.6c0.4-0.3,0.8-0.6,1.2-0.9c0.4-0.3,0.8-0.8,1.4-1.3c0.2-0.2,0.6-0.3,1-0.3c0.5,0,0.9,0.1,1.2,0.4
			s0.4,0.6,0.4,1.1c0,0.4-0.2,0.9-0.5,1.5c-0.3,0.6-0.8,1.1-1.5,1.6c-0.7,0.5-1.5,1-2.5,1.3c-1,0.3-2.2,0.5-3.5,0.5
			c-3,0-5.4-0.9-7-2.6s-2.5-4.1-2.5-7c0-1.4,0.2-2.7,0.6-3.9c0.4-1.2,1-2.2,1.8-3.1c0.8-0.8,1.8-1.5,2.9-2s2.4-0.7,3.9-0.7
			c1.8,0,3.4,0.4,4.7,1.2c1.3,0.8,2.3,1.8,3,3c0.7,1.2,1,2.5,1,3.8c0,1.2-0.3,1.9-1,2.3C469.3,227.9,468.3,228.1,467.1,228.1z
			 M457.9,225.4h8.5c-0.1-1.6-0.5-2.8-1.3-3.6c-0.8-0.8-1.7-1.2-3-1.2c-1.2,0-2.1,0.4-2.9,1.2C458.5,222.6,458.1,223.8,457.9,225.4z
			"/>
		<path class="st4" d="M475.2,217.8h0.5V215c0-0.8,0-1.4,0.1-1.8c0-0.4,0.2-0.8,0.3-1.1c0.2-0.3,0.4-0.6,0.8-0.8
			c0.3-0.2,0.7-0.3,1.2-0.3c0.6,0,1.1,0.2,1.6,0.7c0.3,0.3,0.5,0.7,0.6,1.1c0.1,0.4,0.1,1,0.1,1.8v3.2h1.7c0.7,0,1.2,0.2,1.5,0.5
			c0.4,0.3,0.5,0.7,0.5,1.2c0,0.6-0.2,1.1-0.7,1.3s-1.2,0.4-2.1,0.4h-0.9v8.6c0,0.7,0,1.3,0.1,1.7s0.2,0.7,0.4,1s0.6,0.4,1.1,0.4
			c0.3,0,0.6,0,1.1-0.1c0.5-0.1,0.8-0.1,1.1-0.1c0.4,0,0.7,0.2,1,0.5s0.5,0.7,0.5,1.1c0,0.8-0.4,1.3-1.2,1.7s-2,0.6-3.6,0.6
			c-1.5,0-2.6-0.2-3.3-0.7c-0.8-0.5-1.3-1.2-1.5-2c-0.2-0.9-0.4-2-0.4-3.5v-9h-0.6c-0.7,0-1.2-0.2-1.5-0.5c-0.4-0.3-0.5-0.7-0.5-1.2
			s0.2-0.9,0.6-1.2C473.9,217.9,474.5,217.8,475.2,217.8z"/>
		<path class="st4" d="M500.5,228.1h-9.2c0,1.1,0.2,2,0.6,2.8s1,1.4,1.7,1.8c0.7,0.4,1.5,0.6,2.3,0.6c0.6,0,1.1-0.1,1.5-0.2
			c0.5-0.1,0.9-0.3,1.4-0.6c0.4-0.3,0.8-0.6,1.2-0.9c0.4-0.3,0.8-0.8,1.4-1.3c0.2-0.2,0.6-0.3,1-0.3c0.5,0,0.9,0.1,1.2,0.4
			s0.4,0.6,0.4,1.1c0,0.4-0.2,0.9-0.5,1.5c-0.3,0.6-0.8,1.1-1.5,1.6c-0.7,0.5-1.5,1-2.5,1.3c-1,0.3-2.2,0.5-3.5,0.5
			c-3,0-5.4-0.9-7-2.6s-2.5-4.1-2.5-7c0-1.4,0.2-2.7,0.6-3.9c0.4-1.2,1-2.2,1.8-3.1c0.8-0.8,1.8-1.5,2.9-2c1.2-0.5,2.4-0.7,3.9-0.7
			c1.8,0,3.4,0.4,4.7,1.2c1.3,0.8,2.3,1.8,3,3c0.7,1.2,1,2.5,1,3.8c0,1.2-0.3,1.9-1,2.3S501.8,228.1,500.5,228.1z M491.3,225.4h8.5
			c-0.1-1.6-0.5-2.8-1.3-3.6c-0.8-0.8-1.7-1.2-3-1.2c-1.2,0-2.1,0.4-2.9,1.2C492,222.6,491.5,223.8,491.3,225.4z"/>
		<path class="st4" d="M513,229.7v3.9c0,1-0.2,1.7-0.7,2.1c-0.4,0.5-1,0.7-1.7,0.7c-0.7,0-1.2-0.2-1.7-0.7s-0.7-1.2-0.7-2.1v-13.1
			c0-2.1,0.8-3.2,2.3-3.2c0.8,0,1.3,0.2,1.7,0.7s0.5,1.2,0.6,2.2c0.6-1,1.1-1.7,1.7-2.2s1.4-0.7,2.4-0.7c1,0,1.9,0.2,2.9,0.7
			c0.9,0.5,1.4,1.1,1.4,2c0,0.6-0.2,1-0.6,1.4s-0.8,0.6-1.3,0.6c-0.2,0-0.6-0.1-1.2-0.3c-0.7-0.2-1.2-0.3-1.7-0.3
			c-0.7,0-1.3,0.2-1.7,0.5c-0.4,0.4-0.8,0.9-1,1.6c-0.2,0.7-0.4,1.6-0.5,2.5C513.1,227.1,513,228.3,513,229.7z"/>
	</g>
	<line class="st3" x1="198.9" y1="104.4" x2="254.4" y2="104.4"/>
	<line class="st3" x1="226.5" y1="132.1" x2="226.5" y2="76.7"/>
	<g>
		<g>
			<g>
				<line class="st6" x1="-120" y1="455.2" x2="-120" y2="331"/>
				<g>
					<polygon class="st4" points="-108.3,334.5 -120,314.2 -131.7,334.5 					"/>
				</g>
			</g>
		</g>
		<g>
			<g>
				<line class="st6" x1="-122.9" y1="452.4" x2="1.3" y2="452.4"/>
				<g>
					<polygon class="st4" points="-2.2,464.1 18.1,452.4 -2.2,440.6 					"/>
				</g>
			</g>
		</g>
	</g>
	<g>
		<path class="st4" d="M-100.4,292.8h5.1l4.4,13l4.3-13h5l-6.5,17.6l-1.2,3.2c-0.4,1.1-0.8,1.9-1.2,2.4c-0.4,0.6-0.8,1-1.3,1.4
			c-0.5,0.4-1.1,0.6-1.8,0.8c-0.7,0.2-1.6,0.3-2.5,0.3c-0.9,0-1.8-0.1-2.7-0.3l-0.4-3.8c0.8,0.1,1.4,0.2,2,0.2c1.1,0,2-0.3,2.5-1
			c0.5-0.7,1-1.5,1.2-2.5L-100.4,292.8z"/>
	</g>
	<g>
		<path class="st4" d="M11.2,429.1l6.6-9.4l-6.3-8.9h5.9l3.2,5l3.4-5h5.7l-6.2,8.7l6.8,9.6h-5.9l-3.7-5.7l-3.8,5.7H11.2z"/>
	</g>
</g>
</svg>
